<?xml version="1.0" encoding="UTF-8" standalone="no"?>
<!-- Created with Inkscape (http://www.inkscape.org/) -->

<svg
   xmlns:dc="http://purl.org/dc/elements/1.1/"
   xmlns:cc="http://creativecommons.org/ns#"
   xmlns:rdf="http://www.w3.org/1999/02/22-rdf-syntax-ns#"
   xmlns:svg="http://www.w3.org/2000/svg"
   xmlns="http://www.w3.org/2000/svg"
   xmlns:xlink="http://www.w3.org/1999/xlink"
   xmlns:sodipodi="http://sodipodi.sourceforge.net/DTD/sodipodi-0.dtd"
   xmlns:inkscape="http://www.inkscape.org/namespaces/inkscape"
   width="368.5625"
   height="391.21832"
   id="svg2"
   version="1.1"
   inkscape:version="0.48.4 r9939"
   sodipodi:docname="dettaglio RB.svg">
  <sodipodi:namedview
     id="base"
     pagecolor="#ffffff"
     bordercolor="#666666"
     borderopacity="1.0"
     inkscape:pageopacity="0.0"
     inkscape:pageshadow="2"
     inkscape:zoom="1.979899"
     inkscape:cx="155.83631"
     inkscape:cy="320.31291"
     inkscape:document-units="px"
     inkscape:current-layer="layer1"
     showgrid="false"
     inkscape:window-width="1680"
     inkscape:window-height="995"
     inkscape:window-x="1278"
     inkscape:window-y="32"
     inkscape:window-maximized="1"
     fit-margin-top="5"
     fit-margin-left="5"
     fit-margin-right="5"
     fit-margin-bottom="5" />
  <defs
     id="defs4">
    <linearGradient
       id="linearGradient3894">
      <stop
         style="stop-color:#522cff;stop-opacity:0.56578946;"
         offset="0"
         id="stop3896" />
      <stop
         style="stop-color:#ffc2c2;stop-opacity:0.6381579;"
         offset="1"
         id="stop3898" />
    </linearGradient>
    <linearGradient
       inkscape:collect="always"
       id="linearGradient3829">
      <stop
         style="stop-color:#f22323;stop-opacity:1;"
         offset="0"
         id="stop3831" />
      <stop
         style="stop-color:#f22323;stop-opacity:0;"
         offset="1"
         id="stop3833" />
    </linearGradient>
    <linearGradient
       id="linearGradient3829-8">
      <stop
         style="stop-color:#2c0de1;stop-opacity:1;"
         offset="0"
         id="stop3831-5" />
      <stop
         style="stop-color:#3123f2;stop-opacity:0;"
         offset="1"
         id="stop3833-0" />
    </linearGradient>
    <marker
       inkscape:stockid="Arrow1MendW"
       orient="auto"
       refY="0"
       refX="0"
       id="Arrow1MendW"
       style="overflow:visible">
      <path
         id="path4555"
         d="M 0,0 5,-5 -12.5,0 5,5 0,0 z"
         style="fill:#570000;fill-rule:evenodd;stroke:#570000;stroke-width:1pt"
         transform="matrix(-0.4,0,0,-0.4,-4,0)"
         inkscape:connector-curvature="0" />
    </marker>
    <marker
       inkscape:stockid="Arrow1MendT"
       orient="auto"
       refY="0"
       refX="0"
       id="Arrow1MendT"
       style="overflow:visible">
      <path
         id="path4835"
         d="M 0,0 5,-5 -12.5,0 5,5 0,0 z"
         style="fill:#09004e;fill-rule:evenodd;stroke:#09004e;stroke-width:1pt"
         transform="matrix(-0.4,0,0,-0.4,-4,0)"
         inkscape:connector-curvature="0" />
    </marker>
    <linearGradient
       inkscape:collect="always"
       xlink:href="#linearGradient3894"
       id="linearGradient4907"
       gradientUnits="userSpaceOnUse"
       x1="276.67728"
       y1="-0.73964643"
       x2="274.32568"
       y2="452.11749" />
    <linearGradient
       inkscape:collect="always"
       xlink:href="#linearGradient3829"
       id="linearGradient4909"
       gradientUnits="userSpaceOnUse"
       x1="280.28909"
       y1="366.00732"
       x2="281.04578"
       y2="47.435909" />
    <linearGradient
       inkscape:collect="always"
       xlink:href="#linearGradient3829-8"
       id="linearGradient4911"
       gradientUnits="userSpaceOnUse"
       x1="79.256561"
       y1="59.625824"
       x2="75.115707"
       y2="387.48297" />
  </defs>
  <metadata
     id="metadata7">
    <rdf:RDF>
      <cc:Work
         rdf:about="">
        <dc:format>image/svg+xml</dc:format>
        <dc:type
           rdf:resource="http://purl.org/dc/dcmitype/StillImage" />
        <dc:title></dc:title>
      </cc:Work>
    </rdf:RDF>
  </metadata>
  <g
     inkscape:label="Livello 1"
     inkscape:groupmode="layer"
     id="layer1"
     transform="translate(-52.09375,-26.902527)">
    <path
       style="fill:url(#linearGradient4907);fill-opacity:1;stroke:#000000;stroke-width:1px;stroke-linecap:butt;stroke-linejoin:miter;stroke-opacity:1"
       d="m 58.715121,372.40325 c 0,0 105.251819,-4.56973 119.071729,-9.97526 10.71014,-4.18917 23.16489,-4.37421 32.82996,-10.6066 12.6206,-8.13822 24.8209,-19.35506 30.30457,-33.33503 6.27112,-15.98747 0.11439,-34.34881 0.50508,-51.51778 0.53655,-23.57915 3.51808,-47.14633 2.52538,-70.71068 -0.59241,-14.06236 -1.46849,-28.31 -5.05076,-41.92133 -3.89935,-14.81612 -7.95845,-30.58331 -17.67767,-42.42641 -9.3903,-11.44231 -10.52635,-14.708214 -24.30929,-20.105878 -13.17022,-5.15771 -33.94578,-3.935258 -47.99276,-2.280278 -13.19628,1.554752 -55.051271,15.560756 -44.37057,6.223718 9.7822,-8.551575 20.97528,-16.195913 33.33504,-20.203051 13.65901,-4.428366 29.29895,-7.588638 43.64577,-8.178391 23.71855,-0.974996 48.90593,-0.452093 72.64432,-0.357143 21.04535,0.08418 43.16416,-0.961743 64.20597,-0.566353 28.46006,0.534785 55.48228,-0.988043 83.92931,0.02538 4.04155,0.14398 6.35528,-3.375307 9.26469,-0.566351 1.70907,1.650064 2.2174,6.695154 2.57178,11.951156 0.30052,4.45728 0.69092,9.191613 -0.4902,10.823684 -6.20035,8.567603 -20.63576,4.688234 -30.80965,7.576144 -15.8266,4.492463 -31.68619,6.975133 -45.96195,15.152293 -7.24288,4.14872 -14.55142,9.41759 -18.68782,16.66751 -5.61231,9.83675 -4.67939,22.16811 -6.56599,33.33504 -2.40755,14.25046 -5.10415,28.51078 -6.06091,42.93148 -1.4378,21.67129 -1.61969,43.54009 0.50507,65.15484 2.4647,25.07284 -0.29578,53.59993 14.14214,74.24621 8.65389,12.3751 24.87443,17.61459 38.89087,23.23351 12.6617,5.07583 18.66567,1.94317 31.81981,5.55584 2.49576,0.68543 18.13947,-0.6779 23.06088,1.47521 1.64851,0.72122 -1.73053,6.82385 -0.71126,7.17422 l -354.672813,1.10233 z"
       id="path3819"
       inkscape:connector-curvature="0"
       sodipodi:nodetypes="cssssssssssssssssssssssssssssccc" />
    <path
       style="fill:url(#linearGradient4909);fill-opacity:1;stroke:#000000;stroke-width:0.87978536px;stroke-linecap:butt;stroke-linejoin:miter;stroke-opacity:1"
       d="m 413.53483,381.681 c -0.24008,0.013 0.72449,-0.8014 0.32857,-3.10261 m -0.18755,-2.97258 c 0,0 -42.00953,0.0102 -47.8465,-0.61402 -18.3695,-1.96456 -35.98668,-1.72358 -41.57998,-5.43909 -5.74393,-3.81557 -10.07366,-10.54408 -14.45707,-16.67642 -2.77626,-3.88395 -5.82851,-7.76331 -7.42391,-12.63364 -3.70061,-11.297 -2.89896,-24.25004 -4.29804,-36.38491 -1.06761,-9.25979 -2.68034,-18.4496 -3.12586,-27.79403 -0.37683,-7.90386 -0.24944,-15.87578 0.39074,-23.75125 0.58223,-7.16257 2.83831,-14.0321 3.12585,-21.22453 0.31723,-7.93511 -1.72111,-15.80819 -1.56293,-23.75126 0.17263,-8.66854 4.11131,-17.28584 2.73513,-25.77264 -0.97201,-5.99428 0.72959,-18.26444 -2.87822,-22.23172 -4.71716,-5.18717 -13.23662,-14.22261 -19.2125,-12.12668 -5.38036,1.88706 -10.53423,20.12618 -12.68441,26.77821 -2.53627,7.84651 -3.5172,16.82309 -2.73512,25.2673 0.96651,10.43557 7.62179,18.94923 8.98683,29.31006 1.09477,8.3094 -0.51364,16.84525 -0.78146,25.2673 -0.38033,11.96041 -0.10497,23.98887 -1.1722,35.87955 -1.0397,11.58418 -1.95357,23.42478 -5.07951,34.36353 -2.5482,8.917 -5.47129,18.41057 -10.94049,24.76195 -7.50787,8.71888 -18.16264,11.56529 -27.74194,15.66572 -12.0574,5.16117 -33.28527,7.38877 -37.11952,9.3319 -1.96072,0.99366 -129.224682,-3.47528 -129.617203,1.28294 -0.265429,3.21758 2.125336,7.99111 -0.816615,7.072 L 413.53483,381.681"
       id="path3765"
       inkscape:connector-curvature="0"
       sodipodi:nodetypes="cccsssssssssssssssssssssscc" />
    <path
       style="fill:url(#linearGradient4911);fill-opacity:1;stroke:#000000;stroke-width:0.87978536px;stroke-linecap:butt;stroke-linejoin:miter;stroke-opacity:1"
       d="m 58.303346,81.820291 c 2.77626,3.88395 -1.242558,17.864835 0.352842,22.735169 3.70061,11.297 2.89896,24.25004 4.29804,36.38491 1.06761,9.25979 2.68034,18.4496 3.12586,27.79403 0.37683,7.90386 0.24944,15.87578 -0.39074,23.75125 -0.58223,7.16257 -2.83831,14.0321 -3.12585,21.22453 -0.31723,7.93511 1.72111,15.80819 1.56293,23.75126 -0.17263,8.66854 -4.11131,17.28584 -2.73513,25.77264 0.97201,5.99428 -0.72959,18.26444 2.87822,22.23172 4.71716,5.18717 13.23662,14.22261 19.2125,12.12668 5.38036,-1.88706 10.53423,-20.12618 12.68441,-26.77821 2.53627,-7.84651 3.5172,-16.82309 2.73512,-25.2673 -0.96651,-10.43557 -7.62179,-18.94923 -8.98683,-29.31006 -1.09477,-8.3094 0.51364,-16.84525 0.78146,-25.2673 0.38033,-11.96041 0.10497,-23.98887 1.1722,-35.87955 1.0397,-11.58418 1.95357,-23.42478 5.07951,-34.36353 2.5482,-8.917 5.471292,-18.41057 10.940492,-24.761954 7.50787,-8.71888 18.16264,-11.565285 27.74193,-15.665715 12.0574,-5.16117 33.57459,-6.900716 37.11952,-9.331902 1.9787,-1.357034 241.96113,3.710627 241.56617,-2.018893 -0.42895,-6.222464 -0.53251,-8.068492 -1.57878,-7.407476 L 59.111604,61.349332"
       id="path3765-6"
       inkscape:connector-curvature="0"
       sodipodi:nodetypes="cssssssssssssssssssscc" />
    <path
       style="fill:none;stroke:#570000;stroke-width:3.5;stroke-linecap:butt;stroke-linejoin:miter;stroke-miterlimit:4;stroke-opacity:1;stroke-dasharray:14, 3.5;stroke-dashoffset:0;marker-end:url(#Arrow1MendW)"
       d="m 209.42857,363.79075 c 0,0 22.14385,-9.4824 29.28572,-18.57143 10.09478,-12.84701 12.67261,-30.37559 15.71428,-46.42857 3.68324,-19.43897 2.86294,-39.50087 2.85714,-59.28571 -0.009,-29.32053 1.1148,-59.03825 -4.28571,-87.85714 -3.05096,-16.28091 -6.68817,-33.25381 -15.71429,-47.14286 -4.04077,-6.217784 -16.42857,-15.000001 -16.42857,-15.000001"
       id="path3892"
       inkscape:connector-curvature="0"
       sodipodi:nodetypes="csssssc" />
    <path
       sodipodi:nodetypes="csssssssc"
       inkscape:connector-curvature="0"
       id="path4595"
       d="m 175,79.505039 c 0,0 -30.0396,-0.233576 -42.85714,6.428571 -12.2532,6.368825 -22.51451,17.58966 -28.57143,30 -5.700753,11.68057 -4.389814,25.64162 -5.714287,38.57143 -1.701144,16.60695 -2.292942,33.31568 -2.857143,50 -0.764496,22.60738 -2.824736,45.33551 -0.714286,67.85714 2.265396,24.17513 2.204628,50.36637 14.285716,71.42857 5.70602,9.94789 16.29324,16.31779 25.71428,22.85715 3.76232,2.61151 12.14286,6.42857 12.14286,6.42857"
       style="fill:none;stroke:#09004e;stroke-width:3.5;stroke-linecap:butt;stroke-linejoin:miter;stroke-miterlimit:4;stroke-opacity:1;stroke-dasharray:14, 3.5;stroke-dashoffset:0;marker-end:url(#Arrow1MendT)" />
    <path
       style="fill:none;stroke:#570000;stroke-width:3.5;stroke-linecap:butt;stroke-linejoin:miter;stroke-miterlimit:4;stroke-opacity:1;stroke-dasharray:14, 3.5;stroke-dashoffset:0;marker-end:url(#Arrow1MendW)"
       d="m 350.84311,366.91287 c 0,0 -22.14385,-9.4824 -29.28572,-18.57143 -10.09478,-12.84701 -12.67261,-30.37559 -15.71428,-46.42857 -3.68324,-19.43897 -2.86294,-39.50087 -2.85714,-59.28571 0.009,-29.32053 -1.1148,-59.03825 4.28571,-87.85714 3.05096,-16.28091 6.68817,-33.25381 15.71429,-47.14286 4.04077,-6.21779 16.42857,-15 16.42857,-15"
       id="path3892-9"
       inkscape:connector-curvature="0"
       sodipodi:nodetypes="csssssc" />
    <rect
       style="fill:none;stroke:#000000;stroke-width:2;stroke-linecap:butt;stroke-miterlimit:4;stroke-opacity:1;stroke-dasharray:none;stroke-dashoffset:0"
       id="rect2985"
       width="355.5737"
       height="320.21832"
       x="58.588848"
       y="61.402531"
       ry="0.05462845" />
    <text
       xml:space="preserve"
       style="font-size:12px;font-style:normal;font-weight:normal;line-height:125%;letter-spacing:0px;word-spacing:0px;fill:#000000;fill-opacity:1;stroke:none;font-family:Sans"
       x="206.80176"
       y="412.80933"
       id="text4882"
       sodipodi:linespacing="125%"><tspan
         sodipodi:role="line"
         id="tspan4884"
         x="206.80176"
         y="412.80933"
         style="font-size:22px;font-weight:normal;-inkscape-font-specification:Sans">caldo</tspan></text>
    <text
       xml:space="preserve"
       style="font-size:12px;font-style:normal;font-weight:normal;line-height:125%;letter-spacing:0px;word-spacing:0px;fill:#000000;fill-opacity:1;stroke:none;font-family:Sans"
       x="201.10303"
       y="48.617371"
       id="text4882-8"
       sodipodi:linespacing="125%"><tspan
         sodipodi:role="line"
         id="tspan4884-9"
         x="201.10303"
         y="48.617371"
         style="font-size:22px;font-weight:normal;-inkscape-font-specification:Sans">freddo</tspan></text>
  </g>
</svg>
