<?xml version="1.0" encoding="UTF-8" standalone="no"?>
<!-- Created with Inkscape (http://www.inkscape.org/) -->

<svg
   xmlns:dc="http://purl.org/dc/elements/1.1/"
   xmlns:cc="http://creativecommons.org/ns#"
   xmlns:rdf="http://www.w3.org/1999/02/22-rdf-syntax-ns#"
   xmlns:svg="http://www.w3.org/2000/svg"
   xmlns="http://www.w3.org/2000/svg"
   xmlns:xlink="http://www.w3.org/1999/xlink"
   xmlns:sodipodi="http://sodipodi.sourceforge.net/DTD/sodipodi-0.dtd"
   xmlns:inkscape="http://www.inkscape.org/namespaces/inkscape"
   width="701.82593"
   height="288.58548"
   id="svg2"
   version="1.1"
   inkscape:version="0.48.4 r9939"
   sodipodi:docname="peltier.svg">
  <defs
     id="defs4">
    <linearGradient
       inkscape:collect="always"
       id="linearGradient8527">
      <stop
         style="stop-color:#000cdb;stop-opacity:1;"
         offset="0"
         id="stop8529" />
      <stop
         style="stop-color:#000cdb;stop-opacity:0;"
         offset="1"
         id="stop8531" />
    </linearGradient>
    <linearGradient
       inkscape:collect="always"
       id="linearGradient8519">
      <stop
         style="stop-color:#b60000;stop-opacity:1;"
         offset="0"
         id="stop8521" />
      <stop
         style="stop-color:#b60000;stop-opacity:0;"
         offset="1"
         id="stop8523" />
    </linearGradient>
    <linearGradient
       id="linearGradient3898">
      <stop
         style="stop-color:#808080;stop-opacity:1;"
         offset="0"
         id="stop3900" />
      <stop
         style="stop-color:#dcdcdc;stop-opacity:1;"
         offset="1"
         id="stop3902" />
    </linearGradient>
    <linearGradient
       inkscape:collect="always"
       xlink:href="#linearGradient3898"
       id="linearGradient3904"
       x1="154.99538"
       y1="169.23631"
       x2="202.59863"
       y2="169.23631"
       gradientUnits="userSpaceOnUse" />
    <linearGradient
       inkscape:collect="always"
       xlink:href="#linearGradient3898"
       id="linearGradient3906"
       x1="147.26019"
       y1="146.50787"
       x2="201.30333"
       y2="187.41907"
       gradientUnits="userSpaceOnUse" />
    <linearGradient
       inkscape:collect="always"
       xlink:href="#linearGradient3898-7"
       id="linearGradient3906-7"
       x1="147.26019"
       y1="146.50787"
       x2="201.30333"
       y2="187.41907"
       gradientUnits="userSpaceOnUse" />
    <linearGradient
       id="linearGradient3898-7">
      <stop
         style="stop-color:#808080;stop-opacity:1;"
         offset="0"
         id="stop3900-9" />
      <stop
         style="stop-color:#dcdcdc;stop-opacity:1;"
         offset="1"
         id="stop3902-1" />
    </linearGradient>
    <linearGradient
       id="linearGradient3898-8">
      <stop
         style="stop-color:#808080;stop-opacity:1;"
         offset="0"
         id="stop3900-7" />
      <stop
         style="stop-color:#dcdcdc;stop-opacity:1;"
         offset="1"
         id="stop3902-32" />
    </linearGradient>
    <linearGradient
       id="linearGradient3898-7-4">
      <stop
         style="stop-color:#666666;stop-opacity:1;"
         offset="0"
         id="stop3900-9-9" />
      <stop
         style="stop-color:#dcdcdc;stop-opacity:1;"
         offset="1"
         id="stop3902-1-6" />
    </linearGradient>
    <linearGradient
       id="linearGradient3898-7-4-7">
      <stop
         style="stop-color:#666666;stop-opacity:1;"
         offset="0"
         id="stop3900-9-9-5" />
      <stop
         style="stop-color:#dcdcdc;stop-opacity:1;"
         offset="1"
         id="stop3902-1-6-3" />
    </linearGradient>
    <linearGradient
       id="linearGradient3898-8-7">
      <stop
         style="stop-color:#808080;stop-opacity:1;"
         offset="0"
         id="stop3900-7-1" />
      <stop
         style="stop-color:#dcdcdc;stop-opacity:1;"
         offset="1"
         id="stop3902-32-4" />
    </linearGradient>
    <linearGradient
       id="linearGradient3898-7-4-26">
      <stop
         style="stop-color:#666666;stop-opacity:1;"
         offset="0"
         id="stop3900-9-9-2" />
      <stop
         style="stop-color:#dcdcdc;stop-opacity:1;"
         offset="1"
         id="stop3902-1-6-2" />
    </linearGradient>
    <linearGradient
       id="linearGradient3898-8-7-3">
      <stop
         style="stop-color:#808080;stop-opacity:1;"
         offset="0"
         id="stop3900-7-1-8" />
      <stop
         style="stop-color:#dcdcdc;stop-opacity:1;"
         offset="1"
         id="stop3902-32-4-4" />
    </linearGradient>
    <linearGradient
       id="linearGradient3898-7-4-26-4">
      <stop
         style="stop-color:#666666;stop-opacity:1;"
         offset="0"
         id="stop3900-9-9-2-0" />
      <stop
         style="stop-color:#dcdcdc;stop-opacity:1;"
         offset="1"
         id="stop3902-1-6-2-8" />
    </linearGradient>
    <linearGradient
       id="linearGradient3898-5">
      <stop
         style="stop-color:#808080;stop-opacity:1;"
         offset="0"
         id="stop3900-0" />
      <stop
         style="stop-color:#dcdcdc;stop-opacity:1;"
         offset="1"
         id="stop3902-36" />
    </linearGradient>
    <linearGradient
       id="linearGradient3898-7-1">
      <stop
         style="stop-color:#808080;stop-opacity:1;"
         offset="0"
         id="stop3900-9-1" />
      <stop
         style="stop-color:#dcdcdc;stop-opacity:1;"
         offset="1"
         id="stop3902-1-55" />
    </linearGradient>
    <linearGradient
       id="linearGradient3898-9">
      <stop
         style="stop-color:#808080;stop-opacity:1;"
         offset="0"
         id="stop3900-6" />
      <stop
         style="stop-color:#dcdcdc;stop-opacity:1;"
         offset="1"
         id="stop3902-5" />
    </linearGradient>
    <linearGradient
       id="linearGradient3898-7-2">
      <stop
         style="stop-color:#808080;stop-opacity:1;"
         offset="0"
         id="stop3900-9-3" />
      <stop
         style="stop-color:#dcdcdc;stop-opacity:1;"
         offset="1"
         id="stop3902-1-8" />
    </linearGradient>
    <linearGradient
       id="linearGradient3898-8-7-3-1">
      <stop
         style="stop-color:#808080;stop-opacity:1;"
         offset="0"
         id="stop3900-7-1-8-8" />
      <stop
         style="stop-color:#dcdcdc;stop-opacity:1;"
         offset="1"
         id="stop3902-32-4-4-0" />
    </linearGradient>
    <linearGradient
       id="linearGradient3898-7-4-26-4-4">
      <stop
         style="stop-color:#666666;stop-opacity:1;"
         offset="0"
         id="stop3900-9-9-2-0-1" />
      <stop
         style="stop-color:#dcdcdc;stop-opacity:1;"
         offset="1"
         id="stop3902-1-6-2-8-1" />
    </linearGradient>
    <linearGradient
       id="linearGradient3898-9-3">
      <stop
         style="stop-color:#808080;stop-opacity:1;"
         offset="0"
         id="stop3900-6-2" />
      <stop
         style="stop-color:#dcdcdc;stop-opacity:1;"
         offset="1"
         id="stop3902-5-3" />
    </linearGradient>
    <linearGradient
       inkscape:collect="always"
       xlink:href="#linearGradient3898-9-3"
       id="linearGradient7284"
       gradientUnits="userSpaceOnUse"
       gradientTransform="translate(0.7271591,0.25255129)"
       x1="147.26019"
       y1="146.50787"
       x2="201.30333"
       y2="187.41907" />
    <linearGradient
       inkscape:collect="always"
       xlink:href="#linearGradient3898-7-2-2-6"
       id="linearGradient7286-5"
       gradientUnits="userSpaceOnUse"
       gradientTransform="translate(54.951784,-0.151)"
       x1="147.26019"
       y1="146.50787"
       x2="201.30333"
       y2="187.41907" />
    <linearGradient
       id="linearGradient3898-7-2-2-6">
      <stop
         style="stop-color:#808080;stop-opacity:1;"
         offset="0"
         id="stop3900-9-3-9-4" />
      <stop
         style="stop-color:#dcdcdc;stop-opacity:1;"
         offset="1"
         id="stop3902-1-8-2-9" />
    </linearGradient>
    <linearGradient
       id="linearGradient3898-7-4-7-0-6">
      <stop
         style="stop-color:#666666;stop-opacity:1;"
         offset="0"
         id="stop3900-9-9-5-6-8" />
      <stop
         style="stop-color:#dcdcdc;stop-opacity:1;"
         offset="1"
         id="stop3902-1-6-3-6-1" />
    </linearGradient>
    <linearGradient
       inkscape:collect="always"
       xlink:href="#linearGradient3898-7-4-7-0-6"
       id="linearGradient8412"
       x1="544.03571"
       y1="219.41574"
       x2="572.75"
       y2="223.34431"
       gradientUnits="userSpaceOnUse" />
    <linearGradient
       id="linearGradient3898-7-4-7-0-6-9">
      <stop
         style="stop-color:#666666;stop-opacity:1;"
         offset="0"
         id="stop3900-9-9-5-6-8-8" />
      <stop
         style="stop-color:#dcdcdc;stop-opacity:1;"
         offset="1"
         id="stop3902-1-6-3-6-1-1" />
    </linearGradient>
    <linearGradient
       inkscape:collect="always"
       xlink:href="#linearGradient8519"
       id="linearGradient8525"
       x1="364.45883"
       y1="134.27551"
       x2="364.45883"
       y2="155.1248"
       gradientUnits="userSpaceOnUse"
       gradientTransform="translate(3.8126933,0)" />
    <linearGradient
       inkscape:collect="always"
       xlink:href="#linearGradient8527"
       id="linearGradient8533"
       x1="347.93762"
       y1="264.65225"
       x2="347.93762"
       y2="248.02045"
       gradientUnits="userSpaceOnUse"
       gradientTransform="translate(3.8126933,0)" />
    <linearGradient
       inkscape:collect="always"
       xlink:href="#linearGradient3898-9"
       id="linearGradient8694"
       gradientUnits="userSpaceOnUse"
       gradientTransform="translate(0.7271591,0.25255129)"
       x1="147.26019"
       y1="146.50787"
       x2="201.30333"
       y2="187.41907" />
    <linearGradient
       inkscape:collect="always"
       xlink:href="#linearGradient3898-7-2"
       id="linearGradient8696"
       gradientUnits="userSpaceOnUse"
       gradientTransform="translate(54.951784,-0.151)"
       x1="147.26019"
       y1="146.50787"
       x2="201.30333"
       y2="187.41907" />
    <linearGradient
       inkscape:collect="always"
       xlink:href="#linearGradient3898-5"
       id="linearGradient8698"
       gradientUnits="userSpaceOnUse"
       gradientTransform="translate(0.7271591,0.25255129)"
       x1="147.26019"
       y1="146.50787"
       x2="201.30333"
       y2="187.41907" />
    <linearGradient
       inkscape:collect="always"
       xlink:href="#linearGradient3898-7-1"
       id="linearGradient8700"
       gradientUnits="userSpaceOnUse"
       gradientTransform="translate(54.951784,-0.151)"
       x1="147.26019"
       y1="146.50787"
       x2="201.30333"
       y2="187.41907" />
    <linearGradient
       inkscape:collect="always"
       xlink:href="#linearGradient3898"
       id="linearGradient8702"
       gradientUnits="userSpaceOnUse"
       gradientTransform="translate(0.7271591,0.25255129)"
       x1="147.26019"
       y1="146.50787"
       x2="201.30333"
       y2="187.41907" />
    <linearGradient
       inkscape:collect="always"
       xlink:href="#linearGradient3898-7"
       id="linearGradient8704"
       gradientUnits="userSpaceOnUse"
       gradientTransform="translate(54.951784,-0.151)"
       x1="147.26019"
       y1="146.50787"
       x2="201.30333"
       y2="187.41907" />
    <linearGradient
       inkscape:collect="always"
       xlink:href="#linearGradient3898-7-4-26-4-4"
       id="linearGradient8706"
       gradientUnits="userSpaceOnUse"
       gradientTransform="translate(54.951784,-0.151)"
       x1="147.26019"
       y1="146.50787"
       x2="201.30333"
       y2="187.41907" />
    <linearGradient
       inkscape:collect="always"
       xlink:href="#linearGradient3898-8-7-3-1"
       id="linearGradient8708"
       gradientUnits="userSpaceOnUse"
       gradientTransform="translate(0.7271591,0.25255129)"
       x1="147.26019"
       y1="146.50787"
       x2="201.30333"
       y2="187.41907" />
    <linearGradient
       inkscape:collect="always"
       xlink:href="#linearGradient3898-8-7-3"
       id="linearGradient8710"
       gradientUnits="userSpaceOnUse"
       gradientTransform="translate(0.7271591,0.25255129)"
       x1="147.26019"
       y1="146.50787"
       x2="201.30333"
       y2="187.41907" />
    <linearGradient
       inkscape:collect="always"
       xlink:href="#linearGradient3898-7-4-26-4"
       id="linearGradient8712"
       gradientUnits="userSpaceOnUse"
       gradientTransform="translate(54.951784,-0.151)"
       x1="147.26019"
       y1="146.50787"
       x2="201.30333"
       y2="187.41907" />
    <linearGradient
       inkscape:collect="always"
       xlink:href="#linearGradient3898-8-7"
       id="linearGradient8714"
       gradientUnits="userSpaceOnUse"
       gradientTransform="translate(0.7271591,0.25255129)"
       x1="147.26019"
       y1="146.50787"
       x2="201.30333"
       y2="187.41907" />
    <linearGradient
       inkscape:collect="always"
       xlink:href="#linearGradient3898-7-4-26"
       id="linearGradient8716"
       gradientUnits="userSpaceOnUse"
       gradientTransform="translate(54.951784,-0.151)"
       x1="147.26019"
       y1="146.50787"
       x2="201.30333"
       y2="187.41907" />
    <linearGradient
       inkscape:collect="always"
       xlink:href="#linearGradient3898-8"
       id="linearGradient8718"
       gradientUnits="userSpaceOnUse"
       gradientTransform="translate(0.7271591,0.25255129)"
       x1="147.26019"
       y1="146.50787"
       x2="201.30333"
       y2="187.41907" />
    <linearGradient
       inkscape:collect="always"
       xlink:href="#linearGradient3898-7-4"
       id="linearGradient8720"
       gradientUnits="userSpaceOnUse"
       gradientTransform="translate(54.951784,-0.151)"
       x1="147.26019"
       y1="146.50787"
       x2="201.30333"
       y2="187.41907" />
    <linearGradient
       inkscape:collect="always"
       xlink:href="#linearGradient3898-7-4-7-0-6-9"
       id="linearGradient8726"
       gradientUnits="userSpaceOnUse"
       gradientTransform="matrix(-1,0,0,1,729.48446,0.6010664)"
       x1="544.03571"
       y1="219.41574"
       x2="572.75"
       y2="223.34431" />
    <linearGradient
       gradientTransform="matrix(0.99469852,0,0,1.4453655,54.435961,-89.927854)"
       y2="216.96603"
       x2="140.40613"
       y1="190.95461"
       x1="190.41882"
       gradientUnits="userSpaceOnUse"
       id="linearGradient5949-7"
       xlink:href="#linearGradient3898-7-4-7-3"
       inkscape:collect="always" />
    <linearGradient
       id="linearGradient3898-7-4-7-3">
      <stop
         style="stop-color:#666666;stop-opacity:1;"
         offset="0"
         id="stop3900-9-9-5-73" />
      <stop
         style="stop-color:#dcdcdc;stop-opacity:1;"
         offset="1"
         id="stop3902-1-6-3-8" />
    </linearGradient>
    <linearGradient
       gradientTransform="matrix(0.99469852,0,0,1.4453655,54.435961,-89.927854)"
       y2="216.96603"
       x2="140.40613"
       y1="190.95461"
       x1="190.41882"
       gradientUnits="userSpaceOnUse"
       id="linearGradient5949-1"
       xlink:href="#linearGradient3898-7-4-7-7"
       inkscape:collect="always" />
    <linearGradient
       id="linearGradient3898-7-4-7-7">
      <stop
         style="stop-color:#666666;stop-opacity:1;"
         offset="0"
         id="stop3900-9-9-5-1" />
      <stop
         style="stop-color:#dcdcdc;stop-opacity:1;"
         offset="1"
         id="stop3902-1-6-3-22" />
    </linearGradient>
    <linearGradient
       gradientTransform="matrix(0.99469852,0,0,1.4453655,54.435961,-89.927854)"
       y2="216.96603"
       x2="140.40613"
       y1="190.95461"
       x1="190.41882"
       gradientUnits="userSpaceOnUse"
       id="linearGradient5949-82"
       xlink:href="#linearGradient3898-7-4-7-9"
       inkscape:collect="always" />
    <linearGradient
       id="linearGradient3898-7-4-7-9">
      <stop
         style="stop-color:#666666;stop-opacity:1;"
         offset="0"
         id="stop3900-9-9-5-3" />
      <stop
         style="stop-color:#dcdcdc;stop-opacity:1;"
         offset="1"
         id="stop3902-1-6-3-7" />
    </linearGradient>
    <linearGradient
       gradientTransform="matrix(0.99469852,0,0,1.4453655,54.435961,-89.927854)"
       y2="216.96603"
       x2="140.40613"
       y1="190.95461"
       x1="190.41882"
       gradientUnits="userSpaceOnUse"
       id="linearGradient5949-84"
       xlink:href="#linearGradient3898-7-4-7-8"
       inkscape:collect="always" />
    <linearGradient
       id="linearGradient3898-7-4-7-8">
      <stop
         style="stop-color:#666666;stop-opacity:1;"
         offset="0"
         id="stop3900-9-9-5-2" />
      <stop
         style="stop-color:#dcdcdc;stop-opacity:1;"
         offset="1"
         id="stop3902-1-6-3-4" />
    </linearGradient>
    <linearGradient
       gradientTransform="matrix(0.99469852,0,0,1.4453655,54.435961,-89.927854)"
       y2="216.96603"
       x2="140.40613"
       y1="190.95461"
       x1="190.41882"
       gradientUnits="userSpaceOnUse"
       id="linearGradient5949-93"
       xlink:href="#linearGradient3898-7-4-7-80"
       inkscape:collect="always" />
    <linearGradient
       id="linearGradient3898-7-4-7-80">
      <stop
         style="stop-color:#666666;stop-opacity:1;"
         offset="0"
         id="stop3900-9-9-5-72" />
      <stop
         style="stop-color:#dcdcdc;stop-opacity:1;"
         offset="1"
         id="stop3902-1-6-3-0" />
    </linearGradient>
    <linearGradient
       inkscape:collect="always"
       xlink:href="#linearGradient3898-7-4-7"
       id="linearGradient8917"
       gradientUnits="userSpaceOnUse"
       gradientTransform="matrix(0.99469852,0,0,1.4453655,54.435961,-89.927854)"
       x1="190.41882"
       y1="190.95461"
       x2="140.40613"
       y2="216.96603" />
  </defs>
  <sodipodi:namedview
     id="base"
     pagecolor="#ffffff"
     bordercolor="#666666"
     borderopacity="1.0"
     inkscape:pageopacity="0.0"
     inkscape:pageshadow="2"
     inkscape:zoom="0.7"
     inkscape:cx="693.30362"
     inkscape:cy="70.493327"
     inkscape:document-units="px"
     inkscape:current-layer="layer1"
     showgrid="false"
     inkscape:window-width="1680"
     inkscape:window-height="995"
     inkscape:window-x="1278"
     inkscape:window-y="32"
     inkscape:window-maximized="1"
     fit-margin-top="20"
     fit-margin-left="20"
     fit-margin-right="20"
     fit-margin-bottom="20" />
  <metadata
     id="metadata7">
    <rdf:RDF>
      <cc:Work
         rdf:about="">
        <dc:format>image/svg+xml</dc:format>
        <dc:type
           rdf:resource="http://purl.org/dc/dcmitype/StillImage" />
        <dc:title></dc:title>
      </cc:Work>
    </rdf:RDF>
  </metadata>
  <g
     inkscape:label="Livello 1"
     inkscape:groupmode="layer"
     id="layer1"
     transform="translate(-21.134277,-94.225769)">
    <rect
       style="fill:url(#linearGradient8525);fill-opacity:1;fill-rule:nonzero;stroke:#000000;stroke-width:2.12246323;stroke-miterlimit:4;stroke-opacity:1;stroke-dasharray:none;stroke-dashoffset:0"
       id="rect2987"
       width="435.11307"
       height="29.031689"
       x="150.66869"
       y="139.82072"
       ry="0.15646484" />
    <rect
       style="fill:url(#linearGradient8533);fill-opacity:1;fill-rule:nonzero;stroke:#000000;stroke-width:2.12246323;stroke-miterlimit:4;stroke-opacity:1;stroke-dasharray:none;stroke-dashoffset:0"
       id="rect2987-4"
       width="435.11307"
       height="29.031689"
       x="150.66869"
       y="233.70784"
       ry="0.15646484" />
    <g
       id="g6445"
       transform="matrix(1.0001123,0,0,0.49722949,3.7717226,83.002079)"
       style="stroke-width:1.41806841;stroke-miterlimit:4;stroke-dasharray:none">
      <g
         transform="translate(51.188004,1.5964508)"
         id="g3979"
         style="stroke-width:1.41806841;stroke-miterlimit:4;stroke-dasharray:none">
        <rect
           style="fill:url(#linearGradient8702);fill-opacity:1;fill-rule:nonzero;stroke:#000000;stroke-width:1.41806841;stroke-miterlimit:4;stroke-opacity:1;stroke-dasharray:none;stroke-dashoffset:0"
           id="rect3783"
           width="46.603256"
           height="18.824053"
           x="156.22253"
           y="160.07683"
           ry="0.018445687" />
        <text
           xml:space="preserve"
           style="font-size:12px;font-style:normal;font-weight:normal;line-height:125%;letter-spacing:0px;word-spacing:0px;fill:#000000;fill-opacity:1;stroke:none;font-family:Sans"
           x="173.53978"
           y="175.32089"
           id="text3803"
           sodipodi:linespacing="125%"><tspan
             sodipodi:role="line"
             id="tspan3805"
             x="173.53978"
             y="175.32089"
             style="font-size:16px;fill:#000000;fill-opacity:1" /></text>
      </g>
      <g
         transform="translate(50.566636,2)"
         id="g3984"
         style="stroke-width:1.41806841;stroke-miterlimit:4;stroke-dasharray:none">
        <rect
           style="fill:url(#linearGradient8704);fill-opacity:1;fill-rule:nonzero;stroke:#000000;stroke-width:1.41806841;stroke-miterlimit:4;stroke-opacity:1;stroke-dasharray:none;stroke-dashoffset:0"
           id="rect3783-9"
           width="46.603256"
           height="18.824053"
           x="210.44716"
           y="159.67328"
           ry="0.018445687" />
        <text
           xml:space="preserve"
           style="font-size:12px;font-style:normal;font-weight:normal;line-height:125%;letter-spacing:0px;word-spacing:0px;fill:#000000;fill-opacity:1;stroke:none;font-family:Sans"
           x="227.7644"
           y="174.91734"
           id="text3803-2"
           sodipodi:linespacing="125%"><tspan
             sodipodi:role="line"
             id="tspan3805-4"
             x="227.7644"
             y="174.91734"
             style="font-size:16px;fill:#000000;fill-opacity:1" /></text>
      </g>
    </g>
    <g
       id="g6000"
       transform="translate(57.502002,0.8113251)">
      <rect
         ry="0.15712485"
         y="158.86195"
         x="158.11508"
         height="4.0406103"
         width="91.418808"
         id="rect3878"
         style="fill:#848484;fill-opacity:1;fill-rule:nonzero;stroke:#000000;stroke-width:1;stroke-miterlimit:4;stroke-opacity:1;stroke-dasharray:none;stroke-dashoffset:0" />
    </g>
    <g
       id="g8722"
       transform="translate(3.8126933,8)">
      <path
         inkscape:connector-curvature="0"
         id="path8404-7"
         d="m 156.44874,216.53468 25.35715,3.03571 11.60714,-0.17857 0,2.32143 -28.92857,0.35714 -8.39286,-1.07142 z"
         style="fill:url(#linearGradient8726);fill-opacity:1;stroke:#000000;stroke-width:0.5;stroke-linecap:butt;stroke-linejoin:miter;stroke-miterlimit:4;stroke-opacity:1;stroke-dasharray:none" />
      <path
         sodipodi:nodetypes="cssssc"
         inkscape:connector-curvature="0"
         id="path7558-2"
         d="m 157.44226,218.13345 c -13.86175,-1.36235 -36.40118,-8.81506 -46.45215,-9.85207 -11.918633,-1.2297 -29.858613,-7.94351 -39.605159,-0.97426 -24.37363,17.42832 -8.572977,0.0164 -27.166444,23.44272 -13.453804,16.95077 23.410271,43.10653 39.740034,56.20089 44.477529,35.66523 -23.50085,41.06962 -15.25127,58.74729"
         style="fill:none;stroke:#970000;stroke-width:8;stroke-linecap:butt;stroke-linejoin:miter;stroke-miterlimit:4;stroke-opacity:1;stroke-dasharray:none;marker-end:none" />
    </g>
    <g
       id="g6390"
       transform="matrix(1,0,0,0.60532526,4.1233775,95.071016)"
       style="stroke-width:1.28530324;stroke-miterlimit:4;stroke-dasharray:none">
      <g
         transform="translate(-2.8119888,61.483588)"
         id="g3979-7"
         style="stroke-width:1.28530324;stroke-miterlimit:4;stroke-dasharray:none">
        <rect
           style="fill:url(#linearGradient8718);fill-opacity:1;fill-rule:nonzero;stroke:#000000;stroke-width:1.28530324;stroke-miterlimit:4;stroke-opacity:1;stroke-dasharray:none;stroke-dashoffset:0"
           id="rect3783-99"
           width="46.603256"
           height="18.824053"
           x="156.22253"
           y="160.07683"
           ry="0.018445687" />
        <text
           xml:space="preserve"
           style="font-size:12px;font-style:normal;font-weight:normal;line-height:125%;letter-spacing:0px;word-spacing:0px;fill:#000000;fill-opacity:1;stroke:none;font-family:Sans"
           x="173.53978"
           y="175.32089"
           id="text3803-1"
           sodipodi:linespacing="125%"><tspan
             sodipodi:role="line"
             id="tspan3805-6"
             x="173.53978"
             y="175.32089"
             style="font-size:16px;fill:#000000;fill-opacity:1" /></text>
      </g>
      <g
         transform="translate(-3.4333572,61.887137)"
         id="g3984-2"
         style="stroke-width:1.28530324;stroke-miterlimit:4;stroke-dasharray:none">
        <rect
           style="fill:url(#linearGradient8720);fill-opacity:1;fill-rule:nonzero;stroke:#000000;stroke-width:1.28530324;stroke-miterlimit:4;stroke-opacity:1;stroke-dasharray:none;stroke-dashoffset:0"
           id="rect3783-9-4"
           width="46.603256"
           height="18.824053"
           x="210.44716"
           y="159.67328"
           ry="0.018445687" />
        <text
           xml:space="preserve"
           style="font-size:12px;font-style:normal;font-weight:normal;line-height:125%;letter-spacing:0px;word-spacing:0px;fill:#000000;fill-opacity:1;stroke:none;font-family:Sans"
           x="227.7644"
           y="174.91734"
           id="text3803-2-8"
           sodipodi:linespacing="125%"><tspan
             sodipodi:role="line"
             id="tspan3805-4-93"
             x="227.7644"
             y="174.91734"
             style="font-size:16px;fill:#000000;fill-opacity:1" /></text>
      </g>
    </g>
    <rect
       style="fill:#848484;fill-opacity:1;fill-rule:nonzero;stroke:#000000;stroke-width:1;stroke-miterlimit:4;stroke-opacity:1;stroke-dasharray:none;stroke-dashoffset:0"
       id="rect3878-8"
       width="91.418808"
       height="4.0406103"
       x="161.92778"
       y="238.34386"
       ry="0.15712485" />
    <g
       id="g6390-4"
       transform="matrix(1,0,0,0.60532526,111.32988,95.071016)"
       style="stroke-width:1.28530324;stroke-miterlimit:4;stroke-dasharray:none">
      <g
         transform="translate(-2.8119888,61.483588)"
         id="g3979-7-6"
         style="stroke-width:1.28530324;stroke-miterlimit:4;stroke-dasharray:none">
        <rect
           style="fill:url(#linearGradient8714);fill-opacity:1;fill-rule:nonzero;stroke:#000000;stroke-width:1.28530324;stroke-miterlimit:4;stroke-opacity:1;stroke-dasharray:none;stroke-dashoffset:0"
           id="rect3783-99-9"
           width="46.603256"
           height="18.824053"
           x="156.22253"
           y="160.07683"
           ry="0.018445687" />
        <text
           xml:space="preserve"
           style="font-size:12px;font-style:normal;font-weight:normal;line-height:125%;letter-spacing:0px;word-spacing:0px;fill:#000000;fill-opacity:1;stroke:none;font-family:Sans"
           x="173.53978"
           y="175.32089"
           id="text3803-1-1"
           sodipodi:linespacing="125%"><tspan
             sodipodi:role="line"
             id="tspan3805-6-2"
             x="173.53978"
             y="175.32089"
             style="font-size:16px;fill:#000000;fill-opacity:1" /></text>
      </g>
      <g
         transform="translate(-3.4333572,61.887137)"
         id="g3984-2-2"
         style="stroke-width:1.28530324;stroke-miterlimit:4;stroke-dasharray:none">
        <rect
           style="fill:url(#linearGradient8716);fill-opacity:1;fill-rule:nonzero;stroke:#000000;stroke-width:1.28530324;stroke-miterlimit:4;stroke-opacity:1;stroke-dasharray:none;stroke-dashoffset:0"
           id="rect3783-9-4-6"
           width="46.603256"
           height="18.824053"
           x="210.44716"
           y="159.67328"
           ry="0.018445687" />
        <text
           xml:space="preserve"
           style="font-size:12px;font-style:normal;font-weight:normal;line-height:125%;letter-spacing:0px;word-spacing:0px;fill:#000000;fill-opacity:1;stroke:none;font-family:Sans"
           x="227.7644"
           y="174.91734"
           id="text3803-2-8-4"
           sodipodi:linespacing="125%"><tspan
             sodipodi:role="line"
             id="tspan3805-4-93-5"
             x="227.7644"
             y="174.91734"
             style="font-size:16px;fill:#000000;fill-opacity:1" /></text>
      </g>
    </g>
    <rect
       style="fill:#848484;fill-opacity:1;fill-rule:nonzero;stroke:#000000;stroke-width:1;stroke-miterlimit:4;stroke-opacity:1;stroke-dasharray:none;stroke-dashoffset:0"
       id="rect3878-8-2"
       width="91.418808"
       height="4.0406103"
       x="269.13428"
       y="238.34386"
       ry="0.15712485" />
    <g
       id="g6390-4-3"
       transform="matrix(1,0,0,0.60532526,218.53639,95.071016)"
       style="stroke-width:1.28530324;stroke-miterlimit:4;stroke-dasharray:none">
      <g
         transform="translate(-2.8119888,61.483588)"
         id="g3979-7-6-6"
         style="stroke-width:1.28530324;stroke-miterlimit:4;stroke-dasharray:none">
        <rect
           style="fill:url(#linearGradient8710);fill-opacity:1;fill-rule:nonzero;stroke:#000000;stroke-width:1.28530324;stroke-miterlimit:4;stroke-opacity:1;stroke-dasharray:none;stroke-dashoffset:0"
           id="rect3783-99-9-3"
           width="46.603256"
           height="18.824053"
           x="156.22253"
           y="160.07683"
           ry="0.018445687" />
        <text
           xml:space="preserve"
           style="font-size:12px;font-style:normal;font-weight:normal;line-height:125%;letter-spacing:0px;word-spacing:0px;fill:#000000;fill-opacity:1;stroke:none;font-family:Sans"
           x="173.53978"
           y="175.32089"
           id="text3803-1-1-0"
           sodipodi:linespacing="125%"><tspan
             sodipodi:role="line"
             id="tspan3805-6-2-8"
             x="173.53978"
             y="175.32089"
             style="font-size:16px;fill:#000000;fill-opacity:1" /></text>
      </g>
      <g
         transform="translate(-3.4333572,61.887137)"
         id="g3984-2-2-0"
         style="stroke-width:1.28530324;stroke-miterlimit:4;stroke-dasharray:none">
        <rect
           style="fill:url(#linearGradient8712);fill-opacity:1;fill-rule:nonzero;stroke:#000000;stroke-width:1.28530324;stroke-miterlimit:4;stroke-opacity:1;stroke-dasharray:none;stroke-dashoffset:0"
           id="rect3783-9-4-6-7"
           width="46.603256"
           height="18.824053"
           x="210.44716"
           y="159.67328"
           ry="0.018445687" />
        <text
           xml:space="preserve"
           style="font-size:12px;font-style:normal;font-weight:normal;line-height:125%;letter-spacing:0px;word-spacing:0px;fill:#000000;fill-opacity:1;stroke:none;font-family:Sans"
           x="227.7644"
           y="174.91734"
           id="text3803-2-8-4-2"
           sodipodi:linespacing="125%"><tspan
             sodipodi:role="line"
             id="tspan3805-4-93-5-8"
             x="227.7644"
             y="174.91734"
             style="font-size:16px;fill:#000000;fill-opacity:1" /></text>
      </g>
    </g>
    <rect
       style="fill:#848484;fill-opacity:1;fill-rule:nonzero;stroke:#000000;stroke-width:1;stroke-miterlimit:4;stroke-opacity:1;stroke-dasharray:none;stroke-dashoffset:0"
       id="rect3878-8-2-1"
       width="91.418808"
       height="4.0406103"
       x="376.34079"
       y="238.34386"
       ry="0.15712485" />
    <g
       id="g6445-7"
       transform="matrix(1.0001123,0,0,0.49722949,110.99026,83.002079)"
       style="stroke-width:1.41806841;stroke-miterlimit:4;stroke-dasharray:none">
      <g
         transform="translate(51.188004,1.5964508)"
         id="g3979-2"
         style="stroke-width:1.41806841;stroke-miterlimit:4;stroke-dasharray:none">
        <rect
           style="fill:url(#linearGradient8698);fill-opacity:1;fill-rule:nonzero;stroke:#000000;stroke-width:1.41806841;stroke-miterlimit:4;stroke-opacity:1;stroke-dasharray:none;stroke-dashoffset:0"
           id="rect3783-1"
           width="46.603256"
           height="18.824053"
           x="156.22253"
           y="160.07683"
           ry="0.018445687" />
        <text
           xml:space="preserve"
           style="font-size:12px;font-style:normal;font-weight:normal;line-height:125%;letter-spacing:0px;word-spacing:0px;fill:#000000;fill-opacity:1;stroke:none;font-family:Sans"
           x="173.53978"
           y="175.32089"
           id="text3803-6"
           sodipodi:linespacing="125%"><tspan
             sodipodi:role="line"
             id="tspan3805-7"
             x="173.53978"
             y="175.32089"
             style="font-size:16px;fill:#000000;fill-opacity:1" /></text>
      </g>
      <g
         transform="translate(50.566636,2)"
         id="g3984-4"
         style="stroke-width:1.41806841;stroke-miterlimit:4;stroke-dasharray:none">
        <rect
           style="fill:url(#linearGradient8700);fill-opacity:1;fill-rule:nonzero;stroke:#000000;stroke-width:1.41806841;stroke-miterlimit:4;stroke-opacity:1;stroke-dasharray:none;stroke-dashoffset:0"
           id="rect3783-9-6"
           width="46.603256"
           height="18.824053"
           x="210.44716"
           y="159.67328"
           ry="0.018445687" />
        <text
           xml:space="preserve"
           style="font-size:12px;font-style:normal;font-weight:normal;line-height:125%;letter-spacing:0px;word-spacing:0px;fill:#000000;fill-opacity:1;stroke:none;font-family:Sans"
           x="227.7644"
           y="174.91734"
           id="text3803-2-2"
           sodipodi:linespacing="125%"><tspan
             sodipodi:role="line"
             id="tspan3805-4-4"
             x="227.7644"
             y="174.91734"
             style="font-size:16px;fill:#000000;fill-opacity:1" /></text>
      </g>
    </g>
    <g
       id="g6000-9"
       transform="translate(164.70851,0.8113251)">
      <rect
         ry="0.15712485"
         y="158.86195"
         x="158.11508"
         height="4.0406103"
         width="91.418808"
         id="rect3878-6"
         style="fill:#848484;fill-opacity:1;fill-rule:nonzero;stroke:#000000;stroke-width:1;stroke-miterlimit:4;stroke-opacity:1;stroke-dasharray:none;stroke-dashoffset:0" />
    </g>
    <g
       id="g6445-6"
       transform="matrix(1.0001123,0,0,0.49722949,218.20881,83.002079)"
       style="stroke-width:1.41806841;stroke-miterlimit:4;stroke-dasharray:none">
      <g
         transform="translate(51.188004,1.5964508)"
         id="g3979-4"
         style="stroke-width:1.41806841;stroke-miterlimit:4;stroke-dasharray:none">
        <rect
           style="fill:url(#linearGradient8694);fill-opacity:1;fill-rule:nonzero;stroke:#000000;stroke-width:1.41806841;stroke-miterlimit:4;stroke-opacity:1;stroke-dasharray:none;stroke-dashoffset:0"
           id="rect3783-91"
           width="46.603256"
           height="18.824053"
           x="156.22253"
           y="160.07683"
           ry="0.018445687" />
        <text
           xml:space="preserve"
           style="font-size:12px;font-style:normal;font-weight:normal;line-height:125%;letter-spacing:0px;word-spacing:0px;fill:#000000;fill-opacity:1;stroke:none;font-family:Sans"
           x="173.53978"
           y="175.32089"
           id="text3803-21"
           sodipodi:linespacing="125%"><tspan
             sodipodi:role="line"
             id="tspan3805-2"
             x="173.53978"
             y="175.32089"
             style="font-size:16px;fill:#000000;fill-opacity:1" /></text>
      </g>
      <g
         transform="translate(50.566636,2)"
         id="g3984-3"
         style="stroke-width:1.41806841;stroke-miterlimit:4;stroke-dasharray:none">
        <rect
           style="fill:url(#linearGradient8696);fill-opacity:1;fill-rule:nonzero;stroke:#000000;stroke-width:1.41806841;stroke-miterlimit:4;stroke-opacity:1;stroke-dasharray:none;stroke-dashoffset:0"
           id="rect3783-9-69"
           width="46.603256"
           height="18.824053"
           x="210.44716"
           y="159.67328"
           ry="0.018445687" />
        <text
           xml:space="preserve"
           style="font-size:12px;font-style:normal;font-weight:normal;line-height:125%;letter-spacing:0px;word-spacing:0px;fill:#000000;fill-opacity:1;stroke:none;font-family:Sans"
           x="227.7644"
           y="174.91734"
           id="text3803-2-3"
           sodipodi:linespacing="125%"><tspan
             sodipodi:role="line"
             id="tspan3805-4-6"
             x="227.7644"
             y="174.91734"
             style="font-size:16px;fill:#000000;fill-opacity:1" /></text>
      </g>
    </g>
    <g
       id="g6000-3"
       transform="translate(271.91502,0.8113251)">
      <rect
         ry="0.15712485"
         y="158.86195"
         x="158.11508"
         height="4.0406103"
         width="91.418808"
         id="rect3878-4"
         style="fill:#848484;fill-opacity:1;fill-rule:nonzero;stroke:#000000;stroke-width:1;stroke-miterlimit:4;stroke-opacity:1;stroke-dasharray:none;stroke-dashoffset:0" />
    </g>
    <g
       id="g8432"
       transform="translate(3.8126933,8)">
      <path
         inkscape:connector-curvature="0"
         id="path8404"
         d="m 573.03572,215.93361 -25.35715,3.03571 -11.60714,-0.17857 0,2.32143 28.92857,0.35714 8.39286,-1.07142 z"
         style="fill:url(#linearGradient8412);fill-opacity:1;stroke:#000000;stroke-width:0.5;stroke-linecap:butt;stroke-linejoin:miter;stroke-miterlimit:4;stroke-opacity:1;stroke-dasharray:none" />
      <path
         sodipodi:nodetypes="cssssc"
         inkscape:connector-curvature="0"
         id="path7558"
         d="m 572.0422,217.53238 c 13.86175,-1.36235 28.54404,0.47065 38.59501,-0.56636 11.91863,-1.2297 27.06625,-6.48062 38.89087,-4.54568 18.35552,3.00363 28.17828,6.85993 37.88073,22.72843 10.91881,17.85786 8.14729,42.01025 4.54568,62.62946 -3.35666,19.21688 -16.49915,35.35534 -24.74873,53.03301"
         style="fill:none;stroke:#000000;stroke-width:8;stroke-linecap:butt;stroke-linejoin:miter;stroke-miterlimit:4;stroke-opacity:1;stroke-dasharray:none;marker-end:none" />
    </g>
    <g
       id="g3979-7-6-6-7"
       transform="matrix(1,0,0,0.60532526,322.93091,132.28858)"
       style="stroke-width:1.28530324;stroke-miterlimit:4;stroke-dasharray:none">
      <rect
         ry="0.018445687"
         y="160.07683"
         x="156.22253"
         height="18.824053"
         width="46.603256"
         id="rect3783-99-9-3-7"
         style="fill:url(#linearGradient8708);fill-opacity:1;fill-rule:nonzero;stroke:#000000;stroke-width:1.28530324;stroke-miterlimit:4;stroke-opacity:1;stroke-dasharray:none;stroke-dashoffset:0" />
      <text
         sodipodi:linespacing="125%"
         id="text3803-1-1-0-7"
         y="175.32089"
         x="173.53978"
         style="font-size:12px;font-style:normal;font-weight:normal;line-height:125%;letter-spacing:0px;word-spacing:0px;fill:#000000;fill-opacity:1;stroke:none;font-family:Sans"
         xml:space="preserve"><tspan
           style="font-size:16px;fill:#000000;fill-opacity:1"
           y="175.32089"
           x="173.53978"
           id="tspan3805-6-2-8-9"
           sodipodi:role="line" /></text>
    </g>
    <g
       id="g3984-2-2-0-0"
       transform="matrix(1,0,0,0.60532526,322.30954,132.53286)"
       style="stroke-width:1.28530324;stroke-miterlimit:4;stroke-dasharray:none">
      <rect
         ry="0.018445687"
         y="159.67328"
         x="210.44716"
         height="18.824053"
         width="46.603256"
         id="rect3783-9-4-6-7-6"
         style="fill:url(#linearGradient8706);fill-opacity:1;fill-rule:nonzero;stroke:#000000;stroke-width:1.28530324;stroke-miterlimit:4;stroke-opacity:1;stroke-dasharray:none;stroke-dashoffset:0" />
      <text
         sodipodi:linespacing="125%"
         id="text3803-2-8-4-2-8"
         y="174.91734"
         x="227.7644"
         style="font-size:12px;font-style:normal;font-weight:normal;line-height:125%;letter-spacing:0px;word-spacing:0px;fill:#000000;fill-opacity:1;stroke:none;font-family:Sans"
         xml:space="preserve"><tspan
           style="font-size:16px;fill:#000000;fill-opacity:1"
           y="174.91734"
           x="227.7644"
           id="tspan3805-4-93-5-8-6"
           sodipodi:role="line" /></text>
    </g>
    <rect
       style="fill:#848484;fill-opacity:1;fill-rule:nonzero;stroke:#000000;stroke-width:1;stroke-miterlimit:4;stroke-opacity:1;stroke-dasharray:none;stroke-dashoffset:0"
       id="rect3878-8-2-1-0"
       width="91.418808"
       height="4.0406103"
       x="483.5473"
       y="238.34386"
       ry="0.15712485" />
    <g
       id="g3979-4-1"
       transform="matrix(1.0001123,0,0,0.49722949,376.62116,83.79588)"
       style="stroke-width:1.41806841;stroke-miterlimit:4;stroke-dasharray:none">
      <rect
         ry="0.018445687"
         y="160.07683"
         x="156.22253"
         height="18.824053"
         width="46.603256"
         id="rect3783-91-9"
         style="fill:url(#linearGradient7284);fill-opacity:1;fill-rule:nonzero;stroke:#000000;stroke-width:1.41806841;stroke-miterlimit:4;stroke-opacity:1;stroke-dasharray:none;stroke-dashoffset:0" />
      <text
         sodipodi:linespacing="125%"
         id="text3803-21-5"
         y="175.32089"
         x="173.53978"
         style="font-size:12px;font-style:normal;font-weight:normal;line-height:125%;letter-spacing:0px;word-spacing:0px;fill:#000000;fill-opacity:1;stroke:none;font-family:Sans"
         xml:space="preserve"><tspan
           style="font-size:16px;fill:#000000;fill-opacity:1"
           y="175.32089"
           x="173.53978"
           id="tspan3805-2-3"
           sodipodi:role="line" /></text>
    </g>
    <g
       id="g3984-3-2"
       transform="matrix(1.0001123,0,0,0.49722949,-52.874525,83.996537)"
       style="stroke-width:1.41806841;stroke-miterlimit:4;stroke-dasharray:none">
      <rect
         ry="0.018445687"
         y="159.67328"
         x="210.44716"
         height="18.824053"
         width="46.603256"
         id="rect3783-9-69-2"
         style="fill:url(#linearGradient7286-5);fill-opacity:1;fill-rule:nonzero;stroke:#000000;stroke-width:1.41806841;stroke-miterlimit:4;stroke-opacity:1;stroke-dasharray:none;stroke-dashoffset:0" />
      <text
         sodipodi:linespacing="125%"
         id="text3803-2-3-4"
         y="174.91734"
         x="227.7644"
         style="font-size:12px;font-style:normal;font-weight:normal;line-height:125%;letter-spacing:0px;word-spacing:0px;fill:#000000;fill-opacity:1;stroke:none;font-family:Sans"
         xml:space="preserve"><tspan
           style="font-size:16px;fill:#000000;fill-opacity:1"
           y="174.91734"
           x="227.7644"
           id="tspan3805-4-6-6"
           sodipodi:role="line" /></text>
    </g>
    <text
       xml:space="preserve"
       style="font-size:12px;font-style:normal;font-weight:normal;line-height:125%;letter-spacing:0px;word-spacing:0px;fill:#000000;fill-opacity:1;stroke:none;font-family:Sans"
       x="78.227119"
       y="245.51518"
       id="text8476"
       sodipodi:linespacing="125%"><tspan
         sodipodi:role="line"
         id="tspan8478"
         x="78.227119"
         y="245.51518"
         style="font-size:28px">V+</tspan></text>
    <text
       xml:space="preserve"
       style="font-size:12px;font-style:normal;font-weight:normal;line-height:125%;letter-spacing:0px;word-spacing:0px;fill:#000000;fill-opacity:1;stroke:none;font-family:Sans"
       x="634.36237"
       y="251.19359"
       id="text8480"
       sodipodi:linespacing="125%"><tspan
         sodipodi:role="line"
         id="tspan8482"
         x="634.36237"
         y="251.19359"
         style="font-size:28px">V-</tspan></text>
    <g
       id="g8762"
       transform="translate(3.8126933,0)">
      <rect
         ry="0.21617149"
         y="168.53348"
         x="212.17715"
         height="64.276497"
         width="36.447815"
         id="rect4484-2"
         style="fill:url(#linearGradient8917);fill-opacity:1;fill-rule:nonzero;stroke:#000000;stroke-width:1;stroke-miterlimit:4;stroke-opacity:1;stroke-dasharray:none;stroke-dashoffset:0" />
      <text
         sodipodi:linespacing="125%"
         id="text8535"
         y="210.87778"
         x="221.06317"
         style="font-size:12px;font-style:normal;font-weight:normal;line-height:125%;letter-spacing:0px;word-spacing:0px;fill:#000000;fill-opacity:1;stroke:none;font-family:Sans"
         xml:space="preserve"><tspan
           style="font-size:28px"
           y="210.87778"
           x="221.06317"
           id="tspan8537"
           sodipodi:role="line">P</tspan></text>
    </g>
    <g
       transform="translate(57.264497,0)"
       id="g8762-0">
      <rect
         ry="0.21617149"
         y="168.53348"
         x="212.17715"
         height="64.276497"
         width="36.447815"
         id="rect4484-2-6"
         style="fill:url(#linearGradient5949-7);fill-opacity:1;fill-rule:nonzero;stroke:#000000;stroke-width:1;stroke-miterlimit:4;stroke-opacity:1;stroke-dasharray:none;stroke-dashoffset:0" />
      <text
         sodipodi:linespacing="125%"
         id="text8535-8"
         y="210.87778"
         x="221.06317"
         style="font-size:12px;font-style:normal;font-weight:normal;line-height:125%;letter-spacing:0px;word-spacing:0px;fill:#000000;fill-opacity:1;stroke:none;font-family:Sans"
         xml:space="preserve"><tspan
           style="font-size:28px"
           y="210.87778"
           x="221.06317"
           id="tspan8537-2"
           sodipodi:role="line">N</tspan></text>
    </g>
    <g
       transform="translate(110.48025,0)"
       id="g8762-06">
      <rect
         ry="0.21617149"
         y="168.53348"
         x="212.17715"
         height="64.276497"
         width="36.447815"
         id="rect4484-2-4"
         style="fill:url(#linearGradient5949-1);fill-opacity:1;fill-rule:nonzero;stroke:#000000;stroke-width:1;stroke-miterlimit:4;stroke-opacity:1;stroke-dasharray:none;stroke-dashoffset:0" />
      <text
         sodipodi:linespacing="125%"
         id="text8535-3"
         y="210.87778"
         x="221.06317"
         style="font-size:12px;font-style:normal;font-weight:normal;line-height:125%;letter-spacing:0px;word-spacing:0px;fill:#000000;fill-opacity:1;stroke:none;font-family:Sans"
         xml:space="preserve"><tspan
           style="font-size:28px"
           y="210.87778"
           x="221.06317"
           id="tspan8537-0"
           sodipodi:role="line">P</tspan></text>
    </g>
    <g
       transform="translate(164.92696,0)"
       id="g8762-8">
      <rect
         ry="0.21617149"
         y="168.53348"
         x="212.17715"
         height="64.276497"
         width="36.447815"
         id="rect4484-2-63"
         style="fill:url(#linearGradient5949-82);fill-opacity:1;fill-rule:nonzero;stroke:#000000;stroke-width:1;stroke-miterlimit:4;stroke-opacity:1;stroke-dasharray:none;stroke-dashoffset:0" />
      <text
         sodipodi:linespacing="125%"
         id="text8535-1"
         y="210.87778"
         x="221.06317"
         style="font-size:12px;font-style:normal;font-weight:normal;line-height:125%;letter-spacing:0px;word-spacing:0px;fill:#000000;fill-opacity:1;stroke:none;font-family:Sans"
         xml:space="preserve"><tspan
           style="font-size:28px"
           y="210.87778"
           x="221.06317"
           id="tspan8537-1"
           sodipodi:role="line">N</tspan></text>
    </g>
    <g
       transform="translate(218.58688,0)"
       id="g8762-4">
      <rect
         ry="0.21617149"
         y="168.53348"
         x="212.17715"
         height="64.276497"
         width="36.447815"
         id="rect4484-2-0"
         style="fill:url(#linearGradient5949-84);fill-opacity:1;fill-rule:nonzero;stroke:#000000;stroke-width:1;stroke-miterlimit:4;stroke-opacity:1;stroke-dasharray:none;stroke-dashoffset:0" />
      <text
         sodipodi:linespacing="125%"
         id="text8535-4"
         y="210.87778"
         x="221.06317"
         style="font-size:12px;font-style:normal;font-weight:normal;line-height:125%;letter-spacing:0px;word-spacing:0px;fill:#000000;fill-opacity:1;stroke:none;font-family:Sans"
         xml:space="preserve"><tspan
           style="font-size:28px"
           y="210.87778"
           x="221.06317"
           id="tspan8537-28"
           sodipodi:role="line">P</tspan></text>
    </g>
    <g
       transform="translate(271.1643,0)"
       id="g8762-3">
      <rect
         ry="0.21617149"
         y="168.53348"
         x="212.17715"
         height="64.276497"
         width="36.447815"
         id="rect4484-2-8"
         style="fill:url(#linearGradient5949-93);fill-opacity:1;fill-rule:nonzero;stroke:#000000;stroke-width:1;stroke-miterlimit:4;stroke-opacity:1;stroke-dasharray:none;stroke-dashoffset:0" />
      <text
         sodipodi:linespacing="125%"
         id="text8535-6"
         y="210.87778"
         x="221.06317"
         style="font-size:12px;font-style:normal;font-weight:normal;line-height:125%;letter-spacing:0px;word-spacing:0px;fill:#000000;fill-opacity:1;stroke:none;font-family:Sans"
         xml:space="preserve"><tspan
           style="font-size:28px"
           y="210.87778"
           x="221.06317"
           id="tspan8537-5"
           sodipodi:role="line">N</tspan></text>
    </g>
    <text
       xml:space="preserve"
       style="font-size:12px;font-style:normal;font-weight:normal;line-height:125%;letter-spacing:0px;word-spacing:0px;fill:#000000;fill-opacity:1;stroke:none;font-family:Sans"
       x="317.70251"
       y="130.94061"
       id="text8909"
       sodipodi:linespacing="125%"><tspan
         sodipodi:role="line"
         id="tspan8911"
         x="317.70251"
         y="130.94061"
         style="font-size:22px">lato caldo</tspan></text>
    <text
       xml:space="preserve"
       style="font-size:12px;font-style:normal;font-weight:normal;line-height:125%;letter-spacing:0px;word-spacing:0px;fill:#000000;fill-opacity:1;stroke:none;font-family:Sans"
       x="311.64929"
       y="289.71732"
       id="text8913"
       sodipodi:linespacing="125%"><tspan
         sodipodi:role="line"
         id="tspan8915"
         x="311.64929"
         y="289.71732"
         style="font-size:22px">lato freddo</tspan></text>
  </g>
</svg>
