%!PS-Adobe-3.0 EPSF-3.0 
%%BoundingBox: 0 0 425 255
%%Pages: 0
%%Creator: LibreOffice 4.0
%%Title: none
%%CreationDate: none
%%LanguageLevel: 2
%%EndComments
%%BeginProlog
%%BeginResource: procset SDRes-Prolog 1.0 0
/b4_inc_state save def
/dict_count countdictstack def
/op_count count 1 sub def
userdict begin
0 setgray 0 setlinecap 1 setlinewidth 0 setlinejoin 10 setmiterlimit[] 0 setdash newpath
/languagelevel where {pop languagelevel 1 ne {false setstrokeadjust false setoverprint} if} if
/bdef {bind def} bind def
/c {setrgbcolor} bdef
/l {neg lineto} bdef
/rl {neg rlineto} bdef
/lc {setlinecap} bdef
/lj {setlinejoin} bdef
/lw {setlinewidth} bdef
/ml {setmiterlimit} bdef
/ld {setdash} bdef
/m {neg moveto} bdef
/ct {6 2 roll neg 6 2 roll neg 6 2 roll neg curveto} bdef
/r {rotate} bdef
/t {neg translate} bdef
/s {scale} bdef
/sw {show} bdef
/gs {gsave} bdef
/gr {grestore} bdef
/f {findfont dup length dict begin
{1 index /FID ne {def} {pop pop} ifelse} forall /Encoding ISOLatin1Encoding def
currentdict end /NFont exch definefont pop /NFont findfont} bdef
/p {closepath} bdef
/sf {scalefont setfont} bdef
/ef {eofill}bdef
/pc {closepath stroke}bdef
/ps {stroke}bdef
/pum {matrix currentmatrix}bdef
/pom {setmatrix}bdef
/bs {/aString exch def /nXOfs exch def /nWidth exch def currentpoint nXOfs 0 rmoveto pum nWidth aString stringwidth pop div 1 scale aString show pom moveto} bdef
%%EndResource
%%EndProlog
%%BeginSetup
%%EndSetup
%%Page: 1 1
%%BeginPageSetup
%%EndPageSetup
pum
0.02833 0.02833 s 
0 -9001 t
/tm matrix currentmatrix def
tm setmatrix
7500 4500 t 
1 1 s 
1.000 1.000 1.000 c 0 4500 m  -7500 4500 l  -7500 -4500 l  7500 -4500 l 
7500 4500 l  0 4500 l  p ef
30 lw 1 lj 0.703 0.703 0.703 c 864 2692 m  -5171 2692 l  -5171 -3645 l 
6900 -3645 l  6900 2692 l  864 2692 l  pc
-5171 -3647 m  -5171 2691 l  ps
-1700 -3647 m  -1700 2691 l  ps
1771 -3647 m  1771 2691 l  ps
5243 -3647 m  5243 2691 l  ps
20 lw -4126 -3647 m  -4126 2691 l  ps
-3515 -3647 m  -3515 2691 l  ps
-3081 -3647 m  -3081 2691 l  ps
-2745 -3647 m  -2745 2691 l  ps
-2470 -3647 m  -2470 2691 l  ps
-2237 -3647 m  -2237 2691 l  ps
-2036 -3647 m  -2036 2691 l  ps
-1859 -3647 m  -1859 2691 l  ps
-655 -3647 m  -655 2691 l  ps
-43 -3647 m  -43 2691 l  ps
390 -3647 m  390 2691 l  ps
726 -3647 m  726 2691 l  ps
1001 -3647 m  1001 2691 l  ps
1233 -3647 m  1233 2691 l  ps
1435 -3647 m  1435 2691 l  ps
1612 -3647 m  1612 2691 l  ps
2816 -3647 m  2816 2691 l  ps
3428 -3647 m  3428 2691 l  ps
3861 -3647 m  3861 2691 l  ps
4198 -3647 m  4198 2691 l  ps
4473 -3647 m  4473 2691 l  ps
4705 -3647 m  4705 2691 l  ps
4907 -3647 m  4907 2691 l  ps
5084 -3647 m  5084 2691 l  ps
6288 -3647 m  6288 2691 l  ps
6900 -3647 m  6900 2691 l  ps
30 lw 6900 2545 m  -5171 2545 l  ps
6900 -623 m  -5171 -623 l  ps
20 lw 6900 2691 m  -5171 2691 l  ps
6900 1592 m  -5171 1592 l  ps
6900 1033 m  -5171 1033 l  ps
6900 638 m  -5171 638 l  ps
6900 330 m  -5171 330 l  ps
6900 80 m  -5171 80 l  ps
6900 -132 m  -5171 -132 l  ps
6900 -315 m  -5171 -315 l  ps
6900 -477 m  -5171 -477 l  ps
6900 -1576 m  -5171 -1576 l  ps
6900 -2135 m  -5171 -2135 l  ps
6900 -2530 m  -5171 -2530 l  ps
6900 -2838 m  -5171 -2838 l  ps
6900 -3088 m  -5171 -3088 l  ps
6900 -3301 m  -5171 -3301 l  ps
6900 -3484 m  -5171 -3484 l  ps
6900 -3646 m  -5171 -3646 l  ps
30 lw -5171 2841 m  -5171 2691 l  ps
-5171 2841 m  -5171 2691 l  ps
-1700 2841 m  -1700 2691 l  ps
-1700 2841 m  -1700 2691 l  ps
1771 2841 m  1771 2691 l  ps
1771 2841 m  1771 2691 l  ps
5243 2841 m  5243 2691 l  ps
5243 2841 m  5243 2691 l  ps
-5171 2691 m  6900 2691 l  ps
-5321 2545 m  -5171 2545 l  ps
-5321 2545 m  -5171 2545 l  ps
-5321 -623 m  -5171 -623 l  ps
-5321 -623 m  -5171 -623 l  ps
-5171 2691 m  -5171 -3647 l  ps
0.343 0.617 0.113 c -4497 -3152 m  -4372 -2902 l  -4247 -3152 l  -4497 -3152 l 
p ef
0 lw -4497 -3152 m  -4372 -2902 l  -4247 -3152 l  -4497 -3152 l  pc
-3485 -2526 m  -3360 -2276 l  -3235 -2526 l  -3485 -2526 l  p ef
-3485 -2526 m  -3360 -2276 l  -3235 -2526 l  -3485 -2526 l  pc
-2873 -2206 m  -2748 -1956 l  -2623 -2206 l  -2873 -2206 l  p ef
-2873 -2206 m  -2748 -1956 l  -2623 -2206 l  -2873 -2206 l  pc
-2089 -1832 m  -1964 -1582 l  -1839 -1832 l  -2089 -1832 l  p ef
-2089 -1832 m  -1964 -1582 l  -1839 -1832 l  -2089 -1832 l  pc
-1815 -1708 m  -1690 -1458 l  -1565 -1708 l  -1815 -1708 l  p ef
-1815 -1708 m  -1690 -1458 l  -1565 -1708 l  -1815 -1708 l  pc
-1723 -1673 m  -1598 -1423 l  -1473 -1673 l  -1723 -1673 l  p ef
-1723 -1673 m  -1598 -1423 l  -1473 -1673 l  -1723 -1673 l  pc
-1507 -1624 m  -1382 -1374 l  -1257 -1624 l  -1507 -1624 l  p ef
-1507 -1624 m  -1382 -1374 l  -1257 -1624 l  -1507 -1624 l  pc
-1390 -1444 m  -1265 -1194 l  -1140 -1444 l  -1390 -1444 l  p ef
-1390 -1444 m  -1265 -1194 l  -1140 -1444 l  -1390 -1444 l  pc
-1231 -1437 m  -1106 -1187 l  -981 -1437 l  -1231 -1437 l  p ef
-1231 -1437 m  -1106 -1187 l  -981 -1437 l  -1231 -1437 l  pc
-931 -1406 m  -806 -1156 l  -681 -1406 l  -931 -1406 l  p ef
-931 -1406 m  -806 -1156 l  -681 -1406 l  -931 -1406 l  pc
-510 -1056 m  -385 -806 l  -260 -1056 l  -510 -1056 l  p ef
-510 -1056 m  -385 -806 l  -260 -1056 l  -510 -1056 l  pc
9 -846 m  134 -596 l  259 -846 l  9 -846 l  p ef
9 -846 m  134 -596 l  259 -846 l  9 -846 l  pc
397 -713 m  522 -463 l  647 -713 l  397 -713 l  p ef
397 -713 m  522 -463 l  647 -713 l  397 -713 l  pc
647 -498 m  772 -248 l  897 -498 l  647 -498 l  p ef
647 -498 m  772 -248 l  897 -498 l  647 -498 l  pc
1452 -85 m  1577 164 l  1702 -85 l  1452 -85 l  p ef
1452 -85 m  1577 164 l  1702 -85 l  1452 -85 l  pc
1788 47 m  1913 297 l  2038 47 l  1788 47 l  p ef
1788 47 m  1913 297 l  2038 47 l  1788 47 l  pc
2060 130 m  2185 380 l  2310 130 l  2060 130 l  p ef
2060 130 m  2185 380 l  2310 130 l  2060 130 l  pc
3140 777 m  3265 1027 l  3390 777 l  3140 777 l  p ef
3140 777 m  3265 1027 l  3390 777 l  3140 777 l  pc
4085 1090 m  4210 1340 l  4335 1090 l  4085 1090 l  p ef
4085 1090 m  4210 1340 l  4335 1090 l  4085 1090 l  pc
5794 1765 m  5919 2015 l  6044 1765 l  5794 1765 l  p ef
5794 1765 m  5919 2015 l  6044 1765 l  5794 1765 l  pc
1.000 0.261 0.058 c -643 -863 m  -518 -738 l  -393 -863 l  -518 -988 l  -643 -863 l 
p ef
-643 -863 m  -518 -738 l  -393 -863 l  -518 -988 l  -643 -863 l  pc
-416 -886 m  -291 -761 l  -166 -886 l  -291 -1011 l  -416 -886 l  p ef
-416 -886 m  -291 -761 l  -166 -886 l  -291 -1011 l  -416 -886 l  pc
-199 -1225 m  -74 -1100 l  50 -1225 l  -74 -1350 l  -199 -1225 l  p ef
-199 -1225 m  -74 -1100 l  50 -1225 l  -74 -1350 l  -199 -1225 l  pc
-181 -656 m  -56 -531 l  68 -656 l  -56 -781 l  -181 -656 l  p ef
-181 -656 m  -56 -531 l  68 -656 l  -56 -781 l  -181 -656 l  pc
-139 -963 m  -14 -838 l  110 -963 l  -14 -1088 l  -139 -963 l  p ef
-139 -963 m  -14 -838 l  110 -963 l  -14 -1088 l  -139 -963 l  pc
508 -405 m  633 -280 l  758 -405 l  633 -530 l  508 -405 l  p ef
508 -405 m  633 -280 l  758 -405 l  633 -530 l  508 -405 l  pc
639 -193 m  764 -68 l  889 -193 l  764 -318 l  639 -193 l  p ef
639 -193 m  764 -68 l  889 -193 l  764 -318 l  639 -193 l  pc
660 -193 m  785 -68 l  910 -193 l  785 -318 l  660 -193 l  p ef
660 -193 m  785 -68 l  910 -193 l  785 -318 l  660 -193 l  pc
701 -481 m  826 -356 l  951 -481 l  826 -606 l  701 -481 l  p ef
701 -481 m  826 -356 l  951 -481 l  826 -606 l  701 -481 l  pc
842 -230 m  967 -105 l  1092 -230 l  967 -355 l  842 -230 l  p ef
842 -230 m  967 -105 l  1092 -230 l  967 -355 l  842 -230 l  pc
860 76 m  985 201 l  1110 76 l  985 -48 l  860 76 l  p ef
860 76 m  985 201 l  1110 76 l  985 -48 l  860 76 l  pc
908 152 m  1033 277 l  1158 152 l  1033 27 l  908 152 l  p ef
908 152 m  1033 277 l  1158 152 l  1033 27 l  908 152 l  pc
916 133 m  1041 258 l  1166 133 l  1041 8 l  916 133 l  p ef
916 133 m  1041 258 l  1166 133 l  1041 8 l  916 133 l  pc
962 -338 m  1087 -213 l  1212 -338 l  1087 -463 l  962 -338 l  p ef
962 -338 m  1087 -213 l  1212 -338 l  1087 -463 l  962 -338 l  pc
1327 152 m  1452 277 l  1577 152 l  1452 27 l  1327 152 l  p ef
1327 152 m  1452 277 l  1577 152 l  1452 27 l  1327 152 l  pc
1383 342 m  1508 467 l  1633 342 l  1508 217 l  1383 342 l  p ef
1383 342 m  1508 467 l  1633 342 l  1508 217 l  1383 342 l  pc
1392 276 m  1517 401 l  1642 276 l  1517 151 l  1392 276 l  p ef
1392 276 m  1517 401 l  1642 276 l  1517 151 l  1392 276 l  pc
1444 535 m  1569 660 l  1694 535 l  1569 410 l  1444 535 l  p ef
1444 535 m  1569 660 l  1694 535 l  1569 410 l  1444 535 l  pc
1448 76 m  1573 201 l  1698 76 l  1573 -48 l  1448 76 l  p ef
1448 76 m  1573 201 l  1698 76 l  1573 -48 l  1448 76 l  pc
1498 254 m  1623 379 l  1748 254 l  1623 129 l  1498 254 l  p ef
1498 254 m  1623 379 l  1748 254 l  1623 129 l  1498 254 l  pc
1516 509 m  1641 634 l  1766 509 l  1641 384 l  1516 509 l  p ef
1516 509 m  1641 634 l  1766 509 l  1641 384 l  1516 509 l  pc
2033 615 m  2158 740 l  2283 615 l  2158 490 l  2033 615 l  p ef
2033 615 m  2158 740 l  2283 615 l  2158 490 l  2033 615 l  pc
2033 509 m  2158 634 l  2283 509 l  2158 384 l  2033 509 l  p ef
2033 509 m  2158 634 l  2283 509 l  2158 384 l  2033 509 l  pc
2033 459 m  2158 584 l  2283 459 l  2158 334 l  2033 459 l  p ef
2033 459 m  2158 584 l  2283 459 l  2158 334 l  2033 459 l  pc
2033 575 m  2158 700 l  2283 575 l  2158 450 l  2033 575 l  p ef
2033 575 m  2158 700 l  2283 575 l  2158 450 l  2033 575 l  pc
2033 548 m  2158 673 l  2283 548 l  2158 423 l  2033 548 l  p ef
2033 548 m  2158 673 l  2283 548 l  2158 423 l  2033 548 l  pc
2033 561 m  2158 686 l  2283 561 l  2158 436 l  2033 561 l  p ef
2033 561 m  2158 686 l  2283 561 l  2158 436 l  2033 561 l  pc
2033 643 m  2158 768 l  2283 643 l  2158 518 l  2033 643 l  p ef
2033 643 m  2158 768 l  2283 643 l  2158 518 l  2033 643 l  pc
50 lw 0.003 0.273 0.527 c -5171 -3357 m  6540 2691 l  ps
pum
-5634 3259 t
0.003 0.003 0.003 c 44 -29 m  101 -29 l  101 -226 l  39 -213 l  39 -245 l 
100 -258 l  135 -258 l  135 -29 l  192 -29 l  192 0 l  44 0 l  44 -29 l 
p ef
247 -258 m  409 -258 l  409 -229 l  281 -229 l  281 -152 l  404 -152 l 
404 -123 l  281 -123 l  281 -29 l  412 -29 l  412 0 l  247 0 l  247 -258 l 
p ef
585 -222 m  585 -125 l  681 -125 l  681 -96 l  585 -96 l  585 0 l  556 0 l 
556 -96 l  460 -96 l  460 -125 l  556 -125 l  556 -222 l  585 -222 l  p ef
831 -143 m  815 -143 803 -138 793 -127 ct 784 -116 780 -101 780 -83 ct 780 -64 784 -50 793 -39 ct 
803 -28 815 -23 831 -23 ct 846 -23 859 -28 868 -39 ct 877 -50 881 -64 881 -83 ct 
881 -101 877 -116 868 -127 ct 859 -138 846 -143 831 -143 ct p
900 -252 m  900 -220 l  891 -224 882 -228 873 -230 ct 864 -232 855 -233 847 -233 ct 
824 -233 806 -225 794 -210 ct 782 -194 775 -171 773 -140 ct 780 -150 789 -157 799 -163 ct 
809 -168 820 -171 833 -171 ct 858 -171 879 -163 894 -147 ct 909 -131 916 -110 916 -83 ct 
916 -56 909 -35 893 -19 ct 877 -3 856 5 831 5 ct 801 5 778 -6 762 -29 ct 747 -52 739 -85 739 -129 ct 
739 -169 748 -202 768 -226 ct 787 -250 813 -262 845 -262 ct 854 -262 863 -261 872 -260 ct 
881 -258 890 -255 900 -252 ct p ef
pom
pum
-2163 3259 t
44 -29 m  101 -29 l  101 -226 l  39 -213 l  39 -245 l  100 -258 l  135 -258 l 
135 -29 l  192 -29 l  192 0 l  44 0 l  44 -29 l  p ef
247 -258 m  409 -258 l  409 -229 l  281 -229 l  281 -152 l  404 -152 l 
404 -123 l  281 -123 l  281 -29 l  412 -29 l  412 0 l  247 0 l  247 -258 l 
p ef
585 -222 m  585 -125 l  681 -125 l  681 -96 l  585 -96 l  585 0 l  556 0 l 
556 -96 l  460 -96 l  460 -125 l  556 -125 l  556 -222 l  585 -222 l  p ef
743 -257 m  908 -257 l  908 -243 l  815 1 l  779 1 l  867 -228 l  743 -228 l 
743 -257 l  p ef
pom
pum
1309 3259 t
44 -29 m  101 -29 l  101 -226 l  39 -213 l  39 -245 l  100 -258 l  135 -258 l 
135 -29 l  192 -29 l  192 0 l  44 0 l  44 -29 l  p ef
247 -258 m  409 -258 l  409 -229 l  281 -229 l  281 -152 l  404 -152 l 
404 -123 l  281 -123 l  281 -29 l  412 -29 l  412 0 l  247 0 l  247 -258 l 
p ef
585 -222 m  585 -125 l  681 -125 l  681 -96 l  585 -96 l  585 0 l  556 0 l 
556 -96 l  460 -96 l  460 -125 l  556 -125 l  556 -222 l  585 -222 l  p ef
826 -123 m  810 -123 797 -118 787 -109 ct 778 -100 773 -88 773 -73 ct 773 -57 778 -45 787 -36 ct 
797 -27 810 -23 826 -23 ct 843 -23 856 -27 865 -36 ct 875 -45 880 -57 880 -73 ct 
880 -88 875 -100 865 -109 ct 856 -118 843 -123 826 -123 ct p
791 -137 m  776 -141 765 -148 756 -158 ct 748 -169 744 -181 744 -196 ct 744 -216 751 -233 766 -245 ct 
781 -257 801 -263 826 -263 ct 852 -263 872 -257 887 -245 ct 901 -233 908 -216 908 -196 ct 
908 -181 904 -169 896 -158 ct 888 -148 876 -141 861 -137 ct 878 -133 891 -126 900 -114 ct 
910 -103 914 -89 914 -73 ct 914 -48 907 -28 892 -15 ct 876 -2 855 5 826 5 ct 798 5 776 -2 761 -15 ct 
746 -28 738 -48 738 -73 ct 738 -89 743 -103 752 -114 ct 762 -126 775 -133 791 -137 ct 
p
779 -192 m  779 -179 783 -169 791 -161 ct 799 -154 811 -150 826 -150 ct 841 -150 853 -154 861 -161 ct 
870 -169 874 -179 874 -192 ct 874 -206 870 -216 861 -224 ct 853 -231 841 -235 826 -235 ct 
811 -235 799 -231 791 -224 ct 783 -216 779 -206 779 -192 ct p ef
pom
pum
4781 3259 t
44 -29 m  101 -29 l  101 -226 l  39 -213 l  39 -245 l  100 -258 l  135 -258 l 
135 -29 l  192 -29 l  192 0 l  44 0 l  44 -29 l  p ef
247 -258 m  409 -258 l  409 -229 l  281 -229 l  281 -152 l  404 -152 l 
404 -123 l  281 -123 l  281 -29 l  412 -29 l  412 0 l  247 0 l  247 -258 l 
p ef
585 -222 m  585 -125 l  681 -125 l  681 -96 l  585 -96 l  585 0 l  556 0 l 
556 -96 l  460 -96 l  460 -125 l  556 -125 l  556 -222 l  585 -222 l  p ef
753 -5 m  753 -37 l  762 -33 770 -30 779 -28 ct 788 -25 797 -24 806 -24 ct 829 -24 846 -32 858 -47 ct 
870 -63 877 -86 879 -118 ct 872 -108 864 -100 854 -95 ct 844 -90 832 -87 820 -87 ct 
794 -87 774 -95 759 -110 ct 744 -126 736 -148 736 -175 ct 736 -201 744 -223 760 -239 ct 
775 -255 796 -263 822 -263 ct 852 -263 875 -251 890 -228 ct 906 -205 914 -172 914 -129 ct 
914 -88 904 -56 885 -31 ct 866 -7 840 5 807 5 ct 799 5 790 4 781 2 ct 772 1 762 -2 753 -5 ct 
p
822 -114 m  838 -114 850 -120 859 -130 ct 868 -141 873 -156 873 -175 ct 873 -193 868 -208 859 -219 ct 
850 -230 838 -235 822 -235 ct 806 -235 794 -230 785 -219 ct 776 -208 771 -193 771 -175 ct 
771 -156 776 -141 785 -130 ct 794 -120 806 -114 822 -114 ct p ef
pom
pum
-6188 2666 t
143 -139 m  160 -135 173 -128 182 -117 ct 192 -105 196 -91 196 -75 ct 196 -49 188 -30 170 -16 ct 
153 -2 128 5 96 5 ct 85 5 74 4 62 2 ct 51 0 39 -4 27 -8 ct 27 -41 l  37 -36 47 -32 59 -29 ct 
70 -26 82 -24 95 -24 ct 116 -24 133 -29 145 -37 ct 156 -46 162 -58 162 -75 ct 162 -90 156 -102 146 -110 ct 
135 -119 120 -123 101 -123 ct 71 -123 l  71 -152 l  103 -152 l  120 -152 133 -155 142 -162 ct 
151 -169 156 -179 156 -192 ct 156 -205 151 -215 142 -222 ct 132 -229 119 -233 101 -233 ct 
92 -233 82 -232 71 -230 ct 60 -228 48 -225 35 -220 ct 35 -251 l  48 -255 60 -258 72 -260 ct 
83 -261 94 -262 104 -262 ct 131 -262 152 -256 167 -244 ct 183 -232 190 -216 190 -196 ct 
190 -181 186 -169 178 -159 ct 170 -150 158 -143 143 -139 ct p ef
247 -258 m  409 -258 l  409 -229 l  281 -229 l  281 -152 l  404 -152 l 
404 -123 l  281 -123 l  281 -29 l  412 -29 l  412 0 l  247 0 l  247 -258 l 
p ef
440 -111 m  533 -111 l  533 -83 l  440 -83 l  440 -111 l  p ef
689 -228 m  602 -90 l  689 -90 l  689 -228 l  p
680 -258 m  724 -258 l  724 -90 l  761 -90 l  761 -61 l  724 -61 l  724 0 l 
689 0 l  689 -61 l  573 -61 l  573 -95 l  680 -258 l  p ef
pom
pum
-6188 -503 t
143 -139 m  160 -135 173 -128 182 -117 ct 192 -105 196 -91 196 -75 ct 196 -49 188 -30 170 -16 ct 
153 -2 128 5 96 5 ct 85 5 74 4 62 2 ct 51 0 39 -4 27 -8 ct 27 -41 l  37 -36 47 -32 59 -29 ct 
70 -26 82 -24 95 -24 ct 116 -24 133 -29 145 -37 ct 156 -46 162 -58 162 -75 ct 162 -90 156 -102 146 -110 ct 
135 -119 120 -123 101 -123 ct 71 -123 l  71 -152 l  103 -152 l  120 -152 133 -155 142 -162 ct 
151 -169 156 -179 156 -192 ct 156 -205 151 -215 142 -222 ct 132 -229 119 -233 101 -233 ct 
92 -233 82 -232 71 -230 ct 60 -228 48 -225 35 -220 ct 35 -251 l  48 -255 60 -258 72 -260 ct 
83 -261 94 -262 104 -262 ct 131 -262 152 -256 167 -244 ct 183 -232 190 -216 190 -196 ct 
190 -181 186 -169 178 -159 ct 170 -150 158 -143 143 -139 ct p ef
247 -258 m  409 -258 l  409 -229 l  281 -229 l  281 -152 l  404 -152 l 
404 -123 l  281 -123 l  281 -29 l  412 -29 l  412 0 l  247 0 l  247 -258 l 
p ef
440 -111 m  533 -111 l  533 -83 l  440 -83 l  440 -111 l  p ef
699 -139 m  716 -135 729 -128 738 -117 ct 748 -105 752 -91 752 -75 ct 752 -49 744 -30 726 -16 ct 
709 -2 684 5 652 5 ct 641 5 630 4 618 2 ct 607 0 595 -4 583 -8 ct 583 -41 l  593 -36 603 -32 615 -29 ct 
626 -26 638 -24 651 -24 ct 672 -24 689 -29 701 -37 ct 712 -46 718 -58 718 -75 ct 
718 -90 712 -102 702 -110 ct 691 -119 676 -123 657 -123 ct 627 -123 l  627 -152 l 
659 -152 l  676 -152 689 -155 698 -162 ct 707 -169 712 -179 712 -192 ct 712 -205 707 -215 698 -222 ct 
688 -229 675 -233 657 -233 ct 648 -233 638 -232 627 -230 ct 616 -228 604 -225 591 -220 ct 
591 -251 l  604 -255 616 -258 628 -260 ct 639 -261 650 -262 660 -262 ct 687 -262 708 -256 723 -244 ct 
739 -232 746 -216 746 -196 ct 746 -181 742 -169 734 -159 ct 726 -150 714 -143 699 -139 ct 
p ef
pom
pum
2265 -1639 t
131 -269 m  131 -243 l  101 -243 l  89 -243 81 -240 77 -236 ct 73 -231 70 -223 70 -211 ct 
70 -194 l  123 -194 l  123 -169 l  70 -169 l  70 -1 l  38 -1 l  38 -169 l 
8 -169 l  8 -194 l  38 -194 l  38 -207 l  38 -229 43 -244 53 -254 ct 63 -264 79 -269 101 -269 ct 
131 -269 l  p ef
241 -269 m  226 -243 215 -216 207 -190 ct 200 -165 196 -138 196 -112 ct 196 -85 200 -59 207 -33 ct 
215 -7 226 19 241 46 ct 214 46 l  197 19 184 -8 175 -34 ct 167 -60 162 -86 162 -112 ct 
162 -137 167 -163 175 -189 ct 184 -215 197 -242 214 -269 ct 241 -269 l  p ef
459 -193 m  389 -99 l  462 0 l  425 0 l  369 -76 l  313 0 l  275 0 l  350 -101 l 
282 -193 l  319 -193 l  370 -124 l  421 -193 l  459 -193 l  p ef
504 -269 m  532 -269 l  549 -242 562 -215 571 -189 ct 579 -163 583 -137 583 -112 ct 
583 -86 579 -60 571 -34 ct 562 -8 549 19 532 46 ct 504 46 l  520 19 531 -7 538 -33 ct 
546 -59 550 -85 550 -112 ct 550 -138 546 -165 538 -190 ct 531 -216 520 -243 504 -269 ct 
p ef
751 -161 m  972 -161 l  972 -132 l  751 -132 l  751 -161 l  p
751 -90 m  972 -90 l  972 -61 l  751 -61 l  751 -90 l  p ef
1228 -143 m  1212 -143 1200 -138 1190 -127 ct 1181 -116 1177 -101 1177 -83 ct 
1177 -64 1181 -50 1190 -39 ct 1200 -28 1212 -23 1228 -23 ct 1243 -23 1256 -28 1265 -39 ct 
1274 -50 1278 -64 1278 -83 ct 1278 -101 1274 -116 1265 -127 ct 1256 -138 1243 -143 1228 -143 ct 
p
1297 -252 m  1297 -220 l  1288 -224 1279 -228 1270 -230 ct 1261 -232 1252 -233 1244 -233 ct 
1221 -233 1203 -225 1191 -210 ct 1179 -194 1172 -171 1170 -140 ct 1177 -150 1186 -157 1196 -163 ct 
1206 -168 1217 -171 1230 -171 ct 1255 -171 1276 -163 1291 -147 ct 1306 -131 1313 -110 1313 -83 ct 
1313 -56 1306 -35 1290 -19 ct 1274 -3 1253 5 1228 5 ct 1198 5 1175 -6 1159 -29 ct 
1144 -52 1136 -85 1136 -129 ct 1136 -169 1145 -202 1165 -226 ct 1184 -250 1210 -262 1242 -262 ct 
1251 -262 1260 -261 1269 -260 ct 1278 -258 1287 -255 1297 -252 ct p ef
1435 -235 m  1417 -235 1404 -226 1395 -208 ct 1386 -191 1381 -164 1381 -129 ct 
1381 -93 1386 -67 1395 -49 ct 1404 -31 1417 -23 1435 -23 ct 1453 -23 1467 -31 1476 -49 ct 
1485 -67 1489 -93 1489 -129 ct 1489 -164 1485 -191 1476 -208 ct 1467 -226 1453 -235 1435 -235 ct 
p
1435 -263 m  1464 -263 1486 -251 1501 -228 ct 1517 -205 1524 -172 1524 -129 ct 
1524 -85 1517 -52 1501 -29 ct 1486 -6 1464 5 1435 5 ct 1406 5 1384 -6 1369 -29 ct 
1354 -52 1346 -85 1346 -129 ct 1346 -172 1354 -205 1369 -228 ct 1384 -251 1406 -263 1435 -263 ct 
p ef
1576 -44 m  1613 -44 l  1613 -14 l  1584 41 l  1562 41 l  1576 -14 l  1576 -44 l 
p ef
1708 -29 m  1829 -29 l  1829 0 l  1666 0 l  1666 -29 l  1679 -43 1697 -61 1720 -84 ct 
1743 -108 1757 -122 1763 -129 ct 1774 -142 1782 -152 1786 -161 ct 1791 -170 1793 -178 1793 -187 ct 
1793 -200 1788 -211 1779 -220 ct 1769 -229 1756 -233 1741 -233 ct 1730 -233 1719 -231 1706 -227 ct 
1694 -224 1681 -218 1668 -210 ct 1668 -245 l  1682 -251 1695 -255 1707 -258 ct 
1719 -261 1730 -262 1740 -262 ct 1767 -262 1788 -256 1804 -242 ct 1820 -229 1828 -211 1828 -189 ct 
1828 -178 1826 -168 1822 -159 ct 1818 -149 1811 -138 1800 -125 ct 1797 -122 1788 -112 1773 -96 ct 
1758 -80 1736 -58 1708 -29 ct p ef
1985 -228 m  1898 -90 l  1985 -90 l  1985 -228 l  p
1976 -258 m  2020 -258 l  2020 -90 l  2057 -90 l  2057 -61 l  2020 -61 l 
2020 0 l  1985 0 l  1985 -61 l  1869 -61 l  1869 -95 l  1976 -258 l  p ef
2364 -193 m  2294 -99 l  2367 0 l  2330 0 l  2274 -76 l  2218 0 l  2180 0 l 
2255 -101 l  2187 -193 l  2224 -193 l  2275 -124 l  2326 -193 l  2364 -193 l 
p ef
2546 -258 m  2639 -162 l  2605 -162 l  2529 -230 l  2453 -162 l  2418 -162 l 
2512 -258 l  2546 -258 l  p ef
2689 -111 m  2782 -111 l  2782 -83 l  2689 -83 l  2689 -111 l  p ef
2917 -235 m  2899 -235 2886 -226 2877 -208 ct 2868 -191 2863 -164 2863 -129 ct 
2863 -93 2868 -67 2877 -49 ct 2886 -31 2899 -23 2917 -23 ct 2935 -23 2949 -31 2958 -49 ct 
2967 -67 2971 -93 2971 -129 ct 2971 -164 2967 -191 2958 -208 ct 2949 -226 2935 -235 2917 -235 ct 
p
2917 -263 m  2946 -263 2968 -251 2983 -228 ct 2999 -205 3006 -172 3006 -129 ct 
3006 -85 2999 -52 2983 -29 ct 2968 -6 2946 5 2917 5 ct 2888 5 2866 -6 2851 -29 ct 
2836 -52 2828 -85 2828 -129 ct 2828 -172 2836 -205 2851 -228 ct 2866 -251 2888 -263 2917 -263 ct 
p ef
3057 -44 m  3094 -44 l  3094 -14 l  3065 41 l  3043 41 l  3057 -14 l  3057 -44 l 
p ef
3160 -258 m  3297 -258 l  3297 -229 l  3192 -229 l  3192 -165 l  3197 -167 3202 -168 3207 -169 ct 
3212 -170 3217 -170 3222 -170 ct 3251 -170 3274 -162 3291 -147 ct 3307 -131 3316 -110 3316 -83 ct 
3316 -55 3307 -33 3290 -18 ct 3273 -3 3248 5 3217 5 ct 3206 5 3195 4 3184 2 ct 
3173 0 3161 -2 3149 -6 ct 3149 -41 l  3160 -35 3170 -31 3181 -28 ct 3192 -26 3204 -24 3216 -24 ct 
3236 -24 3252 -30 3264 -40 ct 3275 -51 3281 -65 3281 -83 ct 3281 -101 3275 -115 3264 -125 ct 
3252 -136 3236 -141 3216 -141 ct 3207 -141 3198 -140 3188 -138 ct 3179 -136 3170 -133 3160 -128 ct 
3160 -258 l  p ef
3363 -257 m  3528 -257 l  3528 -243 l  3435 1 l  3399 1 l  3487 -228 l 
3363 -228 l  3363 -257 l  p ef
pom
pum
2265 -1242 t
157 -121 m  164 -118 171 -113 178 -105 ct 186 -96 193 -85 200 -70 ct 235 0 l 
198 0 l  165 -66 l  156 -83 148 -95 140 -101 ct 132 -106 121 -109 107 -109 ct 
69 -109 l  69 0 l  35 0 l  35 -258 l  113 -258 l  143 -258 165 -252 179 -239 ct 
194 -227 201 -208 201 -184 ct 201 -167 197 -154 190 -143 ct 182 -132 171 -125 157 -121 ct 
p
69 -229 m  69 -138 l  113 -138 l  130 -138 143 -142 151 -149 ct 160 -157 164 -168 164 -184 ct 
164 -199 160 -210 151 -218 ct 143 -225 130 -229 113 -229 ct 69 -229 l  p ef
284 -135 m  357 -135 l  357 -115 l  254 -115 l  254 -134 l  258 -138 264 -143 271 -149 ct 
310 -184 330 -207 330 -218 ct 330 -225 327 -232 321 -236 ct 315 -241 307 -243 298 -243 ct 
292 -243 285 -242 278 -240 ct 271 -238 264 -235 255 -231 ct 255 -252 l  264 -256 272 -258 280 -260 ct 
288 -261 295 -262 301 -262 ct 318 -262 331 -258 341 -251 ct 351 -243 356 -233 356 -221 ct 
356 -205 337 -180 299 -148 ct 293 -142 288 -138 284 -135 ct p ef
513 -161 m  734 -161 l  734 -132 l  513 -132 l  513 -161 l  p
513 -90 m  734 -90 l  734 -61 l  513 -61 l  513 -90 l  p ef
985 -235 m  967 -235 954 -226 945 -208 ct 936 -191 931 -164 931 -129 ct 931 -93 936 -67 945 -49 ct 
954 -31 967 -23 985 -23 ct 1003 -23 1017 -31 1026 -49 ct 1035 -67 1039 -93 1039 -129 ct 
1039 -164 1035 -191 1026 -208 ct 1017 -226 1003 -235 985 -235 ct p
985 -263 m  1014 -263 1036 -251 1051 -228 ct 1067 -205 1074 -172 1074 -129 ct 
1074 -85 1067 -52 1051 -29 ct 1036 -6 1014 5 985 5 ct 956 5 934 -6 919 -29 ct 904 -52 896 -85 896 -129 ct 
896 -172 904 -205 919 -228 ct 934 -251 956 -263 985 -263 ct p ef
1126 -44 m  1163 -44 l  1163 -14 l  1134 41 l  1112 41 l  1126 -14 l  1126 -44 l 
p ef
1230 -5 m  1230 -37 l  1239 -33 1247 -30 1256 -28 ct 1265 -25 1274 -24 1283 -24 ct 
1306 -24 1323 -32 1335 -47 ct 1347 -63 1354 -86 1356 -118 ct 1349 -108 1341 -100 1331 -95 ct 
1321 -90 1309 -87 1297 -87 ct 1271 -87 1251 -95 1236 -110 ct 1221 -126 1213 -148 1213 -175 ct 
1213 -201 1221 -223 1237 -239 ct 1252 -255 1273 -263 1299 -263 ct 1329 -263 1352 -251 1367 -228 ct 
1383 -205 1391 -172 1391 -129 ct 1391 -88 1381 -56 1362 -31 ct 1343 -7 1317 5 1284 5 ct 
1276 5 1267 4 1258 2 ct 1249 1 1239 -2 1230 -5 ct p
1299 -114 m  1315 -114 1327 -120 1336 -130 ct 1345 -141 1350 -156 1350 -175 ct 
1350 -193 1345 -208 1336 -219 ct 1327 -230 1315 -235 1299 -235 ct 1283 -235 1271 -230 1262 -219 ct 
1253 -208 1248 -193 1248 -175 ct 1248 -156 1253 -141 1262 -130 ct 1271 -120 1283 -114 1299 -114 ct 
p ef
1519 -143 m  1503 -143 1491 -138 1481 -127 ct 1472 -116 1468 -101 1468 -83 ct 
1468 -64 1472 -50 1481 -39 ct 1491 -28 1503 -23 1519 -23 ct 1534 -23 1547 -28 1556 -39 ct 
1565 -50 1569 -64 1569 -83 ct 1569 -101 1565 -116 1556 -127 ct 1547 -138 1534 -143 1519 -143 ct 
p
1588 -252 m  1588 -220 l  1579 -224 1570 -228 1561 -230 ct 1552 -232 1543 -233 1535 -233 ct 
1512 -233 1494 -225 1482 -210 ct 1470 -194 1463 -171 1461 -140 ct 1468 -150 1477 -157 1487 -163 ct 
1497 -168 1508 -171 1521 -171 ct 1546 -171 1567 -163 1582 -147 ct 1597 -131 1604 -110 1604 -83 ct 
1604 -56 1597 -35 1581 -19 ct 1565 -3 1544 5 1519 5 ct 1489 5 1466 -6 1450 -29 ct 
1435 -52 1427 -85 1427 -129 ct 1427 -169 1436 -202 1456 -226 ct 1475 -250 1501 -262 1533 -262 ct 
1542 -262 1551 -261 1560 -260 ct 1569 -258 1578 -255 1588 -252 ct p ef
pom
pum
-2409 3906 t
31 -232 m  73 -232 l  176 -38 l  176 -232 l  207 -232 l  207 0 l  164 0 l 
62 -194 l  62 0 l  31 0 l  31 -232 l  p ef
265 -69 m  265 -174 l  294 -174 l  294 -70 l  294 -54 297 -41 303 -33 ct 
310 -25 319 -21 332 -21 ct 348 -21 360 -26 369 -36 ct 378 -45 382 -59 382 -76 ct 
382 -174 l  411 -174 l  411 0 l  382 0 l  382 -27 l  375 -17 367 -9 358 -4 ct 
349 1 338 4 326 4 ct 306 4 291 -2 281 -15 ct 270 -27 265 -45 265 -69 ct p
p ef
615 -140 m  623 -153 631 -163 641 -169 ct 651 -175 663 -178 676 -178 ct 694 -178 708 -172 718 -159 ct 
728 -146 733 -128 733 -105 ct 733 0 l  704 0 l  704 -104 l  704 -121 701 -133 695 -141 ct 
689 -149 680 -153 668 -153 ct 653 -153 642 -148 633 -138 ct 624 -129 620 -115 620 -98 ct 
620 0 l  591 0 l  591 -104 l  591 -121 589 -133 583 -141 ct 577 -149 568 -153 555 -153 ct 
541 -153 529 -148 520 -138 ct 512 -128 508 -115 508 -98 ct 508 0 l  479 0 l 
479 -174 l  508 -174 l  508 -147 l  514 -157 522 -165 531 -170 ct 540 -175 551 -178 564 -178 ct 
576 -178 587 -175 596 -168 ct 605 -162 611 -153 615 -140 ct p ef
946 -95 m  946 -81 l  814 -81 l  816 -61 822 -46 832 -36 ct 843 -25 858 -20 876 -20 ct 
887 -20 898 -22 908 -24 ct 919 -27 929 -31 939 -36 ct 939 -9 l  929 -5 918 -2 908 1 ct 
897 3 886 4 875 4 ct 847 4 825 -4 809 -20 ct 793 -36 785 -58 785 -86 ct 785 -114 792 -137 808 -153 ct 
823 -170 844 -178 870 -178 ct 893 -178 912 -171 925 -156 ct 939 -141 946 -120 946 -95 ct 
p
917 -103 m  917 -119 913 -131 904 -140 ct 895 -149 884 -154 870 -154 ct 854 -154 841 -150 832 -141 ct 
822 -132 817 -119 815 -103 ct 917 -103 l  p ef
1084 -147 m  1081 -149 1077 -150 1073 -151 ct 1069 -152 1065 -153 1061 -153 ct 
1045 -153 1032 -147 1024 -137 ct 1015 -126 1011 -111 1011 -92 ct 1011 0 l  982 0 l 
982 -174 l  1011 -174 l  1011 -147 l  1017 -157 1024 -165 1034 -170 ct 1044 -175 1055 -178 1069 -178 ct 
1071 -178 1073 -178 1076 -178 ct 1078 -177 1081 -177 1084 -176 ct 1084 -147 l 
p ef
1182 -154 m  1167 -154 1155 -148 1146 -136 ct 1137 -124 1133 -108 1133 -87 ct 
1133 -66 1137 -50 1146 -38 ct 1155 -26 1167 -20 1182 -20 ct 1198 -20 1210 -26 1219 -38 ct 
1227 -50 1232 -66 1232 -87 ct 1232 -108 1227 -124 1219 -136 ct 1210 -148 1198 -154 1182 -154 ct 
p
1182 -178 m  1207 -178 1227 -170 1241 -154 ct 1255 -138 1262 -116 1262 -87 ct 
1262 -59 1255 -36 1241 -20 ct 1227 -4 1207 4 1182 4 ct 1157 4 1138 -4 1124 -20 ct 
1110 -36 1103 -59 1103 -87 ct 1103 -116 1110 -138 1124 -154 ct 1138 -170 1157 -178 1182 -178 ct 
p ef
1520 -147 m  1520 -241 l  1549 -241 l  1549 0 l  1520 0 l  1520 -26 l 
1514 -15 1507 -8 1498 -3 ct 1489 2 1478 5 1465 5 ct 1444 5 1427 -3 1413 -20 ct 
1400 -37 1394 -59 1394 -86 ct 1394 -114 1400 -136 1413 -153 ct 1427 -169 1444 -178 1465 -178 ct 
1478 -178 1489 -175 1498 -170 ct 1507 -165 1514 -158 1520 -147 ct p
1423 -86 m  1423 -65 1427 -49 1436 -37 ct 1445 -25 1457 -19 1472 -19 ct 1487 -19 1499 -25 1507 -37 ct 
1516 -49 1520 -65 1520 -86 ct 1520 -108 1516 -124 1507 -136 ct 1499 -148 1487 -154 1472 -154 ct 
1457 -154 1445 -148 1436 -136 ct 1427 -124 1423 -108 1423 -86 ct p ef
1618 -173 m  1647 -173 l  1647 1 l  1618 1 l  1618 -173 l  p
1618 -241 m  1647 -241 l  1647 -205 l  1618 -205 l  1618 -241 l  p ef
1914 -109 m  1921 -106 1927 -102 1934 -94 ct 1940 -87 1947 -76 1953 -63 ct 1985 0 l 
1951 0 l  1921 -59 l  1914 -75 1906 -85 1899 -90 ct 1892 -95 1882 -98 1870 -98 ct 
1836 -98 l  1836 0 l  1804 0 l  1804 -232 l  1875 -232 l  1902 -232 1921 -226 1934 -215 ct 
1947 -204 1954 -187 1954 -165 ct 1954 -150 1951 -138 1944 -129 ct 1937 -119 1927 -112 1914 -109 ct 
p
1836 -206 m  1836 -124 l  1875 -124 l  1890 -124 1902 -127 1909 -134 ct 1917 -141 1921 -151 1921 -165 ct 
1921 -179 1917 -189 1909 -196 ct 1902 -203 1890 -206 1875 -206 ct 1836 -206 l 
p ef
2093 -88 m  2070 -88 2054 -85 2045 -80 ct 2036 -75 2032 -66 2032 -53 ct 2032 -43 2035 -35 2042 -29 ct 
2048 -23 2057 -20 2069 -20 ct 2085 -20 2097 -26 2107 -37 ct 2117 -48 2121 -63 2121 -82 ct 
2121 -88 l  2093 -88 l  p
2150 -100 m  2150 -1 l  2121 -1 l  2121 -27 l  2115 -16 2107 -9 2097 -4 ct 
2087 1 2075 4 2061 4 ct 2044 4 2029 -1 2019 -11 ct 2008 -21 2003 -34 2003 -51 ct 
2003 -71 2010 -85 2023 -95 ct 2036 -105 2055 -110 2081 -110 ct 2121 -110 l  2121 -113 l 
2121 -126 2117 -136 2108 -143 ct 2100 -150 2088 -154 2072 -154 ct 2062 -154 2052 -153 2043 -150 ct 
2034 -148 2025 -145 2016 -140 ct 2016 -166 l  2026 -170 2036 -173 2046 -175 ct 
2056 -177 2066 -178 2075 -178 ct 2100 -178 2119 -172 2131 -159 ct 2144 -146 2150 -126 2150 -100 ct 
p ef
2272 16 m  2264 37 2256 50 2249 57 ct 2241 63 2231 66 2218 66 ct 2195 66 l  2195 42 l 
2212 42 l  2220 42 2226 40 2230 37 ct 2235 33 2239 24 2245 10 ct 2250 -3 l  2179 -174 l 
2210 -174 l  2264 -38 l  2318 -174 l  2349 -174 l  2272 16 l  p ef
2385 -241 m  2414 -241 l  2414 0 l  2385 0 l  2385 -241 l  p ef
2613 -95 m  2613 -81 l  2481 -81 l  2483 -61 2489 -46 2499 -36 ct 2510 -25 2525 -20 2543 -20 ct 
2554 -20 2565 -22 2575 -24 ct 2586 -27 2596 -31 2606 -36 ct 2606 -9 l  2596 -5 2585 -2 2575 1 ct 
2564 3 2553 4 2542 4 ct 2514 4 2492 -4 2476 -20 ct 2460 -36 2452 -58 2452 -86 ct 
2452 -114 2459 -137 2475 -153 ct 2490 -170 2511 -178 2537 -178 ct 2560 -178 2579 -171 2592 -156 ct 
2606 -141 2613 -120 2613 -95 ct p
2584 -103 m  2584 -119 2580 -131 2571 -140 ct 2562 -149 2551 -154 2537 -154 ct 
2521 -154 2508 -150 2499 -141 ct 2489 -132 2484 -119 2482 -103 ct 2584 -103 l 
p ef
2649 -173 m  2678 -173 l  2678 1 l  2649 1 l  2649 -173 l  p
2649 -241 m  2678 -241 l  2678 -205 l  2649 -205 l  2649 -241 l  p ef
2843 -89 m  2843 -110 2839 -126 2831 -137 ct 2822 -148 2810 -154 2795 -154 ct 
2779 -154 2767 -148 2759 -137 ct 2750 -126 2746 -110 2746 -89 ct 2746 -68 2750 -52 2759 -41 ct 
2767 -30 2779 -24 2795 -24 ct 2810 -24 2822 -30 2831 -41 ct 2839 -52 2843 -68 2843 -89 ct 
p
2872 -22 m  2872 8 2865 30 2852 44 ct 2839 59 2819 66 2792 66 ct 2782 66 2772 65 2763 64 ct 
2755 62 2746 60 2738 57 ct 2738 29 l  2746 34 2754 37 2762 39 ct 2771 41 2779 42 2787 42 ct 
2806 42 2820 38 2829 28 ct 2839 18 2843 3 2843 -17 ct 2843 -31 l  2838 -20 2830 -13 2821 -8 ct 
2812 -3 2801 0 2788 0 ct 2766 0 2749 -8 2736 -24 ct 2723 -41 2717 -62 2717 -89 ct 
2717 -116 2723 -137 2736 -154 ct 2749 -170 2766 -178 2788 -178 ct 2801 -178 2812 -175 2821 -170 ct 
2830 -165 2838 -158 2843 -147 ct 2843 -174 l  2872 -174 l  2872 -22 l  p ef
3085 -105 m  3085 0 l  3056 0 l  3056 -104 l  3056 -120 3053 -133 3046 -141 ct 
3040 -149 3030 -153 3017 -153 ct 3002 -153 2990 -148 2981 -138 ct 2972 -128 2968 -115 2968 -98 ct 
2968 0 l  2939 0 l  2939 -241 l  2968 -241 l  2968 -147 l  2974 -157 2982 -165 2992 -170 ct 
3001 -175 3012 -178 3024 -178 ct 3044 -178 3059 -172 3069 -159 ct 3079 -147 3085 -129 3085 -105 ct 
p ef
3369 -170 m  3369 -143 l  3361 -147 3352 -150 3344 -152 ct 3335 -154 3326 -155 3317 -155 ct 
3302 -155 3292 -153 3285 -148 ct 3278 -144 3274 -138 3274 -129 ct 3274 -122 3277 -117 3282 -113 ct 
3287 -109 3297 -106 3312 -102 ct 3322 -100 l  3342 -96 3357 -90 3365 -82 ct 
3374 -74 3378 -63 3378 -49 ct 3378 -32 3372 -20 3359 -10 ct 3346 -1 3329 4 3306 4 ct 
3297 4 3287 3 3277 1 ct 3267 -1 3256 -3 3245 -7 ct 3245 -36 l  3256 -31 3266 -27 3276 -24 ct 
3287 -21 3297 -20 3307 -20 ct 3320 -20 3331 -22 3338 -27 ct 3345 -31 3349 -38 3349 -46 ct 
3349 -54 3346 -60 3341 -64 ct 3336 -68 3324 -72 3307 -76 ct 3297 -79 l  3279 -82 3266 -88 3258 -96 ct 
3250 -103 3246 -114 3246 -128 ct 3246 -144 3252 -157 3264 -166 ct 3275 -174 3292 -179 3313 -179 ct 
3324 -179 3334 -178 3343 -177 ct 3352 -175 3361 -173 3369 -170 ct p ef
3484 -154 m  3469 -154 3457 -148 3448 -136 ct 3439 -124 3435 -108 3435 -87 ct 
3435 -66 3439 -50 3448 -38 ct 3457 -26 3469 -20 3484 -20 ct 3500 -20 3512 -26 3521 -38 ct 
3529 -50 3534 -66 3534 -87 ct 3534 -108 3529 -124 3521 -136 ct 3512 -148 3500 -154 3484 -154 ct 
p
3484 -178 m  3509 -178 3529 -170 3543 -154 ct 3557 -138 3564 -116 3564 -87 ct 
3564 -59 3557 -36 3543 -20 ct 3529 -4 3509 4 3484 4 ct 3459 4 3440 -4 3426 -20 ct 
3412 -36 3405 -59 3405 -87 ct 3405 -116 3412 -138 3426 -154 ct 3440 -170 3459 -178 3484 -178 ct 
p ef
3602 -241 m  3631 -241 l  3631 0 l  3602 0 l  3602 -241 l  p ef
3678 -69 m  3678 -174 l  3707 -174 l  3707 -70 l  3707 -54 3710 -41 3716 -33 ct 
3723 -25 3732 -21 3745 -21 ct 3761 -21 3773 -26 3782 -36 ct 3791 -45 3795 -59 3795 -76 ct 
3795 -174 l  3824 -174 l  3824 0 l  3795 0 l  3795 -27 l  3788 -17 3780 -9 3771 -4 ct 
3762 1 3751 4 3739 4 ct 3719 4 3704 -2 3694 -15 ct 3683 -27 3678 -45 3678 -69 ct 
p
p ef
3921 -223 m  3921 -174 l  3980 -174 l  3980 -152 l  3921 -152 l  3921 -57 l 
3921 -43 3923 -34 3927 -30 ct 3931 -26 3939 -24 3951 -24 ct 3980 -24 l  3980 0 l 
3951 0 l  3929 0 3913 -4 3905 -12 ct 3897 -21 3893 -36 3893 -57 ct 3893 -152 l 
3872 -152 l  3872 -174 l  3893 -174 l  3893 -223 l  3921 -223 l  p ef
4104 -88 m  4081 -88 4065 -85 4056 -80 ct 4047 -75 4043 -66 4043 -53 ct 4043 -43 4046 -35 4053 -29 ct 
4059 -23 4068 -20 4080 -20 ct 4096 -20 4108 -26 4118 -37 ct 4128 -48 4132 -63 4132 -82 ct 
4132 -88 l  4104 -88 l  p
4161 -100 m  4161 -1 l  4132 -1 l  4132 -27 l  4126 -16 4118 -9 4108 -4 ct 
4098 1 4086 4 4072 4 ct 4055 4 4040 -1 4030 -11 ct 4019 -21 4014 -34 4014 -51 ct 
4014 -71 4021 -85 4034 -95 ct 4047 -105 4066 -110 4092 -110 ct 4132 -110 l  4132 -113 l 
4132 -126 4128 -136 4119 -143 ct 4111 -150 4099 -154 4083 -154 ct 4073 -154 4063 -153 4054 -150 ct 
4045 -148 4036 -145 4027 -140 ct 4027 -166 l  4037 -170 4047 -173 4057 -175 ct 
4067 -177 4077 -178 4086 -178 ct 4111 -178 4130 -172 4142 -159 ct 4155 -146 4161 -126 4161 -100 ct 
p ef
4210 -241 m  4239 -241 l  4239 0 l  4210 0 l  4210 -241 l  p ef
4439 -95 m  4439 -81 l  4307 -81 l  4309 -61 4315 -46 4325 -36 ct 4336 -25 4351 -20 4369 -20 ct 
4380 -20 4391 -22 4401 -24 ct 4412 -27 4422 -31 4432 -36 ct 4432 -9 l  4422 -5 4411 -2 4401 1 ct 
4390 3 4379 4 4368 4 ct 4340 4 4318 -4 4302 -20 ct 4286 -36 4278 -58 4278 -86 ct 
4278 -114 4285 -137 4301 -153 ct 4316 -170 4337 -178 4363 -178 ct 4386 -178 4405 -171 4418 -156 ct 
4432 -141 4439 -120 4439 -95 ct p
4410 -103 m  4410 -119 4406 -131 4397 -140 ct 4388 -149 4377 -154 4363 -154 ct 
4347 -154 4334 -150 4325 -141 ct 4315 -132 4310 -119 4308 -103 ct 4410 -103 l 
p ef
4650 -241 m  4636 -217 4625 -194 4619 -170 ct 4612 -147 4609 -124 4609 -100 ct 
4609 -76 4612 -52 4619 -29 ct 4626 -5 4636 18 4650 42 ct 4625 42 l  4609 18 4598 -6 4590 -30 ct 
4582 -53 4578 -76 4578 -100 ct 4578 -123 4582 -146 4590 -169 ct 4597 -193 4609 -217 4625 -241 ct 
4650 -241 l  p ef
4824 -109 m  4831 -106 4837 -102 4844 -94 ct 4850 -87 4857 -76 4863 -63 ct 4895 0 l 
4861 0 l  4831 -59 l  4824 -75 4816 -85 4809 -90 ct 4802 -95 4792 -98 4780 -98 ct 
4746 -98 l  4746 0 l  4714 0 l  4714 -232 l  4785 -232 l  4812 -232 4831 -226 4844 -215 ct 
4857 -204 4864 -187 4864 -165 ct 4864 -150 4861 -138 4854 -129 ct 4847 -119 4837 -112 4824 -109 ct 
p
4746 -206 m  4746 -124 l  4785 -124 l  4800 -124 4812 -127 4819 -134 ct 4827 -141 4831 -151 4831 -165 ct 
4831 -179 4827 -189 4819 -196 ct 4812 -203 4800 -206 4785 -206 ct 4746 -206 l 
p ef
5004 -88 m  4981 -88 4965 -85 4956 -80 ct 4947 -75 4943 -66 4943 -53 ct 4943 -43 4946 -35 4953 -29 ct 
4959 -23 4968 -20 4980 -20 ct 4996 -20 5008 -26 5018 -37 ct 5028 -48 5032 -63 5032 -82 ct 
5032 -88 l  5004 -88 l  p
5061 -100 m  5061 -1 l  5032 -1 l  5032 -27 l  5026 -16 5018 -9 5008 -4 ct 
4998 1 4986 4 4972 4 ct 4955 4 4940 -1 4930 -11 ct 4919 -21 4914 -34 4914 -51 ct 
4914 -71 4921 -85 4934 -95 ct 4947 -105 4966 -110 4992 -110 ct 5032 -110 l  5032 -113 l 
5032 -126 5028 -136 5019 -143 ct 5011 -150 4999 -154 4983 -154 ct 4973 -154 4963 -153 4954 -150 ct 
4945 -148 4936 -145 4927 -140 ct 4927 -166 l  4937 -170 4947 -173 4957 -175 ct 
4967 -177 4977 -178 4986 -178 ct 5011 -178 5030 -172 5042 -159 ct 5055 -146 5061 -126 5061 -100 ct 
p ef
5242 53 m  5242 75 l  5077 75 l  5077 53 l  5242 53 l  p ef
5380 -170 m  5380 -143 l  5372 -147 5363 -150 5355 -152 ct 5346 -154 5337 -155 5328 -155 ct 
5313 -155 5303 -153 5296 -148 ct 5289 -144 5285 -138 5285 -129 ct 5285 -122 5288 -117 5293 -113 ct 
5298 -109 5308 -106 5323 -102 ct 5333 -100 l  5353 -96 5368 -90 5376 -82 ct 
5385 -74 5389 -63 5389 -49 ct 5389 -32 5383 -20 5370 -10 ct 5357 -1 5340 4 5317 4 ct 
5308 4 5298 3 5288 1 ct 5278 -1 5267 -3 5256 -7 ct 5256 -36 l  5267 -31 5277 -27 5287 -24 ct 
5298 -21 5308 -20 5318 -20 ct 5331 -20 5342 -22 5349 -27 ct 5356 -31 5360 -38 5360 -46 ct 
5360 -54 5357 -60 5352 -64 ct 5347 -68 5335 -72 5318 -76 ct 5308 -79 l  5290 -82 5277 -88 5269 -96 ct 
5261 -103 5257 -114 5257 -128 ct 5257 -144 5263 -157 5275 -166 ct 5286 -174 5303 -179 5324 -179 ct 
5335 -179 5345 -178 5354 -177 ct 5363 -175 5372 -173 5380 -170 ct p ef
5423 -241 m  5448 -241 l  5464 -217 5475 -193 5483 -169 ct 5491 -146 5495 -123 5495 -100 ct 
5495 -76 5491 -53 5483 -30 ct 5475 -6 5464 18 5448 42 ct 5423 42 l  5437 18 5448 -5 5454 -29 ct 
5461 -52 5464 -76 5464 -100 ct 5464 -124 5461 -147 5454 -170 ct 5448 -194 5437 -217 5423 -241 ct 
p ef
pom
pum
-6663 2360 t
90.0 r -1 -231 m  195 -231 l  195 -205 l  113 -205 l  113 1 l  81 1 l  81 -205 l 
-1 -205 l  -1 -231 l  p ef
364 -95 m  364 -81 l  232 -81 l  234 -61 240 -46 250 -36 ct 261 -25 276 -20 294 -20 ct 
305 -20 316 -22 326 -24 ct 337 -27 347 -31 357 -36 ct 357 -9 l  347 -5 336 -2 326 1 ct 
315 3 304 4 293 4 ct 265 4 243 -4 227 -20 ct 211 -36 203 -58 203 -86 ct 203 -114 210 -137 226 -153 ct 
241 -170 262 -178 288 -178 ct 311 -178 330 -171 343 -156 ct 357 -141 364 -120 364 -95 ct 
p
335 -103 m  335 -119 331 -131 322 -140 ct 313 -149 302 -154 288 -154 ct 272 -154 259 -150 250 -141 ct 
240 -132 235 -119 233 -103 ct 335 -103 l  p ef
535 -140 m  543 -153 551 -163 561 -169 ct 571 -175 583 -178 596 -178 ct 614 -178 628 -172 638 -159 ct 
648 -146 653 -128 653 -105 ct 653 0 l  624 0 l  624 -104 l  624 -121 621 -133 615 -141 ct 
609 -149 600 -153 588 -153 ct 573 -153 562 -148 553 -138 ct 544 -129 540 -115 540 -98 ct 
540 0 l  511 0 l  511 -104 l  511 -121 509 -133 503 -141 ct 497 -149 488 -153 475 -153 ct 
461 -153 449 -148 440 -138 ct 432 -128 428 -115 428 -98 ct 428 0 l  399 0 l 
399 -174 l  428 -174 l  428 -147 l  434 -157 442 -165 451 -170 ct 460 -175 471 -178 484 -178 ct 
496 -178 507 -175 516 -168 ct 525 -162 531 -153 535 -140 ct p ef
746 -27 m  746 66 l  717 66 l  717 -174 l  746 -174 l  746 -147 l  752 -158 759 -165 768 -170 ct 
778 -176 788 -178 801 -178 ct 822 -178 839 -170 853 -153 ct 866 -136 872 -114 872 -87 ct 
872 -60 866 -38 853 -21 ct 839 -4 822 4 801 4 ct 788 4 778 1 768 -4 ct 759 -9 752 -16 746 -27 ct 
p
843 -87 m  843 -108 838 -124 830 -136 ct 821 -148 809 -154 794 -154 ct 779 -154 767 -148 759 -136 ct 
750 -124 746 -108 746 -87 ct 746 -66 750 -50 759 -38 ct 767 -26 779 -20 794 -20 ct 
809 -20 821 -26 830 -38 ct 838 -50 843 -66 843 -87 ct p ef
997 -154 m  982 -154 970 -148 961 -136 ct 952 -124 948 -108 948 -87 ct 948 -66 952 -50 961 -38 ct 
970 -26 982 -20 997 -20 ct 1013 -20 1025 -26 1034 -38 ct 1042 -50 1047 -66 1047 -87 ct 
1047 -108 1042 -124 1034 -136 ct 1025 -148 1013 -154 997 -154 ct p
997 -178 m  1022 -178 1042 -170 1056 -154 ct 1070 -138 1077 -116 1077 -87 ct 
1077 -59 1070 -36 1056 -20 ct 1042 -4 1022 4 997 4 ct 972 4 953 -4 939 -20 ct 925 -36 918 -59 918 -87 ct 
918 -116 925 -138 939 -154 ct 953 -170 972 -178 997 -178 ct p ef
1249 -223 m  1249 -174 l  1308 -174 l  1308 -152 l  1249 -152 l  1249 -57 l 
1249 -43 1251 -34 1255 -30 ct 1259 -26 1267 -24 1279 -24 ct 1308 -24 l  1308 0 l 
1279 0 l  1257 0 1241 -4 1233 -12 ct 1225 -21 1221 -36 1221 -57 ct 1221 -152 l 
1200 -152 l  1200 -174 l  1221 -174 l  1221 -223 l  1249 -223 l  p ef
1454 -147 m  1451 -149 1447 -150 1443 -151 ct 1439 -152 1435 -153 1431 -153 ct 
1415 -153 1402 -147 1394 -137 ct 1385 -126 1381 -111 1381 -92 ct 1381 0 l  1352 0 l 
1352 -174 l  1381 -174 l  1381 -147 l  1387 -157 1394 -165 1404 -170 ct 1414 -175 1425 -178 1439 -178 ct 
1441 -178 1443 -178 1446 -178 ct 1448 -177 1451 -177 1454 -176 ct 1454 -147 l 
p ef
1564 -88 m  1541 -88 1525 -85 1516 -80 ct 1507 -75 1503 -66 1503 -53 ct 1503 -43 1506 -35 1513 -29 ct 
1519 -23 1528 -20 1540 -20 ct 1556 -20 1568 -26 1578 -37 ct 1588 -48 1592 -63 1592 -82 ct 
1592 -88 l  1564 -88 l  p
1621 -100 m  1621 -1 l  1592 -1 l  1592 -27 l  1586 -16 1578 -9 1568 -4 ct 
1558 1 1546 4 1532 4 ct 1515 4 1500 -1 1490 -11 ct 1479 -21 1474 -34 1474 -51 ct 
1474 -71 1481 -85 1494 -95 ct 1507 -105 1526 -110 1552 -110 ct 1592 -110 l  1592 -113 l 
1592 -126 1588 -136 1579 -143 ct 1571 -150 1559 -154 1543 -154 ct 1533 -154 1523 -153 1514 -150 ct 
1505 -148 1496 -145 1487 -140 ct 1487 -166 l  1497 -170 1507 -173 1517 -175 ct 
1527 -177 1537 -178 1546 -178 ct 1571 -178 1590 -172 1602 -159 ct 1615 -146 1621 -126 1621 -100 ct 
p ef
1815 -105 m  1815 0 l  1786 0 l  1786 -104 l  1786 -120 1783 -133 1776 -141 ct 
1770 -149 1760 -153 1747 -153 ct 1732 -153 1720 -148 1711 -138 ct 1702 -129 1698 -115 1698 -98 ct 
1698 0 l  1669 0 l  1669 -174 l  1698 -174 l  1698 -147 l  1704 -157 1712 -165 1722 -170 ct 
1731 -175 1742 -178 1754 -178 ct 1774 -178 1789 -172 1799 -159 ct 1809 -147 1815 -129 1815 -105 ct 
p ef
1993 -170 m  1993 -143 l  1985 -147 1976 -150 1968 -152 ct 1959 -154 1950 -155 1941 -155 ct 
1926 -155 1916 -153 1909 -148 ct 1902 -144 1898 -138 1898 -129 ct 1898 -122 1901 -117 1906 -113 ct 
1911 -109 1921 -106 1936 -102 ct 1946 -100 l  1966 -96 1981 -90 1989 -82 ct 
1998 -74 2002 -63 2002 -49 ct 2002 -32 1996 -20 1983 -10 ct 1970 -1 1953 4 1930 4 ct 
1921 4 1911 3 1901 1 ct 1891 -1 1880 -3 1869 -7 ct 1869 -36 l  1880 -31 1890 -27 1900 -24 ct 
1911 -21 1921 -20 1931 -20 ct 1944 -20 1955 -22 1962 -27 ct 1969 -31 1973 -38 1973 -46 ct 
1973 -54 1970 -60 1965 -64 ct 1960 -68 1948 -72 1931 -76 ct 1921 -79 l  1903 -82 1890 -88 1882 -96 ct 
1874 -103 1870 -114 1870 -128 ct 1870 -144 1876 -157 1888 -166 ct 1899 -174 1916 -179 1937 -179 ct 
1948 -179 1958 -178 1967 -177 ct 1976 -175 1985 -173 1993 -170 ct p ef
2041 -173 m  2070 -173 l  2070 1 l  2041 1 l  2041 -173 l  p
2041 -241 m  2070 -241 l  2070 -205 l  2041 -205 l  2041 -241 l  p ef
2148 -223 m  2148 -174 l  2207 -174 l  2207 -152 l  2148 -152 l  2148 -57 l 
2148 -43 2150 -34 2154 -30 ct 2158 -26 2166 -24 2178 -24 ct 2207 -24 l  2207 0 l 
2178 0 l  2156 0 2140 -4 2132 -12 ct 2124 -21 2120 -36 2120 -57 ct 2120 -152 l 
2099 -152 l  2099 -174 l  2120 -174 l  2120 -223 l  2148 -223 l  p ef
2320 -154 m  2305 -154 2293 -148 2284 -136 ct 2275 -124 2271 -108 2271 -87 ct 
2271 -66 2275 -50 2284 -38 ct 2293 -26 2305 -20 2320 -20 ct 2336 -20 2348 -26 2357 -38 ct 
2365 -50 2370 -66 2370 -87 ct 2370 -108 2365 -124 2357 -136 ct 2348 -148 2336 -154 2320 -154 ct 
p
2320 -178 m  2345 -178 2365 -170 2379 -154 ct 2393 -138 2400 -116 2400 -87 ct 
2400 -59 2393 -36 2379 -20 ct 2365 -4 2345 4 2320 4 ct 2295 4 2276 -4 2262 -20 ct 
2248 -36 2241 -59 2241 -87 ct 2241 -116 2248 -138 2262 -154 ct 2276 -170 2295 -178 2320 -178 ct 
p ef
2539 -147 m  2536 -149 2532 -150 2528 -151 ct 2524 -152 2520 -153 2516 -153 ct 
2500 -153 2487 -147 2479 -137 ct 2470 -126 2466 -111 2466 -92 ct 2466 0 l  2437 0 l 
2437 -174 l  2466 -174 l  2466 -147 l  2472 -157 2479 -165 2489 -170 ct 2499 -175 2510 -178 2524 -178 ct 
2526 -178 2528 -178 2531 -178 ct 2533 -177 2536 -177 2539 -176 ct 2539 -147 l 
p ef
2570 -173 m  2599 -173 l  2599 1 l  2570 1 l  2570 -173 l  p
2570 -241 m  2599 -241 l  2599 -205 l  2570 -205 l  2570 -241 l  p ef
2716 -154 m  2701 -154 2689 -148 2680 -136 ct 2671 -124 2667 -108 2667 -87 ct 
2667 -66 2671 -50 2680 -38 ct 2689 -26 2701 -20 2716 -20 ct 2732 -20 2744 -26 2753 -38 ct 
2761 -50 2766 -66 2766 -87 ct 2766 -108 2761 -124 2753 -136 ct 2744 -148 2732 -154 2716 -154 ct 
p
2716 -178 m  2741 -178 2761 -170 2775 -154 ct 2789 -138 2796 -116 2796 -87 ct 
2796 -59 2789 -36 2775 -20 ct 2761 -4 2741 4 2716 4 ct 2691 4 2672 -4 2658 -20 ct 
2644 -36 2637 -59 2637 -87 ct 2637 -116 2644 -138 2658 -154 ct 2672 -170 2691 -178 2716 -178 ct 
p ef
3041 -147 m  3038 -149 3034 -150 3030 -151 ct 3026 -152 3022 -153 3018 -153 ct 
3002 -153 2989 -147 2981 -137 ct 2972 -126 2968 -111 2968 -92 ct 2968 0 l  2939 0 l 
2939 -174 l  2968 -174 l  2968 -147 l  2974 -157 2981 -165 2991 -170 ct 3001 -175 3012 -178 3026 -178 ct 
3028 -178 3030 -178 3033 -178 ct 3035 -177 3038 -177 3041 -176 ct 3041 -147 l 
p ef
3073 -173 m  3102 -173 l  3102 1 l  3073 1 l  3073 -173 l  p
3073 -241 m  3102 -241 l  3102 -205 l  3073 -205 l  3073 -241 l  p ef
3263 -170 m  3263 -143 l  3255 -147 3246 -150 3238 -152 ct 3229 -154 3220 -155 3211 -155 ct 
3196 -155 3186 -153 3179 -148 ct 3172 -144 3168 -138 3168 -129 ct 3168 -122 3171 -117 3176 -113 ct 
3181 -109 3191 -106 3206 -102 ct 3216 -100 l  3236 -96 3251 -90 3259 -82 ct 
3268 -74 3272 -63 3272 -49 ct 3272 -32 3266 -20 3253 -10 ct 3240 -1 3223 4 3200 4 ct 
3191 4 3181 3 3171 1 ct 3161 -1 3150 -3 3139 -7 ct 3139 -36 l  3150 -31 3160 -27 3170 -24 ct 
3181 -21 3191 -20 3201 -20 ct 3214 -20 3225 -22 3232 -27 ct 3239 -31 3243 -38 3243 -46 ct 
3243 -54 3240 -60 3235 -64 ct 3230 -68 3218 -72 3201 -76 ct 3191 -79 l  3173 -82 3160 -88 3152 -96 ct 
3144 -103 3140 -114 3140 -128 ct 3140 -144 3146 -157 3158 -166 ct 3169 -174 3186 -179 3207 -179 ct 
3218 -179 3228 -178 3237 -177 ct 3246 -175 3255 -173 3263 -170 ct p ef
3436 -167 m  3436 -141 l  3428 -145 3420 -148 3412 -151 ct 3404 -153 3395 -154 3387 -154 ct 
3369 -154 3354 -148 3344 -136 ct 3334 -125 3329 -108 3329 -87 ct 3329 -66 3334 -50 3344 -38 ct 
3354 -26 3369 -20 3387 -20 ct 3395 -20 3404 -21 3412 -24 ct 3420 -26 3428 -29 3436 -34 ct 
3436 -7 l  3428 -3 3420 -1 3411 1 ct 3403 3 3394 4 3384 4 ct 3358 4 3337 -4 3322 -21 ct 
3306 -37 3299 -59 3299 -87 ct 3299 -115 3306 -138 3322 -154 ct 3337 -170 3359 -178 3386 -178 ct 
3395 -178 3403 -177 3412 -175 ct 3420 -174 3428 -171 3436 -167 ct p ef
3575 -88 m  3552 -88 3536 -85 3527 -80 ct 3518 -75 3514 -66 3514 -53 ct 3514 -43 3517 -35 3524 -29 ct 
3530 -23 3539 -20 3551 -20 ct 3567 -20 3579 -26 3589 -37 ct 3599 -48 3603 -63 3603 -82 ct 
3603 -88 l  3575 -88 l  p
3632 -100 m  3632 -1 l  3603 -1 l  3603 -27 l  3597 -16 3589 -9 3579 -4 ct 
3569 1 3557 4 3543 4 ct 3526 4 3511 -1 3501 -11 ct 3490 -21 3485 -34 3485 -51 ct 
3485 -71 3492 -85 3505 -95 ct 3518 -105 3537 -110 3563 -110 ct 3603 -110 l  3603 -113 l 
3603 -126 3599 -136 3590 -143 ct 3582 -150 3570 -154 3554 -154 ct 3544 -154 3534 -153 3525 -150 ct 
3516 -148 3507 -145 3498 -140 ct 3498 -166 l  3508 -170 3518 -173 3528 -175 ct 
3538 -177 3548 -178 3557 -178 ct 3582 -178 3601 -172 3613 -159 ct 3626 -146 3632 -126 3632 -100 ct 
p ef
3681 -241 m  3710 -241 l  3710 0 l  3681 0 l  3681 -241 l  p ef
3840 -88 m  3817 -88 3801 -85 3792 -80 ct 3783 -75 3779 -66 3779 -53 ct 3779 -43 3782 -35 3789 -29 ct 
3795 -23 3804 -20 3816 -20 ct 3832 -20 3844 -26 3854 -37 ct 3864 -48 3868 -63 3868 -82 ct 
3868 -88 l  3840 -88 l  p
3897 -100 m  3897 -1 l  3868 -1 l  3868 -27 l  3862 -16 3854 -9 3844 -4 ct 
3834 1 3822 4 3808 4 ct 3791 4 3776 -1 3766 -11 ct 3755 -21 3750 -34 3750 -51 ct 
3750 -71 3757 -85 3770 -95 ct 3783 -105 3802 -110 3828 -110 ct 3868 -110 l  3868 -113 l 
3868 -126 3864 -136 3855 -143 ct 3847 -150 3835 -154 3819 -154 ct 3809 -154 3799 -153 3790 -150 ct 
3781 -148 3772 -145 3763 -140 ct 3763 -166 l  3773 -170 3783 -173 3793 -175 ct 
3803 -177 3813 -178 3822 -178 ct 3847 -178 3866 -172 3878 -159 ct 3891 -146 3897 -126 3897 -100 ct 
p ef
3974 -223 m  3974 -174 l  4033 -174 l  4033 -152 l  3974 -152 l  3974 -57 l 
3974 -43 3976 -34 3980 -30 ct 3984 -26 3992 -24 4004 -24 ct 4033 -24 l  4033 0 l 
4004 0 l  3982 0 3966 -4 3958 -12 ct 3950 -21 3946 -36 3946 -57 ct 3946 -152 l 
3925 -152 l  3925 -174 l  3946 -174 l  3946 -223 l  3974 -223 l  p ef
4145 -154 m  4130 -154 4118 -148 4109 -136 ct 4100 -124 4096 -108 4096 -87 ct 
4096 -66 4100 -50 4109 -38 ct 4118 -26 4130 -20 4145 -20 ct 4161 -20 4173 -26 4182 -38 ct 
4190 -50 4195 -66 4195 -87 ct 4195 -108 4190 -124 4182 -136 ct 4173 -148 4161 -154 4145 -154 ct 
p
4145 -178 m  4170 -178 4190 -170 4204 -154 ct 4218 -138 4225 -116 4225 -87 ct 
4225 -59 4218 -36 4204 -20 ct 4190 -4 4170 4 4145 4 ct 4120 4 4101 -4 4087 -20 ct 
4073 -36 4066 -59 4066 -87 ct 4066 -116 4073 -138 4087 -154 ct 4101 -170 4120 -178 4145 -178 ct 
p ef
4438 -241 m  4424 -217 4413 -194 4407 -170 ct 4400 -147 4397 -124 4397 -100 ct 
4397 -76 4400 -52 4407 -29 ct 4414 -5 4424 18 4438 42 ct 4413 42 l  4397 18 4386 -6 4378 -30 ct 
4370 -53 4366 -76 4366 -100 ct 4366 -123 4370 -146 4378 -169 ct 4385 -193 4397 -217 4413 -241 ct 
4438 -241 l  p ef
4529 -223 m  4529 -174 l  4588 -174 l  4588 -152 l  4529 -152 l  4529 -57 l 
4529 -43 4531 -34 4535 -30 ct 4539 -26 4547 -24 4559 -24 ct 4588 -24 l  4588 0 l 
4559 0 l  4537 0 4521 -4 4513 -12 ct 4505 -21 4501 -36 4501 -57 ct 4501 -152 l 
4480 -152 l  4480 -174 l  4501 -174 l  4501 -223 l  4529 -223 l  p ef
4685 -232 m  4711 -232 l  4630 29 l  4604 29 l  4685 -232 l  p ef
4825 -32 m  4829 -27 4836 -24 4848 -24 ct 4861 -24 l  4861 0 l  4844 0 l 
4826 0 4812 -5 4803 -15 ct 4795 -25 4791 -41 4791 -63 ct 4791 -145 l  4726 -145 l 
4726 -174 l  4886 -174 l  4886 -145 l  4820 -145 l  4820 -61 l  4820 -46 4822 -36 4825 -32 ct 
p ef
4920 -241 m  4945 -241 l  4961 -217 4972 -193 4980 -169 ct 4988 -146 4992 -123 4992 -100 ct 
4992 -76 4988 -53 4980 -30 ct 4972 -6 4961 18 4945 42 ct 4920 42 l  4934 18 4945 -5 4951 -29 ct 
4958 -52 4961 -76 4961 -100 ct 4961 -124 4958 -147 4951 -170 ct 4945 -194 4934 -217 4920 -241 ct 
p ef
pom
0 9001 t 
pom
count op_count sub {pop} repeat countdictstack dict_count sub {end} repeat b4_inc_state restore
%%PageTrailer
%%Trailer
%%EOF
