%!PS-Adobe-3.0 EPSF-3.0 
%%BoundingBox: 0 0 425 369
%%Pages: 0
%%Creator: LibreOffice 4.1
%%Title: none
%%CreationDate: none
%%LanguageLevel: 2
%%EndComments
%%BeginProlog
%%BeginResource: procset SDRes-Prolog 1.0 0
/b4_inc_state save def
/dict_count countdictstack def
/op_count count 1 sub def
userdict begin
0 setgray 0 setlinecap 1 setlinewidth 0 setlinejoin 10 setmiterlimit[] 0 setdash newpath
/languagelevel where {pop languagelevel 1 ne {false setstrokeadjust false setoverprint} if} if
/bdef {bind def} bind def
/c {setrgbcolor} bdef
/l {neg lineto} bdef
/rl {neg rlineto} bdef
/lc {setlinecap} bdef
/lj {setlinejoin} bdef
/lw {setlinewidth} bdef
/ml {setmiterlimit} bdef
/ld {setdash} bdef
/m {neg moveto} bdef
/ct {6 2 roll neg 6 2 roll neg 6 2 roll neg curveto} bdef
/r {rotate} bdef
/t {neg translate} bdef
/s {scale} bdef
/sw {show} bdef
/gs {gsave} bdef
/gr {grestore} bdef
/f {findfont dup length dict begin
{1 index /FID ne {def} {pop pop} ifelse} forall /Encoding ISOLatin1Encoding def
currentdict end /NFont exch definefont pop /NFont findfont} bdef
/p {closepath} bdef
/sf {scalefont setfont} bdef
/ef {eofill}bdef
/pc {closepath stroke}bdef
/ps {stroke}bdef
/pum {matrix currentmatrix}bdef
/pom {setmatrix}bdef
/bs {/aString exch def /nXOfs exch def /nWidth exch def currentpoint nXOfs 0 rmoveto pum nWidth aString stringwidth pop div 1 scale aString show pom moveto} bdef
%%EndResource
%%EndProlog
%%BeginSetup
%%EndSetup
%%Page: 1 1
%%BeginPageSetup
%%EndPageSetup
pum
0.02833 0.02838 s 
0 -13001 t
/tm matrix currentmatrix def
tm setmatrix
7500 6500 t 
1 1 s 
29.998 lw 1 lj 0.703 0.703 0.703 c 878 4532 m  -5144 4532 l  -5144 -5325 l 
6900 -5325 l  6900 4532 l  878 4532 l  pc
-5144 -5326 m  -5144 4531 l  ps
-1680 -5326 m  -1680 4531 l  ps
1783 -5326 m  1783 4531 l  ps
5247 -5326 m  5247 4531 l  ps
19.99866 lw -4102 -5326 m  -4102 4531 l  ps
-3492 -5326 m  -3492 4531 l  ps
-3059 -5326 m  -3059 4531 l  ps
-2723 -5326 m  -2723 4531 l  ps
-2449 -5326 m  -2449 4531 l  ps
-2217 -5326 m  -2217 4531 l  ps
-2016 -5326 m  -2016 4531 l  ps
-1839 -5326 m  -1839 4531 l  ps
-638 -5326 m  -638 4531 l  ps
-28 -5326 m  -28 4531 l  ps
404 -5326 m  404 4531 l  ps
740 -5326 m  740 4531 l  ps
1014 -5326 m  1014 4531 l  ps
1246 -5326 m  1246 4531 l  ps
1447 -5326 m  1447 4531 l  ps
1624 -5326 m  1624 4531 l  ps
2825 -5326 m  2825 4531 l  ps
3435 -5326 m  3435 4531 l  ps
3868 -5326 m  3868 4531 l  ps
4204 -5326 m  4204 4531 l  ps
4478 -5326 m  4478 4531 l  ps
4710 -5326 m  4710 4531 l  ps
4911 -5326 m  4911 4531 l  ps
5088 -5326 m  5088 4531 l  ps
6290 -5326 m  6290 4531 l  ps
6899 -5326 m  6899 4531 l  ps
29.998 lw 6899 4305 m  -5144 4305 l  ps
6899 -623 m  -5144 -623 l  ps
19.99866 lw 6899 4531 m  -5144 4531 l  ps
6899 2821 m  -5144 2821 l  ps
6899 1953 m  -5144 1953 l  ps
6899 1337 m  -5144 1337 l  ps
6899 860 m  -5144 860 l  ps
6899 469 m  -5144 469 l  ps
6899 139 m  -5144 139 l  ps
6899 -145 m  -5144 -145 l  ps
6899 -397 m  -5144 -397 l  ps
6899 -2107 m  -5144 -2107 l  ps
6899 -2975 m  -5144 -2975 l  ps
6899 -3591 m  -5144 -3591 l  ps
6899 -4068 m  -5144 -4068 l  ps
6899 -4459 m  -5144 -4459 l  ps
6899 -4789 m  -5144 -4789 l  ps
6899 -5074 m  -5144 -5074 l  ps
6899 -5326 m  -5144 -5326 l  ps
29.998 lw -5144 4681 m  -5144 4531 l  ps
-5144 4681 m  -5144 4531 l  ps
-1680 4681 m  -1680 4531 l  ps
-1680 4681 m  -1680 4531 l  ps
1783 4681 m  1783 4531 l  ps
1783 4681 m  1783 4531 l  ps
5247 4681 m  5247 4531 l  ps
5247 4681 m  5247 4531 l  ps
-5144 4531 m  6899 4531 l  ps
-5294 4305 m  -5144 4305 l  ps
-5294 4305 m  -5144 4305 l  ps
-5294 -623 m  -5144 -623 l  ps
-5294 -623 m  -5144 -623 l  ps
-5144 4531 m  -5144 -5326 l  ps
0.343 0.617 0.113 c -4472 -4488 m  -4347 -4238 l  -4222 -4488 l  -4472 -4488 l 
p ef
0 lw -4472 -4488 m  -4347 -4238 l  -4222 -4488 l  -4472 -4488 l  pc
-3462 -3515 m  -3337 -3265 l  -3212 -3515 l  -3462 -3515 l  p ef
-3462 -3515 m  -3337 -3265 l  -3212 -3515 l  -3462 -3515 l  pc
-2852 -3017 m  -2727 -2767 l  -2602 -3017 l  -2852 -3017 l  p ef
-2852 -3017 m  -2727 -2767 l  -2602 -3017 l  -2852 -3017 l  pc
-2069 -2435 m  -1944 -2185 l  -1819 -2435 l  -2069 -2435 l  p ef
-2069 -2435 m  -1944 -2185 l  -1819 -2435 l  -2069 -2435 l  pc
-1795 -2242 m  -1670 -1992 l  -1545 -2242 l  -1795 -2242 l  p ef
-1795 -2242 m  -1670 -1992 l  -1545 -2242 l  -1795 -2242 l  pc
-1704 -2187 m  -1579 -1937 l  -1454 -2187 l  -1704 -2187 l  p ef
-1704 -2187 m  -1579 -1937 l  -1454 -2187 l  -1704 -2187 l  pc
-1489 -2111 m  -1364 -1861 l  -1239 -2111 l  -1489 -2111 l  p ef
-1489 -2111 m  -1364 -1861 l  -1239 -2111 l  -1489 -2111 l  pc
-1372 -1832 m  -1247 -1582 l  -1122 -1832 l  -1372 -1832 l  p ef
-1372 -1832 m  -1247 -1582 l  -1122 -1832 l  -1372 -1832 l  pc
-1213 -1820 m  -1088 -1570 l  -963 -1820 l  -1213 -1820 l  p ef
-1213 -1820 m  -1088 -1570 l  -963 -1820 l  -1213 -1820 l  pc
-914 -1773 m  -789 -1523 l  -664 -1773 l  -914 -1773 l  p ef
-914 -1773 m  -789 -1523 l  -664 -1773 l  -914 -1773 l  pc
-494 -1227 m  -369 -977 l  -244 -1227 l  -494 -1227 l  p ef
-494 -1227 m  -369 -977 l  -244 -1227 l  -494 -1227 l  pc
24 -901 m  149 -651 l  274 -901 l  24 -901 l  p ef
24 -901 m  149 -651 l  274 -901 l  24 -901 l  pc
412 -694 m  537 -444 l  662 -694 l  412 -694 l  p ef
412 -694 m  537 -444 l  662 -694 l  412 -694 l  pc
661 -359 m  786 -109 l  911 -359 l  661 -359 l  p ef
661 -359 m  786 -109 l  911 -359 l  661 -359 l  pc
1464 281 m  1589 531 l  1714 281 l  1464 281 l  p ef
1464 281 m  1589 531 l  1714 281 l  1464 281 l  pc
1799 488 m  1924 738 l  2049 488 l  1799 488 l  p ef
1799 488 m  1924 738 l  2049 488 l  1799 488 l  pc
2071 618 m  2196 868 l  2321 618 l  2071 618 l  p ef
2071 618 m  2196 868 l  2321 618 l  2071 618 l  pc
3148 1624 m  3273 1874 l  3398 1624 l  3148 1624 l  p ef
3148 1624 m  3273 1874 l  3398 1624 l  3148 1624 l  pc
4091 2111 m  4216 2361 l  4341 2111 l  4091 2111 l  p ef
4091 2111 m  4216 2361 l  4341 2111 l  4091 2111 l  pc
5796 3160 m  5921 3410 l  6046 3160 l  5796 3160 l  p ef
5796 3160 m  5921 3410 l  6046 3160 l  5796 3160 l  pc
1.000 0.261 0.058 c -627 -997 m  -502 -872 l  -377 -997 l  -502 -1122 l 
-627 -997 l  p ef
-627 -997 m  -502 -872 l  -377 -997 l  -502 -1122 l  -627 -997 l  pc
-399 -1034 m  -274 -909 l  -149 -1034 l  -274 -1159 l  -399 -1034 l  p ef
-399 -1034 m  -274 -909 l  -149 -1034 l  -274 -1159 l  -399 -1034 l  pc
-184 -1560 m  -59 -1435 l  65 -1560 l  -59 -1685 l  -184 -1560 l  p ef
-184 -1560 m  -59 -1435 l  65 -1560 l  -59 -1685 l  -184 -1560 l  pc
-166 -675 m  -41 -550 l  83 -675 l  -41 -800 l  -166 -675 l  p ef
-166 -675 m  -41 -550 l  83 -675 l  -41 -800 l  -166 -675 l  pc
-124 -1152 m  0 -1027 l  125 -1152 l  0 -1277 l  -124 -1152 l  p ef
-124 -1152 m  0 -1027 l  125 -1152 l  0 -1277 l  -124 -1152 l  pc
522 -284 m  647 -159 l  772 -284 l  647 -409 l  522 -284 l  p ef
522 -284 m  647 -159 l  772 -284 l  647 -409 l  522 -284 l  pc
653 45 m  778 170 l  903 45 l  778 -79 l  653 45 l  p ef
653 45 m  778 170 l  903 45 l  778 -79 l  653 45 l  pc
674 45 m  799 170 l  924 45 l  799 -79 l  674 45 l  p ef
674 45 m  799 170 l  924 45 l  799 -79 l  674 45 l  pc
714 -403 m  839 -278 l  964 -403 l  839 -528 l  714 -403 l  p ef
714 -403 m  839 -278 l  964 -403 l  839 -528 l  714 -403 l  pc
855 -13 m  980 111 l  1105 -13 l  980 -138 l  855 -13 l  p ef
855 -13 m  980 111 l  1105 -13 l  980 -138 l  855 -13 l  pc
873 464 m  998 589 l  1123 464 l  998 339 l  873 464 l  p ef
873 464 m  998 589 l  1123 464 l  998 339 l  873 464 l  pc
921 583 m  1046 708 l  1171 583 l  1046 458 l  921 583 l  p ef
921 583 m  1046 708 l  1171 583 l  1046 458 l  921 583 l  pc
929 552 m  1054 677 l  1179 552 l  1054 427 l  929 552 l  p ef
929 552 m  1054 677 l  1179 552 l  1054 427 l  929 552 l  pc
975 -180 m  1100 -55 l  1225 -180 l  1100 -305 l  975 -180 l  p ef
975 -180 m  1100 -55 l  1225 -180 l  1100 -305 l  975 -180 l  pc
1339 583 m  1464 708 l  1589 583 l  1464 458 l  1339 583 l  p ef
1339 583 m  1464 708 l  1589 583 l  1464 458 l  1339 583 l  pc
1395 877 m  1520 1002 l  1645 877 l  1520 752 l  1395 877 l  p ef
1395 877 m  1520 1002 l  1645 877 l  1520 752 l  1395 877 l  pc
1404 774 m  1529 899 l  1654 774 l  1529 649 l  1404 774 l  p ef
1404 774 m  1529 899 l  1654 774 l  1529 649 l  1404 774 l  pc
1456 1178 m  1581 1303 l  1706 1178 l  1581 1053 l  1456 1178 l  p ef
1456 1178 m  1581 1303 l  1706 1178 l  1581 1053 l  1456 1178 l  pc
1460 464 m  1585 589 l  1710 464 l  1585 339 l  1460 464 l  p ef
1460 464 m  1585 589 l  1710 464 l  1585 339 l  1460 464 l  pc
1510 741 m  1635 866 l  1760 741 l  1635 616 l  1510 741 l  p ef
1510 741 m  1635 866 l  1760 741 l  1635 616 l  1510 741 l  pc
1528 1138 m  1653 1263 l  1778 1138 l  1653 1013 l  1528 1138 l  p ef
1528 1138 m  1653 1263 l  1778 1138 l  1653 1013 l  1528 1138 l  pc
2043 1303 m  2168 1428 l  2293 1303 l  2168 1178 l  2043 1303 l  p ef
2043 1303 m  2168 1428 l  2293 1303 l  2168 1178 l  2043 1303 l  pc
2043 1138 m  2168 1263 l  2293 1138 l  2168 1013 l  2043 1138 l  p ef
2043 1138 m  2168 1263 l  2293 1138 l  2168 1013 l  2043 1138 l  pc
2043 1060 m  2168 1185 l  2293 1060 l  2168 935 l  2043 1060 l  p ef
2043 1060 m  2168 1185 l  2293 1060 l  2168 935 l  2043 1060 l  pc
2043 1240 m  2168 1365 l  2293 1240 l  2168 1115 l  2043 1240 l  p ef
2043 1240 m  2168 1365 l  2293 1240 l  2168 1115 l  2043 1240 l  pc
2043 1198 m  2168 1323 l  2293 1198 l  2168 1073 l  2043 1198 l  p ef
2043 1198 m  2168 1323 l  2293 1198 l  2168 1073 l  2043 1198 l  pc
2043 1219 m  2168 1344 l  2293 1219 l  2168 1094 l  2043 1219 l  p ef
2043 1219 m  2168 1344 l  2293 1219 l  2168 1094 l  2043 1219 l  pc
2043 1346 m  2168 1471 l  2293 1346 l  2168 1221 l  2043 1346 l  p ef
2043 1346 m  2168 1471 l  2293 1346 l  2168 1221 l  2043 1346 l  pc
49.99666 lw 0.003 0.273 0.527 c -5144 -4875 m  6541 4531 l  ps
pum
-5607 5125 t
0.003 0.003 0.003 c 44 -29 m  101 -29 l  101 -226 l  39 -213 l  39 -245 l 
100 -258 l  135 -258 l  135 -29 l  192 -29 l  192 0 l  44 0 l  44 -29 l 
p ef
247 -258 m  409 -258 l  409 -229 l  281 -229 l  281 -152 l  404 -152 l 
404 -123 l  281 -123 l  281 -29 l  412 -29 l  412 0 l  247 0 l  247 -258 l 
p ef
585 -222 m  585 -125 l  681 -125 l  681 -96 l  585 -96 l  585 0 l  556 0 l 
556 -96 l  460 -96 l  460 -125 l  556 -125 l  556 -222 l  585 -222 l  p ef
831 -143 m  815 -143 803 -138 793 -127 ct 784 -116 780 -101 780 -83 ct 780 -64 784 -50 793 -39 ct 
803 -28 815 -23 831 -23 ct 846 -23 859 -28 868 -39 ct 877 -50 881 -64 881 -83 ct 
881 -101 877 -116 868 -127 ct 859 -138 846 -143 831 -143 ct p
900 -252 m  900 -220 l  891 -224 882 -228 873 -230 ct 864 -232 855 -233 847 -233 ct 
824 -233 806 -225 794 -210 ct 782 -194 775 -171 773 -140 ct 780 -150 789 -157 799 -163 ct 
809 -168 820 -171 833 -171 ct 858 -171 879 -163 894 -147 ct 909 -131 916 -110 916 -83 ct 
916 -56 909 -35 893 -19 ct 877 -3 856 5 831 5 ct 801 5 778 -6 762 -29 ct 747 -52 739 -85 739 -129 ct 
739 -169 748 -202 768 -226 ct 787 -250 813 -262 845 -262 ct 854 -262 863 -261 872 -260 ct 
881 -258 890 -255 900 -252 ct p ef
pom
pum
-2143 5125 t
44 -29 m  101 -29 l  101 -226 l  39 -213 l  39 -245 l  100 -258 l  135 -258 l 
135 -29 l  192 -29 l  192 0 l  44 0 l  44 -29 l  p ef
247 -258 m  409 -258 l  409 -229 l  281 -229 l  281 -152 l  404 -152 l 
404 -123 l  281 -123 l  281 -29 l  412 -29 l  412 0 l  247 0 l  247 -258 l 
p ef
585 -222 m  585 -125 l  681 -125 l  681 -96 l  585 -96 l  585 0 l  556 0 l 
556 -96 l  460 -96 l  460 -125 l  556 -125 l  556 -222 l  585 -222 l  p ef
743 -257 m  908 -257 l  908 -243 l  815 1 l  779 1 l  867 -228 l  743 -228 l 
743 -257 l  p ef
pom
pum
1321 5125 t
44 -29 m  101 -29 l  101 -226 l  39 -213 l  39 -245 l  100 -258 l  135 -258 l 
135 -29 l  192 -29 l  192 0 l  44 0 l  44 -29 l  p ef
247 -258 m  409 -258 l  409 -229 l  281 -229 l  281 -152 l  404 -152 l 
404 -123 l  281 -123 l  281 -29 l  412 -29 l  412 0 l  247 0 l  247 -258 l 
p ef
585 -222 m  585 -125 l  681 -125 l  681 -96 l  585 -96 l  585 0 l  556 0 l 
556 -96 l  460 -96 l  460 -125 l  556 -125 l  556 -222 l  585 -222 l  p ef
826 -123 m  810 -123 797 -118 787 -109 ct 778 -100 773 -88 773 -73 ct 773 -57 778 -45 787 -36 ct 
797 -27 810 -23 826 -23 ct 843 -23 856 -27 865 -36 ct 875 -45 880 -57 880 -73 ct 
880 -88 875 -100 865 -109 ct 856 -118 843 -123 826 -123 ct p
791 -137 m  776 -141 765 -148 756 -158 ct 748 -169 744 -181 744 -196 ct 744 -216 751 -233 766 -245 ct 
781 -257 801 -263 826 -263 ct 852 -263 872 -257 887 -245 ct 901 -233 908 -216 908 -196 ct 
908 -181 904 -169 896 -158 ct 888 -148 876 -141 861 -137 ct 878 -133 891 -126 900 -114 ct 
910 -103 914 -89 914 -73 ct 914 -48 907 -28 892 -15 ct 876 -2 855 5 826 5 ct 798 5 776 -2 761 -15 ct 
746 -28 738 -48 738 -73 ct 738 -89 743 -103 752 -114 ct 762 -126 775 -133 791 -137 ct 
p
779 -192 m  779 -179 783 -169 791 -161 ct 799 -154 811 -150 826 -150 ct 841 -150 853 -154 861 -161 ct 
870 -169 874 -179 874 -192 ct 874 -206 870 -216 861 -224 ct 853 -231 841 -235 826 -235 ct 
811 -235 799 -231 791 -224 ct 783 -216 779 -206 779 -192 ct p ef
pom
pum
4785 5125 t
44 -29 m  101 -29 l  101 -226 l  39 -213 l  39 -245 l  100 -258 l  135 -258 l 
135 -29 l  192 -29 l  192 0 l  44 0 l  44 -29 l  p ef
247 -258 m  409 -258 l  409 -229 l  281 -229 l  281 -152 l  404 -152 l 
404 -123 l  281 -123 l  281 -29 l  412 -29 l  412 0 l  247 0 l  247 -258 l 
p ef
585 -222 m  585 -125 l  681 -125 l  681 -96 l  585 -96 l  585 0 l  556 0 l 
556 -96 l  460 -96 l  460 -125 l  556 -125 l  556 -222 l  585 -222 l  p ef
753 -5 m  753 -37 l  762 -33 770 -30 779 -28 ct 788 -25 797 -24 806 -24 ct 829 -24 846 -32 858 -47 ct 
870 -63 877 -86 879 -118 ct 872 -108 864 -100 854 -95 ct 844 -90 832 -87 820 -87 ct 
794 -87 774 -95 759 -110 ct 744 -126 736 -148 736 -175 ct 736 -201 744 -223 760 -239 ct 
775 -255 796 -263 822 -263 ct 852 -263 875 -251 890 -228 ct 906 -205 914 -172 914 -129 ct 
914 -88 904 -56 885 -31 ct 866 -7 840 5 807 5 ct 799 5 790 4 781 2 ct 772 1 762 -2 753 -5 ct 
p
822 -114 m  838 -114 850 -120 859 -130 ct 868 -141 873 -156 873 -175 ct 873 -193 868 -208 859 -219 ct 
850 -230 838 -235 822 -235 ct 806 -235 794 -230 785 -219 ct 776 -208 771 -193 771 -175 ct 
771 -156 776 -141 785 -130 ct 794 -120 806 -114 822 -114 ct p ef
pom
pum
-6161 4425 t
143 -139 m  160 -135 173 -128 182 -117 ct 192 -105 196 -91 196 -75 ct 196 -49 188 -30 170 -16 ct 
153 -2 128 5 96 5 ct 85 5 74 4 62 2 ct 51 0 39 -4 27 -8 ct 27 -41 l  37 -36 47 -32 59 -29 ct 
70 -26 82 -24 95 -24 ct 116 -24 133 -29 145 -37 ct 156 -46 162 -58 162 -75 ct 162 -90 156 -102 146 -110 ct 
135 -119 120 -123 101 -123 ct 71 -123 l  71 -152 l  103 -152 l  120 -152 133 -155 142 -162 ct 
151 -169 156 -179 156 -192 ct 156 -205 151 -215 142 -222 ct 132 -229 119 -233 101 -233 ct 
92 -233 82 -232 71 -230 ct 60 -228 48 -225 35 -220 ct 35 -251 l  48 -255 60 -258 72 -260 ct 
83 -261 94 -262 104 -262 ct 131 -262 152 -256 167 -244 ct 183 -232 190 -216 190 -196 ct 
190 -181 186 -169 178 -159 ct 170 -150 158 -143 143 -139 ct p ef
247 -258 m  409 -258 l  409 -229 l  281 -229 l  281 -152 l  404 -152 l 
404 -123 l  281 -123 l  281 -29 l  412 -29 l  412 0 l  247 0 l  247 -258 l 
p ef
440 -111 m  533 -111 l  533 -83 l  440 -83 l  440 -111 l  p ef
689 -228 m  602 -90 l  689 -90 l  689 -228 l  p
680 -258 m  724 -258 l  724 -90 l  761 -90 l  761 -61 l  724 -61 l  724 0 l 
689 0 l  689 -61 l  573 -61 l  573 -95 l  680 -258 l  p ef
pom
pum
-6161 -504 t
143 -139 m  160 -135 173 -128 182 -117 ct 192 -105 196 -91 196 -75 ct 196 -49 188 -30 170 -16 ct 
153 -2 128 5 96 5 ct 85 5 74 4 62 2 ct 51 0 39 -4 27 -8 ct 27 -41 l  37 -36 47 -32 59 -29 ct 
70 -26 82 -24 95 -24 ct 116 -24 133 -29 145 -37 ct 156 -46 162 -58 162 -75 ct 162 -90 156 -102 146 -110 ct 
135 -119 120 -123 101 -123 ct 71 -123 l  71 -152 l  103 -152 l  120 -152 133 -155 142 -162 ct 
151 -169 156 -179 156 -192 ct 156 -205 151 -215 142 -222 ct 132 -229 119 -233 101 -233 ct 
92 -233 82 -232 71 -230 ct 60 -228 48 -225 35 -220 ct 35 -251 l  48 -255 60 -258 72 -260 ct 
83 -261 94 -262 104 -262 ct 131 -262 152 -256 167 -244 ct 183 -232 190 -216 190 -196 ct 
190 -181 186 -169 178 -159 ct 170 -150 158 -143 143 -139 ct p ef
247 -258 m  409 -258 l  409 -229 l  281 -229 l  281 -152 l  404 -152 l 
404 -123 l  281 -123 l  281 -29 l  412 -29 l  412 0 l  247 0 l  247 -258 l 
p ef
440 -111 m  533 -111 l  533 -83 l  440 -83 l  440 -111 l  p ef
699 -139 m  716 -135 729 -128 738 -117 ct 748 -105 752 -91 752 -75 ct 752 -49 744 -30 726 -16 ct 
709 -2 684 5 652 5 ct 641 5 630 4 618 2 ct 607 0 595 -4 583 -8 ct 583 -41 l  593 -36 603 -32 615 -29 ct 
626 -26 638 -24 651 -24 ct 672 -24 689 -29 701 -37 ct 712 -46 718 -58 718 -75 ct 
718 -90 712 -102 702 -110 ct 691 -119 676 -123 657 -123 ct 627 -123 l  627 -152 l 
659 -152 l  676 -152 689 -155 698 -162 ct 707 -169 712 -179 712 -192 ct 712 -205 707 -215 698 -222 ct 
688 -229 675 -233 657 -233 ct 648 -233 638 -232 627 -230 ct 616 -228 604 -225 591 -220 ct 
591 -251 l  604 -255 616 -258 628 -260 ct 639 -261 650 -262 660 -262 ct 687 -262 708 -256 723 -244 ct 
739 -232 746 -216 746 -196 ct 746 -181 742 -169 734 -159 ct 726 -150 714 -143 699 -139 ct 
p ef
pom
pum
2265 -2538 t
131 -269 m  131 -243 l  101 -243 l  89 -243 81 -240 77 -236 ct 73 -231 70 -223 70 -211 ct 
70 -194 l  123 -194 l  123 -169 l  70 -169 l  70 -1 l  38 -1 l  38 -169 l 
8 -169 l  8 -194 l  38 -194 l  38 -207 l  38 -229 43 -244 53 -254 ct 63 -264 79 -269 101 -269 ct 
131 -269 l  p ef
241 -269 m  226 -243 215 -216 207 -190 ct 200 -165 196 -138 196 -112 ct 196 -85 200 -59 207 -33 ct 
215 -7 226 19 241 46 ct 214 46 l  197 19 184 -8 175 -34 ct 167 -60 162 -86 162 -112 ct 
162 -137 167 -163 175 -189 ct 184 -215 197 -242 214 -269 ct 241 -269 l  p ef
459 -193 m  389 -99 l  462 0 l  425 0 l  369 -76 l  313 0 l  275 0 l  350 -101 l 
282 -193 l  319 -193 l  370 -124 l  421 -193 l  459 -193 l  p ef
504 -269 m  532 -269 l  549 -242 562 -215 571 -189 ct 579 -163 583 -137 583 -112 ct 
583 -86 579 -60 571 -34 ct 562 -8 549 19 532 46 ct 504 46 l  520 19 531 -7 538 -33 ct 
546 -59 550 -85 550 -112 ct 550 -138 546 -165 538 -190 ct 531 -216 520 -243 504 -269 ct 
p ef
751 -161 m  972 -161 l  972 -132 l  751 -132 l  751 -161 l  p
751 -90 m  972 -90 l  972 -61 l  751 -61 l  751 -90 l  p ef
1228 -143 m  1212 -143 1200 -138 1190 -127 ct 1181 -116 1177 -101 1177 -83 ct 
1177 -64 1181 -50 1190 -39 ct 1200 -28 1212 -23 1228 -23 ct 1243 -23 1256 -28 1265 -39 ct 
1274 -50 1278 -64 1278 -83 ct 1278 -101 1274 -116 1265 -127 ct 1256 -138 1243 -143 1228 -143 ct 
p
1297 -252 m  1297 -220 l  1288 -224 1279 -228 1270 -230 ct 1261 -232 1252 -233 1244 -233 ct 
1221 -233 1203 -225 1191 -210 ct 1179 -194 1172 -171 1170 -140 ct 1177 -150 1186 -157 1196 -163 ct 
1206 -168 1217 -171 1230 -171 ct 1255 -171 1276 -163 1291 -147 ct 1306 -131 1313 -110 1313 -83 ct 
1313 -56 1306 -35 1290 -19 ct 1274 -3 1253 5 1228 5 ct 1198 5 1175 -6 1159 -29 ct 
1144 -52 1136 -85 1136 -129 ct 1136 -169 1145 -202 1165 -226 ct 1184 -250 1210 -262 1242 -262 ct 
1251 -262 1260 -261 1269 -260 ct 1278 -258 1287 -255 1297 -252 ct p ef
1435 -235 m  1417 -235 1404 -226 1395 -208 ct 1386 -191 1381 -164 1381 -129 ct 
1381 -93 1386 -67 1395 -49 ct 1404 -31 1417 -23 1435 -23 ct 1453 -23 1467 -31 1476 -49 ct 
1485 -67 1489 -93 1489 -129 ct 1489 -164 1485 -191 1476 -208 ct 1467 -226 1453 -235 1435 -235 ct 
p
1435 -263 m  1464 -263 1486 -251 1501 -228 ct 1517 -205 1524 -172 1524 -129 ct 
1524 -85 1517 -52 1501 -29 ct 1486 -6 1464 5 1435 5 ct 1406 5 1384 -6 1369 -29 ct 
1354 -52 1346 -85 1346 -129 ct 1346 -172 1354 -205 1369 -228 ct 1384 -251 1406 -263 1435 -263 ct 
p ef
1576 -44 m  1613 -44 l  1613 -14 l  1584 41 l  1562 41 l  1576 -14 l  1576 -44 l 
p ef
1708 -29 m  1829 -29 l  1829 0 l  1666 0 l  1666 -29 l  1679 -43 1697 -61 1720 -84 ct 
1743 -108 1757 -122 1763 -129 ct 1774 -142 1782 -152 1786 -161 ct 1791 -170 1793 -178 1793 -187 ct 
1793 -200 1788 -211 1779 -220 ct 1769 -229 1756 -233 1741 -233 ct 1730 -233 1719 -231 1706 -227 ct 
1694 -224 1681 -218 1668 -210 ct 1668 -245 l  1682 -251 1695 -255 1707 -258 ct 
1719 -261 1730 -262 1740 -262 ct 1767 -262 1788 -256 1804 -242 ct 1820 -229 1828 -211 1828 -189 ct 
1828 -178 1826 -168 1822 -159 ct 1818 -149 1811 -138 1800 -125 ct 1797 -122 1788 -112 1773 -96 ct 
1758 -80 1736 -58 1708 -29 ct p ef
1985 -228 m  1898 -90 l  1985 -90 l  1985 -228 l  p
1976 -258 m  2020 -258 l  2020 -90 l  2057 -90 l  2057 -61 l  2020 -61 l 
2020 0 l  1985 0 l  1985 -61 l  1869 -61 l  1869 -95 l  1976 -258 l  p ef
2364 -193 m  2294 -99 l  2367 0 l  2330 0 l  2274 -76 l  2218 0 l  2180 0 l 
2255 -101 l  2187 -193 l  2224 -193 l  2275 -124 l  2326 -193 l  2364 -193 l 
p ef
2546 -258 m  2639 -162 l  2605 -162 l  2529 -230 l  2453 -162 l  2418 -162 l 
2512 -258 l  2546 -258 l  p ef
2689 -111 m  2782 -111 l  2782 -83 l  2689 -83 l  2689 -111 l  p ef
2917 -235 m  2899 -235 2886 -226 2877 -208 ct 2868 -191 2863 -164 2863 -129 ct 
2863 -93 2868 -67 2877 -49 ct 2886 -31 2899 -23 2917 -23 ct 2935 -23 2949 -31 2958 -49 ct 
2967 -67 2971 -93 2971 -129 ct 2971 -164 2967 -191 2958 -208 ct 2949 -226 2935 -235 2917 -235 ct 
p
2917 -263 m  2946 -263 2968 -251 2983 -228 ct 2999 -205 3006 -172 3006 -129 ct 
3006 -85 2999 -52 2983 -29 ct 2968 -6 2946 5 2917 5 ct 2888 5 2866 -6 2851 -29 ct 
2836 -52 2828 -85 2828 -129 ct 2828 -172 2836 -205 2851 -228 ct 2866 -251 2888 -263 2917 -263 ct 
p ef
3057 -44 m  3094 -44 l  3094 -14 l  3065 41 l  3043 41 l  3057 -14 l  3057 -44 l 
p ef
3160 -258 m  3297 -258 l  3297 -229 l  3192 -229 l  3192 -165 l  3197 -167 3202 -168 3207 -169 ct 
3212 -170 3217 -170 3222 -170 ct 3251 -170 3274 -162 3291 -147 ct 3307 -131 3316 -110 3316 -83 ct 
3316 -55 3307 -33 3290 -18 ct 3273 -3 3248 5 3217 5 ct 3206 5 3195 4 3184 2 ct 
3173 0 3161 -2 3149 -6 ct 3149 -41 l  3160 -35 3170 -31 3181 -28 ct 3192 -26 3204 -24 3216 -24 ct 
3236 -24 3252 -30 3264 -40 ct 3275 -51 3281 -65 3281 -83 ct 3281 -101 3275 -115 3264 -125 ct 
3252 -136 3236 -141 3216 -141 ct 3207 -141 3198 -140 3188 -138 ct 3179 -136 3170 -133 3160 -128 ct 
3160 -258 l  p ef
3363 -257 m  3528 -257 l  3528 -243 l  3435 1 l  3399 1 l  3487 -228 l 
3363 -228 l  3363 -257 l  p ef
pom
pum
2265 -2088 t
157 -121 m  164 -118 171 -113 178 -105 ct 186 -96 193 -85 200 -70 ct 235 0 l 
198 0 l  165 -66 l  156 -83 148 -95 140 -101 ct 132 -106 121 -109 107 -109 ct 
69 -109 l  69 0 l  35 0 l  35 -258 l  113 -258 l  143 -258 165 -252 179 -239 ct 
194 -227 201 -208 201 -184 ct 201 -167 197 -154 190 -143 ct 182 -132 171 -125 157 -121 ct 
p
69 -229 m  69 -138 l  113 -138 l  130 -138 143 -142 151 -149 ct 160 -157 164 -168 164 -184 ct 
164 -199 160 -210 151 -218 ct 143 -225 130 -229 113 -229 ct 69 -229 l  p ef
284 -135 m  357 -135 l  357 -115 l  254 -115 l  254 -134 l  258 -138 264 -143 271 -149 ct 
310 -184 330 -207 330 -218 ct 330 -225 327 -232 321 -236 ct 315 -241 307 -243 298 -243 ct 
292 -243 285 -242 278 -240 ct 271 -238 264 -235 255 -231 ct 255 -252 l  264 -256 272 -258 280 -260 ct 
288 -261 295 -262 301 -262 ct 318 -262 331 -258 341 -251 ct 351 -243 356 -233 356 -221 ct 
356 -205 337 -180 299 -148 ct 293 -142 288 -138 284 -135 ct p ef
513 -161 m  734 -161 l  734 -132 l  513 -132 l  513 -161 l  p
513 -90 m  734 -90 l  734 -61 l  513 -61 l  513 -90 l  p ef
985 -235 m  967 -235 954 -226 945 -208 ct 936 -191 931 -164 931 -129 ct 931 -93 936 -67 945 -49 ct 
954 -31 967 -23 985 -23 ct 1003 -23 1017 -31 1026 -49 ct 1035 -67 1039 -93 1039 -129 ct 
1039 -164 1035 -191 1026 -208 ct 1017 -226 1003 -235 985 -235 ct p
985 -263 m  1014 -263 1036 -251 1051 -228 ct 1067 -205 1074 -172 1074 -129 ct 
1074 -85 1067 -52 1051 -29 ct 1036 -6 1014 5 985 5 ct 956 5 934 -6 919 -29 ct 904 -52 896 -85 896 -129 ct 
896 -172 904 -205 919 -228 ct 934 -251 956 -263 985 -263 ct p ef
1126 -44 m  1163 -44 l  1163 -14 l  1134 41 l  1112 41 l  1126 -14 l  1126 -44 l 
p ef
1230 -5 m  1230 -37 l  1239 -33 1247 -30 1256 -28 ct 1265 -25 1274 -24 1283 -24 ct 
1306 -24 1323 -32 1335 -47 ct 1347 -63 1354 -86 1356 -118 ct 1349 -108 1341 -100 1331 -95 ct 
1321 -90 1309 -87 1297 -87 ct 1271 -87 1251 -95 1236 -110 ct 1221 -126 1213 -148 1213 -175 ct 
1213 -201 1221 -223 1237 -239 ct 1252 -255 1273 -263 1299 -263 ct 1329 -263 1352 -251 1367 -228 ct 
1383 -205 1391 -172 1391 -129 ct 1391 -88 1381 -56 1362 -31 ct 1343 -7 1317 5 1284 5 ct 
1276 5 1267 4 1258 2 ct 1249 1 1239 -2 1230 -5 ct p
1299 -114 m  1315 -114 1327 -120 1336 -130 ct 1345 -141 1350 -156 1350 -175 ct 
1350 -193 1345 -208 1336 -219 ct 1327 -230 1315 -235 1299 -235 ct 1283 -235 1271 -230 1262 -219 ct 
1253 -208 1248 -193 1248 -175 ct 1248 -156 1253 -141 1262 -130 ct 1271 -120 1283 -114 1299 -114 ct 
p ef
1519 -143 m  1503 -143 1491 -138 1481 -127 ct 1472 -116 1468 -101 1468 -83 ct 
1468 -64 1472 -50 1481 -39 ct 1491 -28 1503 -23 1519 -23 ct 1534 -23 1547 -28 1556 -39 ct 
1565 -50 1569 -64 1569 -83 ct 1569 -101 1565 -116 1556 -127 ct 1547 -138 1534 -143 1519 -143 ct 
p
1588 -252 m  1588 -220 l  1579 -224 1570 -228 1561 -230 ct 1552 -232 1543 -233 1535 -233 ct 
1512 -233 1494 -225 1482 -210 ct 1470 -194 1463 -171 1461 -140 ct 1468 -150 1477 -157 1487 -163 ct 
1497 -168 1508 -171 1521 -171 ct 1546 -171 1567 -163 1582 -147 ct 1597 -131 1604 -110 1604 -83 ct 
1604 -56 1597 -35 1581 -19 ct 1565 -3 1544 5 1519 5 ct 1489 5 1466 -6 1450 -29 ct 
1435 -52 1427 -85 1427 -129 ct 1427 -169 1436 -202 1456 -226 ct 1475 -250 1501 -262 1533 -262 ct 
1542 -262 1551 -261 1560 -260 ct 1569 -258 1578 -255 1588 -252 ct p ef
pom
pum
-2356 5907 t
31 -232 m  73 -232 l  176 -38 l  176 -232 l  207 -232 l  207 0 l  164 0 l 
62 -194 l  62 0 l  31 0 l  31 -232 l  p ef
265 -69 m  265 -174 l  294 -174 l  294 -70 l  294 -54 297 -41 303 -33 ct 
310 -25 319 -21 332 -21 ct 348 -21 360 -26 369 -36 ct 378 -45 382 -59 382 -76 ct 
382 -174 l  411 -174 l  411 0 l  382 0 l  382 -27 l  375 -17 367 -9 358 -4 ct 
349 1 338 4 326 4 ct 306 4 291 -2 281 -15 ct 270 -27 265 -45 265 -69 ct p
p ef
615 -140 m  623 -153 631 -163 641 -169 ct 651 -175 663 -178 676 -178 ct 694 -178 708 -172 718 -159 ct 
728 -146 733 -128 733 -105 ct 733 0 l  704 0 l  704 -104 l  704 -121 701 -133 695 -141 ct 
689 -149 680 -153 668 -153 ct 653 -153 642 -148 633 -138 ct 624 -129 620 -115 620 -98 ct 
620 0 l  591 0 l  591 -104 l  591 -121 589 -133 583 -141 ct 577 -149 568 -153 555 -153 ct 
541 -153 529 -148 520 -138 ct 512 -128 508 -115 508 -98 ct 508 0 l  479 0 l 
479 -174 l  508 -174 l  508 -147 l  514 -157 522 -165 531 -170 ct 540 -175 551 -178 564 -178 ct 
576 -178 587 -175 596 -168 ct 605 -162 611 -153 615 -140 ct p ef
946 -95 m  946 -81 l  814 -81 l  816 -61 822 -46 832 -36 ct 843 -25 858 -20 876 -20 ct 
887 -20 898 -22 908 -24 ct 919 -27 929 -31 939 -36 ct 939 -9 l  929 -5 918 -2 908 1 ct 
897 3 886 4 875 4 ct 847 4 825 -4 809 -20 ct 793 -36 785 -58 785 -86 ct 785 -114 792 -137 808 -153 ct 
823 -170 844 -178 870 -178 ct 893 -178 912 -171 925 -156 ct 939 -141 946 -120 946 -95 ct 
p
917 -103 m  917 -119 913 -131 904 -140 ct 895 -149 884 -154 870 -154 ct 854 -154 841 -150 832 -141 ct 
822 -132 817 -119 815 -103 ct 917 -103 l  p ef
1084 -147 m  1081 -149 1077 -150 1073 -151 ct 1069 -152 1065 -153 1061 -153 ct 
1045 -153 1032 -147 1024 -137 ct 1015 -126 1011 -111 1011 -92 ct 1011 0 l  982 0 l 
982 -174 l  1011 -174 l  1011 -147 l  1017 -157 1024 -165 1034 -170 ct 1044 -175 1055 -178 1069 -178 ct 
1071 -178 1073 -178 1076 -178 ct 1078 -177 1081 -177 1084 -176 ct 1084 -147 l 
p ef
1155 -154 m  1140 -154 1128 -148 1119 -136 ct 1110 -124 1106 -108 1106 -87 ct 
1106 -66 1110 -50 1119 -38 ct 1128 -26 1140 -20 1155 -20 ct 1171 -20 1183 -26 1192 -38 ct 
1200 -50 1205 -66 1205 -87 ct 1205 -108 1200 -124 1192 -136 ct 1183 -148 1171 -154 1155 -154 ct 
p
1155 -178 m  1180 -178 1200 -170 1214 -154 ct 1228 -138 1235 -116 1235 -87 ct 
1235 -59 1228 -36 1214 -20 ct 1200 -4 1180 4 1155 4 ct 1130 4 1111 -4 1097 -20 ct 
1083 -36 1076 -59 1076 -87 ct 1076 -116 1083 -138 1097 -154 ct 1111 -170 1130 -178 1155 -178 ct 
p ef
1493 -147 m  1493 -241 l  1522 -241 l  1522 0 l  1493 0 l  1493 -26 l 
1487 -15 1480 -8 1471 -3 ct 1462 2 1451 5 1438 5 ct 1417 5 1400 -3 1386 -20 ct 
1373 -37 1367 -59 1367 -86 ct 1367 -114 1373 -136 1386 -153 ct 1400 -169 1417 -178 1438 -178 ct 
1451 -178 1462 -175 1471 -170 ct 1480 -165 1487 -158 1493 -147 ct p
1396 -86 m  1396 -65 1400 -49 1409 -37 ct 1418 -25 1430 -19 1445 -19 ct 1460 -19 1472 -25 1480 -37 ct 
1489 -49 1493 -65 1493 -86 ct 1493 -108 1489 -124 1480 -136 ct 1472 -148 1460 -154 1445 -154 ct 
1430 -154 1418 -148 1409 -136 ct 1400 -124 1396 -108 1396 -86 ct p ef
1591 -173 m  1620 -173 l  1620 1 l  1591 1 l  1591 -173 l  p
1591 -241 m  1620 -241 l  1620 -205 l  1591 -205 l  1591 -241 l  p ef
1887 -109 m  1894 -106 1900 -102 1907 -94 ct 1913 -87 1920 -76 1926 -63 ct 1958 0 l 
1924 0 l  1894 -59 l  1887 -75 1879 -85 1872 -90 ct 1865 -95 1855 -98 1843 -98 ct 
1809 -98 l  1809 0 l  1777 0 l  1777 -232 l  1848 -232 l  1875 -232 1894 -226 1907 -215 ct 
1920 -204 1927 -187 1927 -165 ct 1927 -150 1924 -138 1917 -129 ct 1910 -119 1900 -112 1887 -109 ct 
p
1809 -206 m  1809 -124 l  1848 -124 l  1863 -124 1875 -127 1882 -134 ct 1890 -141 1894 -151 1894 -165 ct 
1894 -179 1890 -189 1882 -196 ct 1875 -203 1863 -206 1848 -206 ct 1809 -206 l 
p ef
2040 -88 m  2017 -88 2001 -85 1992 -80 ct 1983 -75 1979 -66 1979 -53 ct 1979 -43 1982 -35 1989 -29 ct 
1995 -23 2004 -20 2016 -20 ct 2032 -20 2044 -26 2054 -37 ct 2064 -48 2068 -63 2068 -82 ct 
2068 -88 l  2040 -88 l  p
2097 -100 m  2097 -1 l  2068 -1 l  2068 -27 l  2062 -16 2054 -9 2044 -4 ct 
2034 1 2022 4 2008 4 ct 1991 4 1976 -1 1966 -11 ct 1955 -21 1950 -34 1950 -51 ct 
1950 -71 1957 -85 1970 -95 ct 1983 -105 2002 -110 2028 -110 ct 2068 -110 l  2068 -113 l 
2068 -126 2064 -136 2055 -143 ct 2047 -150 2035 -154 2019 -154 ct 2009 -154 1999 -153 1990 -150 ct 
1981 -148 1972 -145 1963 -140 ct 1963 -166 l  1973 -170 1983 -173 1993 -175 ct 
2003 -177 2013 -178 2022 -178 ct 2047 -178 2066 -172 2078 -159 ct 2091 -146 2097 -126 2097 -100 ct 
p ef
2219 16 m  2211 37 2203 50 2196 57 ct 2188 63 2178 66 2165 66 ct 2142 66 l  2142 42 l 
2159 42 l  2167 42 2173 40 2177 37 ct 2182 33 2186 24 2192 10 ct 2197 -3 l  2126 -174 l 
2157 -174 l  2211 -38 l  2265 -174 l  2296 -174 l  2219 16 l  p ef
2332 -241 m  2361 -241 l  2361 0 l  2332 0 l  2332 -241 l  p ef
2560 -95 m  2560 -81 l  2428 -81 l  2430 -61 2436 -46 2446 -36 ct 2457 -25 2472 -20 2490 -20 ct 
2501 -20 2512 -22 2522 -24 ct 2533 -27 2543 -31 2553 -36 ct 2553 -9 l  2543 -5 2532 -2 2522 1 ct 
2511 3 2500 4 2489 4 ct 2461 4 2439 -4 2423 -20 ct 2407 -36 2399 -58 2399 -86 ct 
2399 -114 2406 -137 2422 -153 ct 2437 -170 2458 -178 2484 -178 ct 2507 -178 2526 -171 2539 -156 ct 
2553 -141 2560 -120 2560 -95 ct p
2531 -103 m  2531 -119 2527 -131 2518 -140 ct 2509 -149 2498 -154 2484 -154 ct 
2468 -154 2455 -150 2446 -141 ct 2436 -132 2431 -119 2429 -103 ct 2531 -103 l 
p ef
2596 -173 m  2625 -173 l  2625 1 l  2596 1 l  2596 -173 l  p
2596 -241 m  2625 -241 l  2625 -205 l  2596 -205 l  2596 -241 l  p ef
2790 -89 m  2790 -110 2786 -126 2778 -137 ct 2769 -148 2757 -154 2742 -154 ct 
2726 -154 2714 -148 2706 -137 ct 2697 -126 2693 -110 2693 -89 ct 2693 -68 2697 -52 2706 -41 ct 
2714 -30 2726 -24 2742 -24 ct 2757 -24 2769 -30 2778 -41 ct 2786 -52 2790 -68 2790 -89 ct 
p
2819 -22 m  2819 8 2812 30 2799 44 ct 2786 59 2766 66 2739 66 ct 2729 66 2719 65 2710 64 ct 
2702 62 2693 60 2685 57 ct 2685 29 l  2693 34 2701 37 2709 39 ct 2718 41 2726 42 2734 42 ct 
2753 42 2767 38 2776 28 ct 2786 18 2790 3 2790 -17 ct 2790 -31 l  2785 -20 2777 -13 2768 -8 ct 
2759 -3 2748 0 2735 0 ct 2713 0 2696 -8 2683 -24 ct 2670 -41 2664 -62 2664 -89 ct 
2664 -116 2670 -137 2683 -154 ct 2696 -170 2713 -178 2735 -178 ct 2748 -178 2759 -175 2768 -170 ct 
2777 -165 2785 -158 2790 -147 ct 2790 -174 l  2819 -174 l  2819 -22 l  p ef
3033 -105 m  3033 0 l  3004 0 l  3004 -104 l  3004 -120 3001 -133 2994 -141 ct 
2988 -149 2978 -153 2965 -153 ct 2950 -153 2938 -148 2929 -138 ct 2920 -128 2916 -115 2916 -98 ct 
2916 0 l  2887 0 l  2887 -241 l  2916 -241 l  2916 -147 l  2922 -157 2930 -165 2940 -170 ct 
2949 -175 2960 -178 2972 -178 ct 2992 -178 3007 -172 3017 -159 ct 3027 -147 3033 -129 3033 -105 ct 
p ef
3316 -170 m  3316 -143 l  3308 -147 3299 -150 3291 -152 ct 3282 -154 3273 -155 3264 -155 ct 
3249 -155 3239 -153 3232 -148 ct 3225 -144 3221 -138 3221 -129 ct 3221 -122 3224 -117 3229 -113 ct 
3234 -109 3244 -106 3259 -102 ct 3269 -100 l  3289 -96 3304 -90 3312 -82 ct 
3321 -74 3325 -63 3325 -49 ct 3325 -32 3319 -20 3306 -10 ct 3293 -1 3276 4 3253 4 ct 
3244 4 3234 3 3224 1 ct 3214 -1 3203 -3 3192 -7 ct 3192 -36 l  3203 -31 3213 -27 3223 -24 ct 
3234 -21 3244 -20 3254 -20 ct 3267 -20 3278 -22 3285 -27 ct 3292 -31 3296 -38 3296 -46 ct 
3296 -54 3293 -60 3288 -64 ct 3283 -68 3271 -72 3254 -76 ct 3244 -79 l  3226 -82 3213 -88 3205 -96 ct 
3197 -103 3193 -114 3193 -128 ct 3193 -144 3199 -157 3211 -166 ct 3222 -174 3239 -179 3260 -179 ct 
3271 -179 3281 -178 3290 -177 ct 3299 -175 3308 -173 3316 -170 ct p ef
3431 -154 m  3416 -154 3404 -148 3395 -136 ct 3386 -124 3382 -108 3382 -87 ct 
3382 -66 3386 -50 3395 -38 ct 3404 -26 3416 -20 3431 -20 ct 3447 -20 3459 -26 3468 -38 ct 
3476 -50 3481 -66 3481 -87 ct 3481 -108 3476 -124 3468 -136 ct 3459 -148 3447 -154 3431 -154 ct 
p
3431 -178 m  3456 -178 3476 -170 3490 -154 ct 3504 -138 3511 -116 3511 -87 ct 
3511 -59 3504 -36 3490 -20 ct 3476 -4 3456 4 3431 4 ct 3406 4 3387 -4 3373 -20 ct 
3359 -36 3352 -59 3352 -87 ct 3352 -116 3359 -138 3373 -154 ct 3387 -170 3406 -178 3431 -178 ct 
p ef
3549 -241 m  3578 -241 l  3578 0 l  3549 0 l  3549 -241 l  p ef
3625 -69 m  3625 -174 l  3654 -174 l  3654 -70 l  3654 -54 3657 -41 3663 -33 ct 
3670 -25 3679 -21 3692 -21 ct 3708 -21 3720 -26 3729 -36 ct 3738 -45 3742 -59 3742 -76 ct 
3742 -174 l  3771 -174 l  3771 0 l  3742 0 l  3742 -27 l  3735 -17 3727 -9 3718 -4 ct 
3709 1 3698 4 3686 4 ct 3666 4 3651 -2 3641 -15 ct 3630 -27 3625 -45 3625 -69 ct 
p
p ef
3868 -223 m  3868 -174 l  3927 -174 l  3927 -152 l  3868 -152 l  3868 -57 l 
3868 -43 3870 -34 3874 -30 ct 3878 -26 3886 -24 3898 -24 ct 3927 -24 l  3927 0 l 
3898 0 l  3876 0 3860 -4 3852 -12 ct 3844 -21 3840 -36 3840 -57 ct 3840 -152 l 
3819 -152 l  3819 -174 l  3840 -174 l  3840 -223 l  3868 -223 l  p ef
4051 -88 m  4028 -88 4012 -85 4003 -80 ct 3994 -75 3990 -66 3990 -53 ct 3990 -43 3993 -35 4000 -29 ct 
4006 -23 4015 -20 4027 -20 ct 4043 -20 4055 -26 4065 -37 ct 4075 -48 4079 -63 4079 -82 ct 
4079 -88 l  4051 -88 l  p
4108 -100 m  4108 -1 l  4079 -1 l  4079 -27 l  4073 -16 4065 -9 4055 -4 ct 
4045 1 4033 4 4019 4 ct 4002 4 3987 -1 3977 -11 ct 3966 -21 3961 -34 3961 -51 ct 
3961 -71 3968 -85 3981 -95 ct 3994 -105 4013 -110 4039 -110 ct 4079 -110 l  4079 -113 l 
4079 -126 4075 -136 4066 -143 ct 4058 -150 4046 -154 4030 -154 ct 4020 -154 4010 -153 4001 -150 ct 
3992 -148 3983 -145 3974 -140 ct 3974 -166 l  3984 -170 3994 -173 4004 -175 ct 
4014 -177 4024 -178 4033 -178 ct 4058 -178 4077 -172 4089 -159 ct 4102 -146 4108 -126 4108 -100 ct 
p ef
4158 -241 m  4187 -241 l  4187 0 l  4158 0 l  4158 -241 l  p ef
4386 -95 m  4386 -81 l  4254 -81 l  4256 -61 4262 -46 4272 -36 ct 4283 -25 4298 -20 4316 -20 ct 
4327 -20 4338 -22 4348 -24 ct 4359 -27 4369 -31 4379 -36 ct 4379 -9 l  4369 -5 4358 -2 4348 1 ct 
4337 3 4326 4 4315 4 ct 4287 4 4265 -4 4249 -20 ct 4233 -36 4225 -58 4225 -86 ct 
4225 -114 4232 -137 4248 -153 ct 4263 -170 4284 -178 4310 -178 ct 4333 -178 4352 -171 4365 -156 ct 
4379 -141 4386 -120 4386 -95 ct p
4357 -103 m  4357 -119 4353 -131 4344 -140 ct 4335 -149 4324 -154 4310 -154 ct 
4294 -154 4281 -150 4272 -141 ct 4262 -132 4257 -119 4255 -103 ct 4357 -103 l 
p ef
4597 -241 m  4583 -217 4572 -194 4566 -170 ct 4559 -147 4556 -124 4556 -100 ct 
4556 -76 4559 -52 4566 -29 ct 4573 -5 4583 18 4597 42 ct 4572 42 l  4556 18 4545 -6 4537 -30 ct 
4529 -53 4525 -76 4525 -100 ct 4525 -123 4529 -146 4537 -169 ct 4544 -193 4556 -217 4572 -241 ct 
4597 -241 l  p ef
4771 -109 m  4778 -106 4784 -102 4791 -94 ct 4797 -87 4804 -76 4810 -63 ct 4842 0 l 
4808 0 l  4778 -59 l  4771 -75 4763 -85 4756 -90 ct 4749 -95 4739 -98 4727 -98 ct 
4693 -98 l  4693 0 l  4661 0 l  4661 -232 l  4732 -232 l  4759 -232 4778 -226 4791 -215 ct 
4804 -204 4811 -187 4811 -165 ct 4811 -150 4808 -138 4801 -129 ct 4794 -119 4784 -112 4771 -109 ct 
p
4693 -206 m  4693 -124 l  4732 -124 l  4747 -124 4759 -127 4766 -134 ct 4774 -141 4778 -151 4778 -165 ct 
4778 -179 4774 -189 4766 -196 ct 4759 -203 4747 -206 4732 -206 ct 4693 -206 l 
p ef
4924 -88 m  4901 -88 4885 -85 4876 -80 ct 4867 -75 4863 -66 4863 -53 ct 4863 -43 4866 -35 4873 -29 ct 
4879 -23 4888 -20 4900 -20 ct 4916 -20 4928 -26 4938 -37 ct 4948 -48 4952 -63 4952 -82 ct 
4952 -88 l  4924 -88 l  p
4981 -100 m  4981 -1 l  4952 -1 l  4952 -27 l  4946 -16 4938 -9 4928 -4 ct 
4918 1 4906 4 4892 4 ct 4875 4 4860 -1 4850 -11 ct 4839 -21 4834 -34 4834 -51 ct 
4834 -71 4841 -85 4854 -95 ct 4867 -105 4886 -110 4912 -110 ct 4952 -110 l  4952 -113 l 
4952 -126 4948 -136 4939 -143 ct 4931 -150 4919 -154 4903 -154 ct 4893 -154 4883 -153 4874 -150 ct 
4865 -148 4856 -145 4847 -140 ct 4847 -166 l  4857 -170 4867 -173 4877 -175 ct 
4887 -177 4897 -178 4906 -178 ct 4931 -178 4950 -172 4962 -159 ct 4975 -146 4981 -126 4981 -100 ct 
p ef
5163 53 m  5163 75 l  4998 75 l  4998 53 l  5163 53 l  p ef
5300 -170 m  5300 -143 l  5292 -147 5283 -150 5275 -152 ct 5266 -154 5257 -155 5248 -155 ct 
5233 -155 5223 -153 5216 -148 ct 5209 -144 5205 -138 5205 -129 ct 5205 -122 5208 -117 5213 -113 ct 
5218 -109 5228 -106 5243 -102 ct 5253 -100 l  5273 -96 5288 -90 5296 -82 ct 
5305 -74 5309 -63 5309 -49 ct 5309 -32 5303 -20 5290 -10 ct 5277 -1 5260 4 5237 4 ct 
5228 4 5218 3 5208 1 ct 5198 -1 5187 -3 5176 -7 ct 5176 -36 l  5187 -31 5197 -27 5207 -24 ct 
5218 -21 5228 -20 5238 -20 ct 5251 -20 5262 -22 5269 -27 ct 5276 -31 5280 -38 5280 -46 ct 
5280 -54 5277 -60 5272 -64 ct 5267 -68 5255 -72 5238 -76 ct 5228 -79 l  5210 -82 5197 -88 5189 -96 ct 
5181 -103 5177 -114 5177 -128 ct 5177 -144 5183 -157 5195 -166 ct 5206 -174 5223 -179 5244 -179 ct 
5255 -179 5265 -178 5274 -177 ct 5283 -175 5292 -173 5300 -170 ct p ef
5343 -241 m  5368 -241 l  5384 -217 5395 -193 5403 -169 ct 5411 -146 5415 -123 5415 -100 ct 
5415 -76 5411 -53 5403 -30 ct 5395 -6 5384 18 5368 42 ct 5343 42 l  5357 18 5368 -5 5374 -29 ct 
5381 -52 5384 -76 5384 -100 ct 5384 -124 5381 -147 5374 -170 ct 5368 -194 5357 -217 5343 -241 ct 
p ef
pom
pum
-6636 2467 t
90.0 r -1 -231 m  195 -231 l  195 -205 l  113 -205 l  113 1 l  81 1 l  81 -205 l 
-1 -205 l  -1 -231 l  p ef
364 -95 m  364 -81 l  232 -81 l  234 -61 240 -46 250 -36 ct 261 -25 276 -20 294 -20 ct 
305 -20 316 -22 326 -24 ct 337 -27 347 -31 357 -36 ct 357 -9 l  347 -5 336 -2 326 1 ct 
315 3 304 4 293 4 ct 265 4 243 -4 227 -20 ct 211 -36 203 -58 203 -86 ct 203 -114 210 -137 226 -153 ct 
241 -170 262 -178 288 -178 ct 311 -178 330 -171 343 -156 ct 357 -141 364 -120 364 -95 ct 
p
335 -103 m  335 -119 331 -131 322 -140 ct 313 -149 302 -154 288 -154 ct 272 -154 259 -150 250 -141 ct 
240 -132 235 -119 233 -103 ct 335 -103 l  p ef
535 -140 m  543 -153 551 -163 561 -169 ct 571 -175 583 -178 596 -178 ct 614 -178 628 -172 638 -159 ct 
648 -146 653 -128 653 -105 ct 653 0 l  624 0 l  624 -104 l  624 -121 621 -133 615 -141 ct 
609 -149 600 -153 588 -153 ct 573 -153 562 -148 553 -138 ct 544 -129 540 -115 540 -98 ct 
540 0 l  511 0 l  511 -104 l  511 -121 509 -133 503 -141 ct 497 -149 488 -153 475 -153 ct 
461 -153 449 -148 440 -138 ct 432 -128 428 -115 428 -98 ct 428 0 l  399 0 l 
399 -174 l  428 -174 l  428 -147 l  434 -157 442 -165 451 -170 ct 460 -175 471 -178 484 -178 ct 
496 -178 507 -175 516 -168 ct 525 -162 531 -153 535 -140 ct p ef
746 -27 m  746 66 l  717 66 l  717 -174 l  746 -174 l  746 -147 l  752 -158 759 -165 768 -170 ct 
778 -176 788 -178 801 -178 ct 822 -178 839 -170 853 -153 ct 866 -136 872 -114 872 -87 ct 
872 -60 866 -38 853 -21 ct 839 -4 822 4 801 4 ct 788 4 778 1 768 -4 ct 759 -9 752 -16 746 -27 ct 
p
843 -87 m  843 -108 838 -124 830 -136 ct 821 -148 809 -154 794 -154 ct 779 -154 767 -148 759 -136 ct 
750 -124 746 -108 746 -87 ct 746 -66 750 -50 759 -38 ct 767 -26 779 -20 794 -20 ct 
809 -20 821 -26 830 -38 ct 838 -50 843 -66 843 -87 ct p ef
997 -154 m  982 -154 970 -148 961 -136 ct 952 -124 948 -108 948 -87 ct 948 -66 952 -50 961 -38 ct 
970 -26 982 -20 997 -20 ct 1013 -20 1025 -26 1034 -38 ct 1042 -50 1047 -66 1047 -87 ct 
1047 -108 1042 -124 1034 -136 ct 1025 -148 1013 -154 997 -154 ct p
997 -178 m  1022 -178 1042 -170 1056 -154 ct 1070 -138 1077 -116 1077 -87 ct 
1077 -59 1070 -36 1056 -20 ct 1042 -4 1022 4 997 4 ct 972 4 953 -4 939 -20 ct 925 -36 918 -59 918 -87 ct 
918 -116 925 -138 939 -154 ct 953 -170 972 -178 997 -178 ct p ef
1249 -223 m  1249 -174 l  1308 -174 l  1308 -152 l  1249 -152 l  1249 -57 l 
1249 -43 1251 -34 1255 -30 ct 1259 -26 1267 -24 1279 -24 ct 1308 -24 l  1308 0 l 
1279 0 l  1257 0 1241 -4 1233 -12 ct 1225 -21 1221 -36 1221 -57 ct 1221 -152 l 
1200 -152 l  1200 -174 l  1221 -174 l  1221 -223 l  1249 -223 l  p ef
1454 -147 m  1451 -149 1447 -150 1443 -151 ct 1439 -152 1435 -153 1431 -153 ct 
1415 -153 1402 -147 1394 -137 ct 1385 -126 1381 -111 1381 -92 ct 1381 0 l  1352 0 l 
1352 -174 l  1381 -174 l  1381 -147 l  1387 -157 1394 -165 1404 -170 ct 1414 -175 1425 -178 1439 -178 ct 
1441 -178 1443 -178 1446 -178 ct 1448 -177 1451 -177 1454 -176 ct 1454 -147 l 
p ef
1564 -88 m  1541 -88 1525 -85 1516 -80 ct 1507 -75 1503 -66 1503 -53 ct 1503 -43 1506 -35 1513 -29 ct 
1519 -23 1528 -20 1540 -20 ct 1556 -20 1568 -26 1578 -37 ct 1588 -48 1592 -63 1592 -82 ct 
1592 -88 l  1564 -88 l  p
1621 -100 m  1621 -1 l  1592 -1 l  1592 -27 l  1586 -16 1578 -9 1568 -4 ct 
1558 1 1546 4 1532 4 ct 1515 4 1500 -1 1490 -11 ct 1479 -21 1474 -34 1474 -51 ct 
1474 -71 1481 -85 1494 -95 ct 1507 -105 1526 -110 1552 -110 ct 1592 -110 l  1592 -113 l 
1592 -126 1588 -136 1579 -143 ct 1571 -150 1559 -154 1543 -154 ct 1533 -154 1523 -153 1514 -150 ct 
1505 -148 1496 -145 1487 -140 ct 1487 -166 l  1497 -170 1507 -173 1517 -175 ct 
1527 -177 1537 -178 1546 -178 ct 1571 -178 1590 -172 1602 -159 ct 1615 -146 1621 -126 1621 -100 ct 
p ef
1815 -105 m  1815 0 l  1786 0 l  1786 -104 l  1786 -120 1783 -133 1776 -141 ct 
1770 -149 1760 -153 1747 -153 ct 1732 -153 1720 -148 1711 -138 ct 1702 -129 1698 -115 1698 -98 ct 
1698 0 l  1669 0 l  1669 -174 l  1698 -174 l  1698 -147 l  1704 -157 1712 -165 1722 -170 ct 
1731 -175 1742 -178 1754 -178 ct 1774 -178 1789 -172 1799 -159 ct 1809 -147 1815 -129 1815 -105 ct 
p ef
1993 -170 m  1993 -143 l  1985 -147 1976 -150 1968 -152 ct 1959 -154 1950 -155 1941 -155 ct 
1926 -155 1916 -153 1909 -148 ct 1902 -144 1898 -138 1898 -129 ct 1898 -122 1901 -117 1906 -113 ct 
1911 -109 1921 -106 1936 -102 ct 1946 -100 l  1966 -96 1981 -90 1989 -82 ct 
1998 -74 2002 -63 2002 -49 ct 2002 -32 1996 -20 1983 -10 ct 1970 -1 1953 4 1930 4 ct 
1921 4 1911 3 1901 1 ct 1891 -1 1880 -3 1869 -7 ct 1869 -36 l  1880 -31 1890 -27 1900 -24 ct 
1911 -21 1921 -20 1931 -20 ct 1944 -20 1955 -22 1962 -27 ct 1969 -31 1973 -38 1973 -46 ct 
1973 -54 1970 -60 1965 -64 ct 1960 -68 1948 -72 1931 -76 ct 1921 -79 l  1903 -82 1890 -88 1882 -96 ct 
1874 -103 1870 -114 1870 -128 ct 1870 -144 1876 -157 1888 -166 ct 1899 -174 1916 -179 1937 -179 ct 
1948 -179 1958 -178 1967 -177 ct 1976 -175 1985 -173 1993 -170 ct p ef
2041 -173 m  2070 -173 l  2070 1 l  2041 1 l  2041 -173 l  p
2041 -241 m  2070 -241 l  2070 -205 l  2041 -205 l  2041 -241 l  p ef
2148 -223 m  2148 -174 l  2207 -174 l  2207 -152 l  2148 -152 l  2148 -57 l 
2148 -43 2150 -34 2154 -30 ct 2158 -26 2166 -24 2178 -24 ct 2207 -24 l  2207 0 l 
2178 0 l  2156 0 2140 -4 2132 -12 ct 2124 -21 2120 -36 2120 -57 ct 2120 -152 l 
2099 -152 l  2099 -174 l  2120 -174 l  2120 -223 l  2148 -223 l  p ef
2320 -154 m  2305 -154 2293 -148 2284 -136 ct 2275 -124 2271 -108 2271 -87 ct 
2271 -66 2275 -50 2284 -38 ct 2293 -26 2305 -20 2320 -20 ct 2336 -20 2348 -26 2357 -38 ct 
2365 -50 2370 -66 2370 -87 ct 2370 -108 2365 -124 2357 -136 ct 2348 -148 2336 -154 2320 -154 ct 
p
2320 -178 m  2345 -178 2365 -170 2379 -154 ct 2393 -138 2400 -116 2400 -87 ct 
2400 -59 2393 -36 2379 -20 ct 2365 -4 2345 4 2320 4 ct 2295 4 2276 -4 2262 -20 ct 
2248 -36 2241 -59 2241 -87 ct 2241 -116 2248 -138 2262 -154 ct 2276 -170 2295 -178 2320 -178 ct 
p ef
2539 -147 m  2536 -149 2532 -150 2528 -151 ct 2524 -152 2520 -153 2516 -153 ct 
2500 -153 2487 -147 2479 -137 ct 2470 -126 2466 -111 2466 -92 ct 2466 0 l  2437 0 l 
2437 -174 l  2466 -174 l  2466 -147 l  2472 -157 2479 -165 2489 -170 ct 2499 -175 2510 -178 2524 -178 ct 
2526 -178 2528 -178 2531 -178 ct 2533 -177 2536 -177 2539 -176 ct 2539 -147 l 
p ef
2570 -173 m  2599 -173 l  2599 1 l  2570 1 l  2570 -173 l  p
2570 -241 m  2599 -241 l  2599 -205 l  2570 -205 l  2570 -241 l  p ef
2716 -154 m  2701 -154 2689 -148 2680 -136 ct 2671 -124 2667 -108 2667 -87 ct 
2667 -66 2671 -50 2680 -38 ct 2689 -26 2701 -20 2716 -20 ct 2732 -20 2744 -26 2753 -38 ct 
2761 -50 2766 -66 2766 -87 ct 2766 -108 2761 -124 2753 -136 ct 2744 -148 2732 -154 2716 -154 ct 
p
2716 -178 m  2741 -178 2761 -170 2775 -154 ct 2789 -138 2796 -116 2796 -87 ct 
2796 -59 2789 -36 2775 -20 ct 2761 -4 2741 4 2716 4 ct 2691 4 2672 -4 2658 -20 ct 
2644 -36 2637 -59 2637 -87 ct 2637 -116 2644 -138 2658 -154 ct 2672 -170 2691 -178 2716 -178 ct 
p ef
3041 -147 m  3038 -149 3034 -150 3030 -151 ct 3026 -152 3022 -153 3018 -153 ct 
3002 -153 2989 -147 2981 -137 ct 2972 -126 2968 -111 2968 -92 ct 2968 0 l  2939 0 l 
2939 -174 l  2968 -174 l  2968 -147 l  2974 -157 2981 -165 2991 -170 ct 3001 -175 3012 -178 3026 -178 ct 
3028 -178 3030 -178 3033 -178 ct 3035 -177 3038 -177 3041 -176 ct 3041 -147 l 
p ef
3073 -173 m  3102 -173 l  3102 1 l  3073 1 l  3073 -173 l  p
3073 -241 m  3102 -241 l  3102 -205 l  3073 -205 l  3073 -241 l  p ef
3263 -170 m  3263 -143 l  3255 -147 3246 -150 3238 -152 ct 3229 -154 3220 -155 3211 -155 ct 
3196 -155 3186 -153 3179 -148 ct 3172 -144 3168 -138 3168 -129 ct 3168 -122 3171 -117 3176 -113 ct 
3181 -109 3191 -106 3206 -102 ct 3216 -100 l  3236 -96 3251 -90 3259 -82 ct 
3268 -74 3272 -63 3272 -49 ct 3272 -32 3266 -20 3253 -10 ct 3240 -1 3223 4 3200 4 ct 
3191 4 3181 3 3171 1 ct 3161 -1 3150 -3 3139 -7 ct 3139 -36 l  3150 -31 3160 -27 3170 -24 ct 
3181 -21 3191 -20 3201 -20 ct 3214 -20 3225 -22 3232 -27 ct 3239 -31 3243 -38 3243 -46 ct 
3243 -54 3240 -60 3235 -64 ct 3230 -68 3218 -72 3201 -76 ct 3191 -79 l  3173 -82 3160 -88 3152 -96 ct 
3144 -103 3140 -114 3140 -128 ct 3140 -144 3146 -157 3158 -166 ct 3169 -174 3186 -179 3207 -179 ct 
3218 -179 3228 -178 3237 -177 ct 3246 -175 3255 -173 3263 -170 ct p ef
3436 -167 m  3436 -141 l  3428 -145 3420 -148 3412 -151 ct 3404 -153 3395 -154 3387 -154 ct 
3369 -154 3354 -148 3344 -136 ct 3334 -125 3329 -108 3329 -87 ct 3329 -66 3334 -50 3344 -38 ct 
3354 -26 3369 -20 3387 -20 ct 3395 -20 3404 -21 3412 -24 ct 3420 -26 3428 -29 3436 -34 ct 
3436 -7 l  3428 -3 3420 -1 3411 1 ct 3403 3 3394 4 3384 4 ct 3358 4 3337 -4 3322 -21 ct 
3306 -37 3299 -59 3299 -87 ct 3299 -115 3306 -138 3322 -154 ct 3337 -170 3359 -178 3386 -178 ct 
3395 -178 3403 -177 3412 -175 ct 3420 -174 3428 -171 3436 -167 ct p ef
3575 -88 m  3552 -88 3536 -85 3527 -80 ct 3518 -75 3514 -66 3514 -53 ct 3514 -43 3517 -35 3524 -29 ct 
3530 -23 3539 -20 3551 -20 ct 3567 -20 3579 -26 3589 -37 ct 3599 -48 3603 -63 3603 -82 ct 
3603 -88 l  3575 -88 l  p
3632 -100 m  3632 -1 l  3603 -1 l  3603 -27 l  3597 -16 3589 -9 3579 -4 ct 
3569 1 3557 4 3543 4 ct 3526 4 3511 -1 3501 -11 ct 3490 -21 3485 -34 3485 -51 ct 
3485 -71 3492 -85 3505 -95 ct 3518 -105 3537 -110 3563 -110 ct 3603 -110 l  3603 -113 l 
3603 -126 3599 -136 3590 -143 ct 3582 -150 3570 -154 3554 -154 ct 3544 -154 3534 -153 3525 -150 ct 
3516 -148 3507 -145 3498 -140 ct 3498 -166 l  3508 -170 3518 -173 3528 -175 ct 
3538 -177 3548 -178 3557 -178 ct 3582 -178 3601 -172 3613 -159 ct 3626 -146 3632 -126 3632 -100 ct 
p ef
3681 -241 m  3710 -241 l  3710 0 l  3681 0 l  3681 -241 l  p ef
3840 -88 m  3817 -88 3801 -85 3792 -80 ct 3783 -75 3779 -66 3779 -53 ct 3779 -43 3782 -35 3789 -29 ct 
3795 -23 3804 -20 3816 -20 ct 3832 -20 3844 -26 3854 -37 ct 3864 -48 3868 -63 3868 -82 ct 
3868 -88 l  3840 -88 l  p
3897 -100 m  3897 -1 l  3868 -1 l  3868 -27 l  3862 -16 3854 -9 3844 -4 ct 
3834 1 3822 4 3808 4 ct 3791 4 3776 -1 3766 -11 ct 3755 -21 3750 -34 3750 -51 ct 
3750 -71 3757 -85 3770 -95 ct 3783 -105 3802 -110 3828 -110 ct 3868 -110 l  3868 -113 l 
3868 -126 3864 -136 3855 -143 ct 3847 -150 3835 -154 3819 -154 ct 3809 -154 3799 -153 3790 -150 ct 
3781 -148 3772 -145 3763 -140 ct 3763 -166 l  3773 -170 3783 -173 3793 -175 ct 
3803 -177 3813 -178 3822 -178 ct 3847 -178 3866 -172 3878 -159 ct 3891 -146 3897 -126 3897 -100 ct 
p ef
3974 -223 m  3974 -174 l  4033 -174 l  4033 -152 l  3974 -152 l  3974 -57 l 
3974 -43 3976 -34 3980 -30 ct 3984 -26 3992 -24 4004 -24 ct 4033 -24 l  4033 0 l 
4004 0 l  3982 0 3966 -4 3958 -12 ct 3950 -21 3946 -36 3946 -57 ct 3946 -152 l 
3925 -152 l  3925 -174 l  3946 -174 l  3946 -223 l  3974 -223 l  p ef
4145 -154 m  4130 -154 4118 -148 4109 -136 ct 4100 -124 4096 -108 4096 -87 ct 
4096 -66 4100 -50 4109 -38 ct 4118 -26 4130 -20 4145 -20 ct 4161 -20 4173 -26 4182 -38 ct 
4190 -50 4195 -66 4195 -87 ct 4195 -108 4190 -124 4182 -136 ct 4173 -148 4161 -154 4145 -154 ct 
p
4145 -178 m  4170 -178 4190 -170 4204 -154 ct 4218 -138 4225 -116 4225 -87 ct 
4225 -59 4218 -36 4204 -20 ct 4190 -4 4170 4 4145 4 ct 4120 4 4101 -4 4087 -20 ct 
4073 -36 4066 -59 4066 -87 ct 4066 -116 4073 -138 4087 -154 ct 4101 -170 4120 -178 4145 -178 ct 
p ef
4438 -241 m  4424 -217 4413 -194 4407 -170 ct 4400 -147 4397 -124 4397 -100 ct 
4397 -76 4400 -52 4407 -29 ct 4414 -5 4424 18 4438 42 ct 4413 42 l  4397 18 4386 -6 4378 -30 ct 
4370 -53 4366 -76 4366 -100 ct 4366 -123 4370 -146 4378 -169 ct 4385 -193 4397 -217 4413 -241 ct 
4438 -241 l  p ef
4529 -223 m  4529 -174 l  4588 -174 l  4588 -152 l  4529 -152 l  4529 -57 l 
4529 -43 4531 -34 4535 -30 ct 4539 -26 4547 -24 4559 -24 ct 4588 -24 l  4588 0 l 
4559 0 l  4537 0 4521 -4 4513 -12 ct 4505 -21 4501 -36 4501 -57 ct 4501 -152 l 
4480 -152 l  4480 -174 l  4501 -174 l  4501 -223 l  4529 -223 l  p ef
4685 -232 m  4711 -232 l  4630 29 l  4604 29 l  4685 -232 l  p ef
4825 -32 m  4829 -27 4836 -24 4848 -24 ct 4861 -24 l  4861 0 l  4844 0 l 
4826 0 4812 -5 4803 -15 ct 4795 -25 4791 -41 4791 -63 ct 4791 -145 l  4726 -145 l 
4726 -174 l  4886 -174 l  4886 -145 l  4820 -145 l  4820 -61 l  4820 -46 4822 -36 4825 -32 ct 
p ef
4920 -241 m  4945 -241 l  4961 -217 4972 -193 4980 -169 ct 4988 -146 4992 -123 4992 -100 ct 
4992 -76 4988 -53 4980 -30 ct 4972 -6 4961 18 4945 42 ct 4920 42 l  4934 18 4945 -5 4951 -29 ct 
4958 -52 4961 -76 4961 -100 ct 4961 -124 4958 -147 4951 -170 ct 4945 -194 4934 -217 4920 -241 ct 
p ef
pom
0 13001 t 
pom
count op_count sub {pop} repeat countdictstack dict_count sub {end} repeat b4_inc_state restore
%%PageTrailer
%%Trailer
%%EOF
