%!PS-Adobe-3.0 EPSF-3.0 
%%BoundingBox: 0 0 653 653
%%Pages: 0
%%Creator: LibreOffice 4.0
%%Title: none
%%CreationDate: none
%%LanguageLevel: 2
%%EndComments
%%BeginProlog
%%BeginResource: procset SDRes-Prolog 1.0 0
/b4_inc_state save def
/dict_count countdictstack def
/op_count count 1 sub def
userdict begin
0 setgray 0 setlinecap 1 setlinewidth 0 setlinejoin 10 setmiterlimit[] 0 setdash newpath
/languagelevel where {pop languagelevel 1 ne {false setstrokeadjust false setoverprint} if} if
/bdef {bind def} bind def
/c {setrgbcolor} bdef
/l {neg lineto} bdef
/rl {neg rlineto} bdef
/lc {setlinecap} bdef
/lj {setlinejoin} bdef
/lw {setlinewidth} bdef
/ml {setmiterlimit} bdef
/ld {setdash} bdef
/m {neg moveto} bdef
/ct {6 2 roll neg 6 2 roll neg 6 2 roll neg curveto} bdef
/r {rotate} bdef
/t {neg translate} bdef
/s {scale} bdef
/sw {show} bdef
/gs {gsave} bdef
/gr {grestore} bdef
/f {findfont dup length dict begin
{1 index /FID ne {def} {pop pop} ifelse} forall /Encoding ISOLatin1Encoding def
currentdict end /NFont exch definefont pop /NFont findfont} bdef
/p {closepath} bdef
/sf {scalefont setfont} bdef
/ef {eofill}bdef
/pc {closepath stroke}bdef
/ps {stroke}bdef
/pum {matrix currentmatrix}bdef
/pom {setmatrix}bdef
/bs {/aString exch def /nXOfs exch def /nWidth exch def currentpoint nXOfs 0 rmoveto pum nWidth aString stringwidth pop div 1 scale aString show pom moveto} bdef
%%EndResource
%%EndProlog
%%BeginSetup
%%EndSetup
%%Page: 1 1
%%BeginPageSetup
%%EndPageSetup
pum
0.02832 0.02832 s 
0 -23051 t
/tm matrix currentmatrix def
tm setmatrix
-974 -974 t 
1 1 s 
0.203 0.203 0.203 c 12498 999 m  19018 999 23997 5979 23997 12498 ct 23997 19018 19018 23997 12498 23997 ct 
5979 23997 999 19018 999 12498 ct 999 5979 5979 999 12498 999 ct p ef
50 lw 1 lj 0.207 0.398 0.687 c 12498 999 m  19018 999 23997 5979 23997 12498 ct 
23997 19018 19018 23997 12498 23997 ct 5979 23997 999 19018 999 12498 ct 999 5979 5979 999 12498 999 ct 
pc
999 999 m  999 999 l  pc
23998 23998 m  23998 23998 l  pc
0.812 0.906 0.960 c 12498 3999 m  17317 3999 20998 7680 20998 12498 ct 20998 17317 17317 20998 12498 20998 ct 
7680 20998 3999 17317 3999 12498 ct 3999 7680 7680 3999 12498 3999 ct p ef
0.207 0.398 0.687 c 12498 3999 m  17317 3999 20998 7680 20998 12498 ct 20998 17317 17317 20998 12498 20998 ct 
7680 20998 3999 17317 3999 12498 ct 3999 7680 7680 3999 12498 3999 ct pc
3999 3999 m  3999 3999 l  pc
20999 20999 m  20999 20999 l  pc
1.000 1.000 1.000 c 12498 7249 m  15475 7249 17748 9522 17748 12498 ct 17748 15475 15475 17748 12498 17748 ct 
9522 17748 7249 15475 7249 12498 ct 7249 9522 9522 7249 12498 7249 ct p ef
0.207 0.398 0.687 c 12498 7249 m  15475 7249 17748 9522 17748 12498 ct 17748 15475 15475 17748 12498 17748 ct 
9522 17748 7249 15475 7249 12498 ct 7249 9522 9522 7249 12498 7249 ct pc
7249 7249 m  7249 7249 l  pc
17749 17749 m  17749 17749 l  pc
0.449 0.625 0.812 c 12498 2299 m  12611 2299 12698 2386 12698 2499 ct 12698 2612 12611 2699 12498 2699 ct 
12385 2699 12298 2612 12298 2499 ct 12298 2386 12385 2299 12498 2299 ct p ef
0.207 0.398 0.687 c 12498 2299 m  12611 2299 12698 2386 12698 2499 ct 12698 2612 12611 2699 12498 2699 ct 
12385 2699 12298 2612 12298 2499 ct 12298 2386 12385 2299 12498 2299 ct pc
12298 2299 m  12298 2299 l  pc
12699 2700 m  12699 2700 l  pc
0.449 0.625 0.812 c 3839 17298 m  3952 17298 4039 17385 4039 17498 ct 4039 17611 3952 17698 3839 17698 ct 
3726 17698 3639 17611 3639 17498 ct 3639 17385 3726 17298 3839 17298 ct p ef
0.207 0.398 0.687 c 3839 17298 m  3952 17298 4039 17385 4039 17498 ct 4039 17611 3952 17698 3839 17698 ct 
3726 17698 3639 17611 3639 17498 ct 3639 17385 3726 17298 3839 17298 ct pc
3639 17298 m  3639 17298 l  pc
4040 17699 m  4040 17699 l  pc
0.449 0.625 0.812 c 21158 17298 m  21271 17298 21358 17385 21358 17498 ct 
21358 17611 21271 17698 21158 17698 ct 21045 17698 20958 17611 20958 17498 ct 
20958 17385 21045 17298 21158 17298 ct p ef
0.207 0.398 0.687 c 21158 17298 m  21271 17298 21358 17385 21358 17498 ct 
21358 17611 21271 17698 21158 17698 ct 21045 17698 20958 17611 20958 17498 ct 
20958 17385 21045 17298 21158 17298 ct pc
20958 17298 m  20958 17298 l  pc
21359 17699 m  21359 17699 l  pc
51 lw 0.003 0.003 0.003 c 4234 18398 m  20764 18398 l  ps
3839 18398 m  4252 18536 l  4252 18261 l  3839 18398 l  p ef
21158 18398 m  20746 18261 l  20746 18536 l  21158 18398 l  p ef
50 lw 3839 17498 m  3839 18598 l  ps
21158 17498 m  21158 18598 l  ps
pum
11254 19036 t
70 -47 m  161 -47 l  161 -361 l  62 -341 l  62 -392 l  160 -412 l  216 -412 l 
216 -47 l  307 -47 l  307 0 l  70 0 l  70 -47 l  p ef
406 -411 m  671 -411 l  671 -387 l  521 1 l  463 1 l  604 -364 l  406 -364 l 
406 -411 l  p ef
786 -70 m  844 -70 l  844 -22 l  799 66 l  764 66 l  786 -22 l  786 -70 l 
p ef
1126 -222 m  1152 -216 1173 -204 1188 -186 ct 1203 -168 1211 -146 1211 -120 ct 
1211 -79 1197 -48 1169 -25 ct 1141 -3 1101 8 1050 8 ct 1033 8 1015 6 997 3 ct 978 -1 959 -6 940 -12 ct 
940 -66 l  955 -57 972 -50 991 -46 ct 1009 -41 1028 -39 1048 -39 ct 1083 -39 1110 -46 1128 -60 ct 
1146 -73 1155 -93 1155 -120 ct 1155 -144 1147 -163 1130 -176 ct 1113 -190 1089 -197 1059 -197 ct 
1011 -197 l  1011 -243 l  1061 -243 l  1089 -243 1109 -248 1124 -259 ct 1138 -270 1146 -286 1146 -306 ct 
1146 -328 1138 -344 1123 -355 ct 1108 -366 1087 -372 1059 -372 ct 1044 -372 1027 -370 1010 -367 ct 
992 -364 973 -359 952 -352 ct 952 -401 l  973 -407 993 -411 1012 -414 ct 1030 -417 1048 -419 1064 -419 ct 
1106 -419 1140 -409 1164 -390 ct 1189 -371 1201 -345 1201 -312 ct 1201 -289 1195 -270 1181 -254 ct 
1168 -239 1150 -228 1126 -222 ct p ef
1365 -47 m  1559 -47 l  1559 0 l  1298 0 l  1298 -47 l  1319 -69 1348 -98 1385 -135 ct 
1421 -172 1444 -195 1453 -206 ct 1471 -226 1484 -243 1491 -257 ct 1498 -271 1501 -284 1501 -298 ct 
1501 -320 1494 -338 1478 -351 ct 1463 -365 1443 -372 1418 -372 ct 1401 -372 1383 -369 1363 -363 ct 
1344 -357 1323 -348 1301 -335 ct 1301 -392 l  1323 -401 1344 -407 1364 -412 ct 
1383 -417 1401 -419 1417 -419 ct 1460 -419 1494 -408 1519 -387 ct 1545 -366 1557 -337 1557 -301 ct 
1557 -285 1554 -269 1548 -253 ct 1541 -238 1530 -220 1513 -200 ct 1509 -194 1494 -179 1469 -154 ct 
1445 -128 1410 -93 1365 -47 ct p ef
pom
pum
12871 19036 t
275 -297 m  275 -249 l  261 -257 246 -263 232 -267 ct 218 -271 203 -273 188 -273 ct 
156 -273 130 -263 112 -242 ct 94 -221 85 -192 85 -154 ct 85 -116 94 -87 112 -66 ct 
130 -45 156 -35 188 -35 ct 203 -35 218 -37 232 -41 ct 246 -45 261 -51 275 -59 ct 
275 -12 l  261 -5 246 0 231 3 ct 216 6 200 8 183 8 ct 136 8 100 -7 72 -36 ct 45 -65 31 -104 31 -154 ct 
31 -204 45 -244 73 -273 ct 100 -302 138 -316 186 -316 ct 202 -316 217 -314 232 -311 ct 
247 -308 261 -303 275 -297 ct p ef
602 -249 m  615 -272 630 -289 648 -300 ct 665 -311 686 -316 710 -316 ct 742 -316 767 -305 784 -282 ct 
802 -260 810 -228 810 -186 ct 810 0 l  760 0 l  760 -185 l  760 -214 754 -236 744 -250 ct 
733 -265 717 -272 696 -272 ct 670 -272 649 -263 634 -246 ct 618 -228 611 -205 611 -174 ct 
611 0 l  560 0 l  560 -185 l  560 -214 555 -236 544 -251 ct 534 -265 518 -272 496 -272 ct 
470 -272 449 -263 434 -246 ct 419 -228 411 -204 411 -174 ct 411 0 l  360 0 l 
360 -309 l  411 -309 l  411 -261 l  423 -280 437 -294 453 -303 ct 469 -312 488 -316 510 -316 ct 
533 -316 552 -310 567 -299 ct 583 -288 595 -271 602 -249 ct p ef
pom
1499 17498 m  23997 17498 l  ps
51 lw 13299 2894 m  13299 17105 l  ps
13298 2499 m  13161 2912 l  13436 2912 l  13298 2499 l  p ef
13298 17498 m  13436 17086 l  13161 17086 l  13298 17498 l  p ef
50 lw 12598 2499 m  13498 2499 l  ps
12598 17498 m  13498 17498 l  ps
pum
13059 11392 t
90.0 r 250 -193 m  262 -189 274 -180 285 -167 ct 296 -154 308 -136 319 -113 ct 
376 0 l  316 0 l  263 -106 l  250 -133 237 -151 224 -160 ct 211 -170 194 -174 172 -174 ct 
111 -174 l  111 0 l  55 0 l  55 -412 l  181 -412 l  228 -412 263 -402 286 -382 ct 
309 -363 321 -333 321 -293 ct 321 -267 315 -246 303 -229 ct 291 -212 273 -200 250 -193 ct 
p
111 -366 m  111 -220 l  181 -220 l  208 -220 228 -226 242 -238 ct 255 -251 262 -269 262 -293 ct 
262 -317 255 -335 242 -348 ct 228 -360 208 -366 181 -366 ct 111 -366 l  p ef
627 -256 m  980 -256 l  980 -210 l  627 -210 l  627 -256 l  p
627 -144 m  980 -144 l  980 -97 l  627 -97 l  627 -144 l  p ef
pom
pum
13059 10177 t
90.0 r 70 -47 m  161 -47 l  161 -361 l  62 -341 l  62 -392 l  160 -412 l 
216 -412 l  216 -47 l  307 -47 l  307 0 l  70 0 l  70 -47 l  p ef
421 -411 m  639 -411 l  639 -364 l  472 -364 l  472 -264 l  480 -266 488 -268 496 -270 ct 
504 -271 512 -272 520 -272 ct 566 -272 603 -259 629 -234 ct 656 -209 670 -175 670 -132 ct 
670 -88 656 -53 628 -29 ct 601 -4 562 8 512 8 ct 494 8 477 7 459 4 ct 441 1 423 -4 404 -10 ct 
404 -66 l  420 -57 437 -50 455 -45 ct 472 -41 491 -39 511 -39 ct 542 -39 568 -47 586 -64 ct 
605 -81 614 -103 614 -132 ct 614 -161 605 -183 586 -200 ct 568 -217 542 -225 511 -225 ct 
496 -225 481 -223 466 -220 ct 451 -217 436 -212 421 -205 ct 421 -411 l  p ef
pom
pum
13059 9457 t
90.0 r 275 -297 m  275 -249 l  261 -257 246 -263 232 -267 ct 218 -271 203 -273 188 -273 ct 
156 -273 130 -263 112 -242 ct 94 -221 85 -192 85 -154 ct 85 -116 94 -87 112 -66 ct 
130 -45 156 -35 188 -35 ct 203 -35 218 -37 232 -41 ct 246 -45 261 -51 275 -59 ct 
275 -12 l  261 -5 246 0 231 3 ct 216 6 200 8 183 8 ct 136 8 100 -7 72 -36 ct 45 -65 31 -104 31 -154 ct 
31 -204 45 -244 73 -273 ct 100 -302 138 -316 186 -316 ct 202 -316 217 -314 232 -311 ct 
247 -308 261 -303 275 -297 ct p ef
602 -249 m  615 -272 630 -289 648 -300 ct 665 -311 686 -316 710 -316 ct 742 -316 767 -305 784 -282 ct 
802 -260 810 -228 810 -186 ct 810 0 l  760 0 l  760 -185 l  760 -214 754 -236 744 -250 ct 
733 -265 717 -272 696 -272 ct 670 -272 649 -263 634 -246 ct 618 -228 611 -205 611 -174 ct 
611 0 l  560 0 l  560 -185 l  560 -214 555 -236 544 -251 ct 534 -265 518 -272 496 -272 ct 
470 -272 449 -263 434 -246 ct 419 -228 411 -204 411 -174 ct 411 0 l  360 0 l 
360 -309 l  411 -309 l  411 -261 l  423 -280 437 -294 453 -303 ct 469 -312 488 -316 510 -316 ct 
533 -316 552 -310 567 -299 ct 583 -288 595 -271 602 -249 ct p ef
pom
pum
3025 17249 t
1.000 1.000 1.000 c 217 -401 m  132 -171 l  302 -171 l  217 -401 l  p
181 -463 m  252 -463 l  428 -1 l  363 -1 l  321 -119 l  113 -119 l  71 -1 l 
5 -1 l  181 -463 l  p ef
pom
pum
21548 17112 t
125 -221 m  125 -51 l  225 -51 l  259 -51 284 -58 300 -72 ct 316 -86 324 -108 324 -136 ct 
324 -165 316 -187 300 -200 ct 284 -214 259 -221 225 -221 ct 125 -221 l  p
125 -411 m  125 -272 l  217 -272 l  248 -272 271 -277 286 -289 ct 301 -300 308 -318 308 -341 ct 
308 -364 301 -382 286 -393 ct 271 -405 248 -411 217 -411 ct 125 -411 l  p
62 -462 m  222 -462 l  270 -462 306 -452 332 -432 ct 358 -413 371 -384 371 -348 ct 
371 -320 364 -297 351 -281 ct 338 -264 318 -254 293 -249 ct 324 -243 348 -229 365 -208 ct 
382 -187 390 -161 390 -130 ct 390 -88 376 -56 348 -34 ct 320 -11 280 0 228 0 ct 
62 0 l  62 -462 l  p ef
pom
pum
11690 2213 t
408 -426 m  408 -361 l  387 -380 365 -395 341 -404 ct 317 -414 292 -419 265 -419 ct 
212 -419 172 -403 144 -371 ct 116 -338 102 -292 102 -231 ct 102 -170 116 -123 144 -91 ct 
172 -59 212 -42 265 -42 ct 292 -42 317 -47 341 -57 ct 365 -67 387 -81 408 -101 ct 
408 -36 l  386 -21 363 -10 339 -2 ct 314 5 289 9 261 9 ct 191 9 136 -12 96 -55 ct 
56 -98 36 -156 36 -231 ct 36 -305 56 -363 96 -406 ct 136 -449 191 -470 261 -470 ct 
289 -470 315 -467 339 -459 ct 364 -452 387 -441 408 -426 ct p ef
pom
0 23051 t 
pom
count op_count sub {pop} repeat countdictstack dict_count sub {end} repeat b4_inc_state restore
%%PageTrailer
%%Trailer
%%EOF
