%!PS-Adobe-3.0 EPSF-3.0 
%%BoundingBox: 0 0 425 255
%%Pages: 0
%%Creator: LibreOffice 4.0
%%Title: none
%%CreationDate: none
%%LanguageLevel: 2
%%EndComments
%%BeginProlog
%%BeginResource: procset SDRes-Prolog 1.0 0
/b4_inc_state save def
/dict_count countdictstack def
/op_count count 1 sub def
userdict begin
0 setgray 0 setlinecap 1 setlinewidth 0 setlinejoin 10 setmiterlimit[] 0 setdash newpath
/languagelevel where {pop languagelevel 1 ne {false setstrokeadjust false setoverprint} if} if
/bdef {bind def} bind def
/c {setrgbcolor} bdef
/l {neg lineto} bdef
/rl {neg rlineto} bdef
/lc {setlinecap} bdef
/lj {setlinejoin} bdef
/lw {setlinewidth} bdef
/ml {setmiterlimit} bdef
/ld {setdash} bdef
/m {neg moveto} bdef
/ct {6 2 roll neg 6 2 roll neg 6 2 roll neg curveto} bdef
/r {rotate} bdef
/t {neg translate} bdef
/s {scale} bdef
/sw {show} bdef
/gs {gsave} bdef
/gr {grestore} bdef
/f {findfont dup length dict begin
{1 index /FID ne {def} {pop pop} ifelse} forall /Encoding ISOLatin1Encoding def
currentdict end /NFont exch definefont pop /NFont findfont} bdef
/p {closepath} bdef
/sf {scalefont setfont} bdef
/ef {eofill}bdef
/pc {closepath stroke}bdef
/ps {stroke}bdef
/pum {matrix currentmatrix}bdef
/pom {setmatrix}bdef
/bs {/aString exch def /nXOfs exch def /nWidth exch def currentpoint nXOfs 0 rmoveto pum nWidth aString stringwidth pop div 1 scale aString show pom moveto} bdef
%%EndResource
%%EndProlog
%%BeginSetup
%%EndSetup
%%Page: 1 1
%%BeginPageSetup
%%EndPageSetup
pum
0.02833 0.02833 s 
0 -9001 t
/tm matrix currentmatrix def
tm setmatrix
7500 4500 t 
1 1 s 
1.000 1.000 1.000 c 0 4500 m  -7500 4500 l  -7500 -4500 l  7500 -4500 l 
7500 4500 l  0 4500 l  p ef
30 lw 1 lj 0.703 0.703 0.703 c 711 2692 m  -5012 2692 l  -5012 -3446 l 
6435 -3446 l  6435 2692 l  711 2692 l  pc
-5012 -3448 m  -5012 2691 l  ps
-3377 -3448 m  -3377 2691 l  ps
-1742 -3448 m  -1742 2691 l  ps
-106 -3448 m  -106 2691 l  ps
1528 -3448 m  1528 2691 l  ps
3164 -3448 m  3164 2691 l  ps
4799 -3448 m  4799 2691 l  ps
6435 -3448 m  6435 2691 l  ps
6435 2691 m  -5012 2691 l  ps
6435 1667 m  -5012 1667 l  ps
6435 644 m  -5012 644 l  ps
6435 -378 m  -5012 -378 l  ps
6435 -1401 m  -5012 -1401 l  ps
6435 -2424 m  -5012 -2424 l  ps
6435 -3448 m  -5012 -3448 l  ps
-5012 2841 m  -5012 2691 l  ps
-5012 2841 m  -5012 2691 l  ps
-3377 2841 m  -3377 2691 l  ps
-3377 2841 m  -3377 2691 l  ps
-1742 2841 m  -1742 2691 l  ps
-1742 2841 m  -1742 2691 l  ps
-106 2841 m  -106 2691 l  ps
-106 2841 m  -106 2691 l  ps
1528 2841 m  1528 2691 l  ps
1528 2841 m  1528 2691 l  ps
3164 2841 m  3164 2691 l  ps
3164 2841 m  3164 2691 l  ps
4799 2841 m  4799 2691 l  ps
4799 2841 m  4799 2691 l  ps
6435 2841 m  6435 2691 l  ps
6435 2841 m  6435 2691 l  ps
-5012 2691 m  6435 2691 l  ps
-5162 2691 m  -5012 2691 l  ps
-5162 2691 m  -5012 2691 l  ps
-5162 1667 m  -5012 1667 l  ps
-5162 1667 m  -5012 1667 l  ps
-5162 644 m  -5012 644 l  ps
-5162 644 m  -5012 644 l  ps
-5162 -378 m  -5012 -378 l  ps
-5162 -378 m  -5012 -378 l  ps
-5162 -1401 m  -5012 -1401 l  ps
-5162 -1401 m  -5012 -1401 l  ps
-5162 -2424 m  -5012 -2424 l  ps
-5162 -2424 m  -5012 -2424 l  ps
-5162 -3448 m  -5012 -3448 l  ps
-5162 -3448 m  -5012 -3448 l  ps
-5012 2691 m  -5012 -3448 l  ps
1.000 0.261 0.058 c 1399 -456 m  1524 -331 l  1649 -456 l  1524 -581 l  1399 -456 l 
p ef
0 lw 1399 -456 m  1524 -331 l  1649 -456 l  1524 -581 l  1399 -456 l  pc
1652 42 m  1777 167 l  1902 42 l  1777 -82 l  1652 42 l  p ef
1652 42 m  1777 167 l  1902 42 l  1777 -82 l  1652 42 l  pc
1740 -54 m  1865 70 l  1990 -54 l  1865 -179 l  1740 -54 l  p ef
1740 -54 m  1865 70 l  1990 -54 l  1865 -179 l  1740 -54 l  pc
2810 -165 m  2935 -40 l  3060 -165 l  2935 -290 l  2810 -165 l  p ef
2810 -165 m  2935 -40 l  3060 -165 l  2935 -290 l  2810 -165 l  pc
0.003 0.273 0.527 c -3347 -1496 m  -3347 -1246 l  -3097 -1246 l  -3097 -1496 l 
-3347 -1496 l  p ef
-3347 -1496 m  -3347 -1246 l  -3097 -1246 l  -3097 -1496 l  -3347 -1496 l 
pc
-3056 -1565 m  -3056 -1315 l  -2806 -1315 l  -2806 -1565 l  -3056 -1565 l 
p ef
-3056 -1565 m  -3056 -1315 l  -2806 -1315 l  -2806 -1565 l  -3056 -1565 l 
pc
-2735 -2716 m  -2735 -2466 l  -2485 -2466 l  -2485 -2716 l  -2735 -2716 l 
p ef
-2735 -2716 m  -2735 -2466 l  -2485 -2466 l  -2485 -2716 l  -2735 -2716 l 
pc
-2705 -927 m  -2705 -677 l  -2455 -677 l  -2455 -927 l  -2705 -927 l  p ef
-2705 -927 m  -2705 -677 l  -2455 -677 l  -2455 -927 l  -2705 -927 l  pc
-2637 -1801 m  -2637 -1551 l  -2387 -1551 l  -2387 -1801 l  -2637 -1801 l 
p ef
-2637 -1801 m  -2637 -1551 l  -2387 -1551 l  -2387 -1801 l  -2637 -1801 l 
pc
-1295 -345 m  -1295 -95 l  -1045 -95 l  -1045 -345 l  -1295 -345 l  p ef
-1295 -345 m  -1295 -95 l  -1045 -95 l  -1045 -345 l  -1295 -345 l  pc
-944 70 m  -944 320 l  -694 320 l  -694 70 l  -944 70 l  p ef
-944 70 m  -944 320 l  -694 320 l  -694 70 l  -944 70 l  pc
-886 70 m  -886 320 l  -636 320 l  -636 70 l  -886 70 l  p ef
-886 70 m  -886 320 l  -636 320 l  -636 70 l  -886 70 l  pc
-769 -511 m  -769 -261 l  -519 -261 l  -519 -511 l  -769 -511 l  p ef
-769 -511 m  -769 -261 l  -519 -261 l  -519 -511 l  -769 -511 l  pc
-341 1 m  -341 251 l  -91 251 l  -91 1 l  -341 1 l  p ef
-341 1 m  -341 251 l  -91 251 l  -91 1 l  -341 1 l  pc
-283 514 m  -283 764 l  -33 764 l  -33 514 l  -283 514 l  p ef
-283 514 m  -283 764 l  -33 764 l  -33 514 l  -283 514 l  pc
-127 624 m  -127 874 l  122 874 l  122 624 l  -127 624 l  p ef
-127 624 m  -127 874 l  122 874 l  122 624 l  -127 624 l  pc
-98 597 m  -98 847 l  151 847 l  151 597 l  -98 597 l  p ef
-98 597 m  -98 847 l  151 847 l  151 597 l  -98 597 l  pc
57 -206 m  57 43 l  307 43 l  307 -206 l  57 -206 l  p ef
57 -206 m  57 43 l  307 43 l  307 -206 l  57 -206 l  pc
1477 624 m  1477 874 l  1727 874 l  1727 624 l  1477 624 l  p ef
1477 624 m  1477 874 l  1727 874 l  1727 624 l  1477 624 l  pc
1730 874 m  1730 1124 l  1980 1124 l  1980 874 l  1730 874 l  p ef
1730 874 m  1730 1124 l  1980 1124 l  1980 874 l  1730 874 l  pc
1769 791 m  1769 1041 l  2019 1041 l  2019 791 l  1769 791 l  p ef
1769 791 m  1769 1041 l  2019 1041 l  2019 791 l  1769 791 l  pc
2012 1096 m  2012 1346 l  2262 1346 l  2262 1096 l  2012 1096 l  p ef
2012 1096 m  2012 1346 l  2262 1346 l  2262 1096 l  2012 1096 l  pc
2032 514 m  2032 764 l  2282 764 l  2282 514 l  2032 514 l  p ef
2032 514 m  2032 764 l  2282 764 l  2282 514 l  2032 514 l  pc
2275 763 m  2275 1013 l  2525 1013 l  2525 763 l  2275 763 l  p ef
2275 763 m  2275 1013 l  2525 1013 l  2525 763 l  2275 763 l  pc
2362 1068 m  2362 1318 l  2612 1318 l  2612 1068 l  2362 1068 l  p ef
2362 1068 m  2362 1318 l  2612 1318 l  2612 1068 l  2362 1068 l  pc
5427 1179 m  5427 1429 l  5677 1429 l  5677 1179 l  5427 1179 l  p ef
5427 1179 m  5427 1429 l  5677 1429 l  5677 1179 l  5427 1179 l  pc
5427 1068 m  5427 1318 l  5677 1318 l  5677 1068 l  5427 1068 l  p ef
5427 1068 m  5427 1318 l  5677 1318 l  5677 1068 l  5427 1068 l  pc
5427 1013 m  5427 1263 l  5677 1263 l  5677 1013 l  5427 1013 l  p ef
5427 1013 m  5427 1263 l  5677 1263 l  5677 1013 l  5427 1013 l  pc
5427 1137 m  5427 1387 l  5677 1387 l  5677 1137 l  5427 1137 l  p ef
5427 1137 m  5427 1387 l  5677 1387 l  5677 1137 l  5427 1137 l  pc
5427 1110 m  5427 1360 l  5677 1360 l  5677 1110 l  5427 1110 l  p ef
5427 1110 m  5427 1360 l  5677 1360 l  5677 1110 l  5427 1110 l  pc
5427 1124 m  5427 1374 l  5677 1374 l  5677 1124 l  5427 1124 l  p ef
5427 1124 m  5427 1374 l  5677 1374 l  5677 1124 l  5427 1124 l  pc
5427 1207 m  5427 1457 l  5677 1457 l  5677 1207 l  5427 1207 l  p ef
5427 1207 m  5427 1457 l  5677 1457 l  5677 1207 l  5427 1207 l  pc
50 lw -3768 -3448 m  -3611 -2937 l  -3377 -2366 l  -3143 -1918 l  -2910 -1557 l 
-2676 -1257 l  -2443 -1005 l  -2209 -788 l  -1975 -600 l  -1742 -435 l 
-1508 -289 l  -1274 -159 l  -1041 -41 l  -807 64 l  -573 161 l  -340 249 l 
-106 330 l  126 405 l  360 475 l  594 539 l  827 599 l  1061 655 l  1295 708 l 
1528 757 l  1762 804 l  1995 848 l  2229 889 l  2463 928 l  2696 966 l 
2930 1001 l  3164 1035 l  3397 1067 l  3631 1097 l  3865 1126 l  4098 1154 l 
4332 1181 l  4565 1207 l  4799 1231 l  5033 1255 l  5266 1278 l  5500 1300 l 
5734 1321 l  5967 1341 l  6201 1360 l  6435 1379 l  ps
pum
-5475 3259 t
0.003 0.003 0.003 c 112 -235 m  94 -235 81 -226 72 -208 ct 63 -191 58 -164 58 -129 ct 
58 -93 63 -67 72 -49 ct 81 -31 94 -23 112 -23 ct 130 -23 144 -31 153 -49 ct 162 -67 166 -93 166 -129 ct 
166 -164 162 -191 153 -208 ct 144 -226 130 -235 112 -235 ct p
112 -263 m  141 -263 163 -251 178 -228 ct 194 -205 201 -172 201 -129 ct 201 -85 194 -52 178 -29 ct 
163 -6 141 5 112 5 ct 83 5 61 -6 46 -29 ct 31 -52 23 -85 23 -129 ct 23 -172 31 -205 46 -228 ct 
61 -251 83 -263 112 -263 ct p ef
247 -258 m  409 -258 l  409 -229 l  281 -229 l  281 -152 l  404 -152 l 
404 -123 l  281 -123 l  281 -29 l  412 -29 l  412 0 l  247 0 l  247 -258 l 
p ef
585 -222 m  585 -125 l  681 -125 l  681 -96 l  585 -96 l  585 0 l  556 0 l 
556 -96 l  460 -96 l  460 -125 l  556 -125 l  556 -222 l  585 -222 l  p ef
826 -235 m  808 -235 795 -226 786 -208 ct 777 -191 772 -164 772 -129 ct 772 -93 777 -67 786 -49 ct 
795 -31 808 -23 826 -23 ct 844 -23 858 -31 867 -49 ct 876 -67 880 -93 880 -129 ct 
880 -164 876 -191 867 -208 ct 858 -226 844 -235 826 -235 ct p
826 -263 m  855 -263 877 -251 892 -228 ct 908 -205 915 -172 915 -129 ct 915 -85 908 -52 892 -29 ct 
877 -6 855 5 826 5 ct 797 5 775 -6 760 -29 ct 745 -52 737 -85 737 -129 ct 737 -172 745 -205 760 -228 ct 
775 -251 797 -263 826 -263 ct p ef
pom
pum
-3840 3259 t
68 -29 m  189 -29 l  189 0 l  26 0 l  26 -29 l  39 -43 57 -61 80 -84 ct 103 -108 117 -122 123 -129 ct 
134 -142 142 -152 146 -161 ct 151 -170 153 -178 153 -187 ct 153 -200 148 -211 139 -220 ct 
129 -229 116 -233 101 -233 ct 90 -233 79 -231 66 -227 ct 54 -224 41 -218 28 -210 ct 
28 -245 l  42 -251 55 -255 67 -258 ct 79 -261 90 -262 100 -262 ct 127 -262 148 -256 164 -242 ct 
180 -229 188 -211 188 -189 ct 188 -178 186 -168 182 -159 ct 178 -149 171 -138 160 -125 ct 
157 -122 148 -112 133 -96 ct 118 -80 96 -58 68 -29 ct p ef
247 -258 m  409 -258 l  409 -229 l  281 -229 l  281 -152 l  404 -152 l 
404 -123 l  281 -123 l  281 -29 l  412 -29 l  412 0 l  247 0 l  247 -258 l 
p ef
585 -222 m  585 -125 l  681 -125 l  681 -96 l  585 -96 l  585 0 l  556 0 l 
556 -96 l  460 -96 l  460 -125 l  556 -125 l  556 -222 l  585 -222 l  p ef
743 -257 m  908 -257 l  908 -243 l  815 1 l  779 1 l  867 -228 l  743 -228 l 
743 -257 l  p ef
pom
pum
-2205 3259 t
133 -228 m  46 -90 l  133 -90 l  133 -228 l  p
124 -258 m  168 -258 l  168 -90 l  205 -90 l  205 -61 l  168 -61 l  168 0 l 
133 0 l  133 -61 l  17 -61 l  17 -95 l  124 -258 l  p ef
247 -258 m  409 -258 l  409 -229 l  281 -229 l  281 -152 l  404 -152 l 
404 -123 l  281 -123 l  281 -29 l  412 -29 l  412 0 l  247 0 l  247 -258 l 
p ef
585 -222 m  585 -125 l  681 -125 l  681 -96 l  585 -96 l  585 0 l  556 0 l 
556 -96 l  460 -96 l  460 -125 l  556 -125 l  556 -222 l  585 -222 l  p ef
743 -257 m  908 -257 l  908 -243 l  815 1 l  779 1 l  867 -228 l  743 -228 l 
743 -257 l  p ef
pom
pum
-569 3259 t
117 -143 m  101 -143 89 -138 79 -127 ct 70 -116 66 -101 66 -83 ct 66 -64 70 -50 79 -39 ct 
89 -28 101 -23 117 -23 ct 132 -23 145 -28 154 -39 ct 163 -50 167 -64 167 -83 ct 
167 -101 163 -116 154 -127 ct 145 -138 132 -143 117 -143 ct p
186 -252 m  186 -220 l  177 -224 168 -228 159 -230 ct 150 -232 141 -233 133 -233 ct 
110 -233 92 -225 80 -210 ct 68 -194 61 -171 59 -140 ct 66 -150 75 -157 85 -163 ct 
95 -168 106 -171 119 -171 ct 144 -171 165 -163 180 -147 ct 195 -131 202 -110 202 -83 ct 
202 -56 195 -35 179 -19 ct 163 -3 142 5 117 5 ct 87 5 64 -6 48 -29 ct 33 -52 25 -85 25 -129 ct 
25 -169 34 -202 54 -226 ct 73 -250 99 -262 131 -262 ct 140 -262 149 -261 158 -260 ct 
167 -258 176 -255 186 -252 ct p ef
247 -258 m  409 -258 l  409 -229 l  281 -229 l  281 -152 l  404 -152 l 
404 -123 l  281 -123 l  281 -29 l  412 -29 l  412 0 l  247 0 l  247 -258 l 
p ef
585 -222 m  585 -125 l  681 -125 l  681 -96 l  585 -96 l  585 0 l  556 0 l 
556 -96 l  460 -96 l  460 -125 l  556 -125 l  556 -222 l  585 -222 l  p ef
743 -257 m  908 -257 l  908 -243 l  815 1 l  779 1 l  867 -228 l  743 -228 l 
743 -257 l  p ef
pom
pum
1066 3259 t
112 -123 m  96 -123 83 -118 73 -109 ct 64 -100 59 -88 59 -73 ct 59 -57 64 -45 73 -36 ct 
83 -27 96 -23 112 -23 ct 129 -23 142 -27 151 -36 ct 161 -45 166 -57 166 -73 ct 
166 -88 161 -100 151 -109 ct 142 -118 129 -123 112 -123 ct p
77 -137 m  62 -141 51 -148 42 -158 ct 34 -169 30 -181 30 -196 ct 30 -216 37 -233 52 -245 ct 
67 -257 87 -263 112 -263 ct 138 -263 158 -257 173 -245 ct 187 -233 194 -216 194 -196 ct 
194 -181 190 -169 182 -158 ct 174 -148 162 -141 147 -137 ct 164 -133 177 -126 186 -114 ct 
196 -103 200 -89 200 -73 ct 200 -48 193 -28 178 -15 ct 162 -2 141 5 112 5 ct 84 5 62 -2 47 -15 ct 
32 -28 24 -48 24 -73 ct 24 -89 29 -103 38 -114 ct 48 -126 61 -133 77 -137 ct p
65 -192 m  65 -179 69 -169 77 -161 ct 85 -154 97 -150 112 -150 ct 127 -150 139 -154 147 -161 ct 
156 -169 160 -179 160 -192 ct 160 -206 156 -216 147 -224 ct 139 -231 127 -235 112 -235 ct 
97 -235 85 -231 77 -224 ct 69 -216 65 -206 65 -192 ct p ef
247 -258 m  409 -258 l  409 -229 l  281 -229 l  281 -152 l  404 -152 l 
404 -123 l  281 -123 l  281 -29 l  412 -29 l  412 0 l  247 0 l  247 -258 l 
p ef
585 -222 m  585 -125 l  681 -125 l  681 -96 l  585 -96 l  585 0 l  556 0 l 
556 -96 l  460 -96 l  460 -125 l  556 -125 l  556 -222 l  585 -222 l  p ef
743 -257 m  908 -257 l  908 -243 l  815 1 l  779 1 l  867 -228 l  743 -228 l 
743 -257 l  p ef
pom
pum
2702 3259 t
44 -29 m  101 -29 l  101 -226 l  39 -213 l  39 -245 l  100 -258 l  135 -258 l 
135 -29 l  192 -29 l  192 0 l  44 0 l  44 -29 l  p ef
247 -258 m  409 -258 l  409 -229 l  281 -229 l  281 -152 l  404 -152 l 
404 -123 l  281 -123 l  281 -29 l  412 -29 l  412 0 l  247 0 l  247 -258 l 
p ef
585 -222 m  585 -125 l  681 -125 l  681 -96 l  585 -96 l  585 0 l  556 0 l 
556 -96 l  460 -96 l  460 -125 l  556 -125 l  556 -222 l  585 -222 l  p ef
826 -123 m  810 -123 797 -118 787 -109 ct 778 -100 773 -88 773 -73 ct 773 -57 778 -45 787 -36 ct 
797 -27 810 -23 826 -23 ct 843 -23 856 -27 865 -36 ct 875 -45 880 -57 880 -73 ct 
880 -88 875 -100 865 -109 ct 856 -118 843 -123 826 -123 ct p
791 -137 m  776 -141 765 -148 756 -158 ct 748 -169 744 -181 744 -196 ct 744 -216 751 -233 766 -245 ct 
781 -257 801 -263 826 -263 ct 852 -263 872 -257 887 -245 ct 901 -233 908 -216 908 -196 ct 
908 -181 904 -169 896 -158 ct 888 -148 876 -141 861 -137 ct 878 -133 891 -126 900 -114 ct 
910 -103 914 -89 914 -73 ct 914 -48 907 -28 892 -15 ct 876 -2 855 5 826 5 ct 798 5 776 -2 761 -15 ct 
746 -28 738 -48 738 -73 ct 738 -89 743 -103 752 -114 ct 762 -126 775 -133 791 -137 ct 
p
779 -192 m  779 -179 783 -169 791 -161 ct 799 -154 811 -150 826 -150 ct 841 -150 853 -154 861 -161 ct 
870 -169 874 -179 874 -192 ct 874 -206 870 -216 861 -224 ct 853 -231 841 -235 826 -235 ct 
811 -235 799 -231 791 -224 ct 783 -216 779 -206 779 -192 ct p ef
pom
pum
4337 3259 t
44 -29 m  101 -29 l  101 -226 l  39 -213 l  39 -245 l  100 -258 l  135 -258 l 
135 -29 l  192 -29 l  192 0 l  44 0 l  44 -29 l  p ef
247 -258 m  409 -258 l  409 -229 l  281 -229 l  281 -152 l  404 -152 l 
404 -123 l  281 -123 l  281 -29 l  412 -29 l  412 0 l  247 0 l  247 -258 l 
p ef
585 -222 m  585 -125 l  681 -125 l  681 -96 l  585 -96 l  585 0 l  556 0 l 
556 -96 l  460 -96 l  460 -125 l  556 -125 l  556 -222 l  585 -222 l  p ef
826 -123 m  810 -123 797 -118 787 -109 ct 778 -100 773 -88 773 -73 ct 773 -57 778 -45 787 -36 ct 
797 -27 810 -23 826 -23 ct 843 -23 856 -27 865 -36 ct 875 -45 880 -57 880 -73 ct 
880 -88 875 -100 865 -109 ct 856 -118 843 -123 826 -123 ct p
791 -137 m  776 -141 765 -148 756 -158 ct 748 -169 744 -181 744 -196 ct 744 -216 751 -233 766 -245 ct 
781 -257 801 -263 826 -263 ct 852 -263 872 -257 887 -245 ct 901 -233 908 -216 908 -196 ct 
908 -181 904 -169 896 -158 ct 888 -148 876 -141 861 -137 ct 878 -133 891 -126 900 -114 ct 
910 -103 914 -89 914 -73 ct 914 -48 907 -28 892 -15 ct 876 -2 855 5 826 5 ct 798 5 776 -2 761 -15 ct 
746 -28 738 -48 738 -73 ct 738 -89 743 -103 752 -114 ct 762 -126 775 -133 791 -137 ct 
p
779 -192 m  779 -179 783 -169 791 -161 ct 799 -154 811 -150 826 -150 ct 841 -150 853 -154 861 -161 ct 
870 -169 874 -179 874 -192 ct 874 -206 870 -216 861 -224 ct 853 -231 841 -235 826 -235 ct 
811 -235 799 -231 791 -224 ct 783 -216 779 -206 779 -192 ct p ef
pom
pum
5973 3259 t
44 -29 m  101 -29 l  101 -226 l  39 -213 l  39 -245 l  100 -258 l  135 -258 l 
135 -29 l  192 -29 l  192 0 l  44 0 l  44 -29 l  p ef
247 -258 m  409 -258 l  409 -229 l  281 -229 l  281 -152 l  404 -152 l 
404 -123 l  281 -123 l  281 -29 l  412 -29 l  412 0 l  247 0 l  247 -258 l 
p ef
585 -222 m  585 -125 l  681 -125 l  681 -96 l  585 -96 l  585 0 l  556 0 l 
556 -96 l  460 -96 l  460 -125 l  556 -125 l  556 -222 l  585 -222 l  p ef
826 -123 m  810 -123 797 -118 787 -109 ct 778 -100 773 -88 773 -73 ct 773 -57 778 -45 787 -36 ct 
797 -27 810 -23 826 -23 ct 843 -23 856 -27 865 -36 ct 875 -45 880 -57 880 -73 ct 
880 -88 875 -100 865 -109 ct 856 -118 843 -123 826 -123 ct p
791 -137 m  776 -141 765 -148 756 -158 ct 748 -169 744 -181 744 -196 ct 744 -216 751 -233 766 -245 ct 
781 -257 801 -263 826 -263 ct 852 -263 872 -257 887 -245 ct 901 -233 908 -216 908 -196 ct 
908 -181 904 -169 896 -158 ct 888 -148 876 -141 861 -137 ct 878 -133 891 -126 900 -114 ct 
910 -103 914 -89 914 -73 ct 914 -48 907 -28 892 -15 ct 876 -2 855 5 826 5 ct 798 5 776 -2 761 -15 ct 
746 -28 738 -48 738 -73 ct 738 -89 743 -103 752 -114 ct 762 -126 775 -133 791 -137 ct 
p
779 -192 m  779 -179 783 -169 791 -161 ct 799 -154 811 -150 826 -150 ct 841 -150 853 -154 861 -161 ct 
870 -169 874 -179 874 -192 ct 874 -206 870 -216 861 -224 ct 853 -231 841 -235 826 -235 ct 
811 -235 799 -231 791 -224 ct 783 -216 779 -206 779 -192 ct p ef
pom
pum
-6188 2812 t
112 -235 m  94 -235 81 -226 72 -208 ct 63 -191 58 -164 58 -129 ct 58 -93 63 -67 72 -49 ct 
81 -31 94 -23 112 -23 ct 130 -23 144 -31 153 -49 ct 162 -67 166 -93 166 -129 ct 
166 -164 162 -191 153 -208 ct 144 -226 130 -235 112 -235 ct p
112 -263 m  141 -263 163 -251 178 -228 ct 194 -205 201 -172 201 -129 ct 201 -85 194 -52 178 -29 ct 
163 -6 141 5 112 5 ct 83 5 61 -6 46 -29 ct 31 -52 23 -85 23 -129 ct 23 -172 31 -205 46 -228 ct 
61 -251 83 -263 112 -263 ct p ef
247 -258 m  409 -258 l  409 -229 l  281 -229 l  281 -152 l  404 -152 l 
404 -123 l  281 -123 l  281 -29 l  412 -29 l  412 0 l  247 0 l  247 -258 l 
p ef
585 -222 m  585 -125 l  681 -125 l  681 -96 l  585 -96 l  585 0 l  556 0 l 
556 -96 l  460 -96 l  460 -125 l  556 -125 l  556 -222 l  585 -222 l  p ef
826 -235 m  808 -235 795 -226 786 -208 ct 777 -191 772 -164 772 -129 ct 772 -93 777 -67 786 -49 ct 
795 -31 808 -23 826 -23 ct 844 -23 858 -31 867 -49 ct 876 -67 880 -93 880 -129 ct 
880 -164 876 -191 867 -208 ct 858 -226 844 -235 826 -235 ct p
826 -263 m  855 -263 877 -251 892 -228 ct 908 -205 915 -172 915 -129 ct 915 -85 908 -52 892 -29 ct 
877 -6 855 5 826 5 ct 797 5 775 -6 760 -29 ct 745 -52 737 -85 737 -129 ct 737 -172 745 -205 760 -228 ct 
775 -251 797 -263 826 -263 ct p ef
pom
pum
-6029 1788 t
44 -29 m  101 -29 l  101 -226 l  39 -213 l  39 -245 l  100 -258 l  135 -258 l 
135 -29 l  192 -29 l  192 0 l  44 0 l  44 -29 l  p ef
247 -258 m  409 -258 l  409 -229 l  281 -229 l  281 -152 l  404 -152 l 
404 -123 l  281 -123 l  281 -29 l  412 -29 l  412 0 l  247 0 l  247 -258 l 
p ef
440 -111 m  533 -111 l  533 -83 l  440 -83 l  440 -111 l  p ef
699 -139 m  716 -135 729 -128 738 -117 ct 748 -105 752 -91 752 -75 ct 752 -49 744 -30 726 -16 ct 
709 -2 684 5 652 5 ct 641 5 630 4 618 2 ct 607 0 595 -4 583 -8 ct 583 -41 l  593 -36 603 -32 615 -29 ct 
626 -26 638 -24 651 -24 ct 672 -24 689 -29 701 -37 ct 712 -46 718 -58 718 -75 ct 
718 -90 712 -102 702 -110 ct 691 -119 676 -123 657 -123 ct 627 -123 l  627 -152 l 
659 -152 l  676 -152 689 -155 698 -162 ct 707 -169 712 -179 712 -192 ct 712 -205 707 -215 698 -222 ct 
688 -229 675 -233 657 -233 ct 648 -233 638 -232 627 -230 ct 616 -228 604 -225 591 -220 ct 
591 -251 l  604 -255 616 -258 628 -260 ct 639 -261 650 -262 660 -262 ct 687 -262 708 -256 723 -244 ct 
739 -232 746 -216 746 -196 ct 746 -181 742 -169 734 -159 ct 726 -150 714 -143 699 -139 ct 
p ef
pom
pum
-6029 765 t
68 -29 m  189 -29 l  189 0 l  26 0 l  26 -29 l  39 -43 57 -61 80 -84 ct 103 -108 117 -122 123 -129 ct 
134 -142 142 -152 146 -161 ct 151 -170 153 -178 153 -187 ct 153 -200 148 -211 139 -220 ct 
129 -229 116 -233 101 -233 ct 90 -233 79 -231 66 -227 ct 54 -224 41 -218 28 -210 ct 
28 -245 l  42 -251 55 -255 67 -258 ct 79 -261 90 -262 100 -262 ct 127 -262 148 -256 164 -242 ct 
180 -229 188 -211 188 -189 ct 188 -178 186 -168 182 -159 ct 178 -149 171 -138 160 -125 ct 
157 -122 148 -112 133 -96 ct 118 -80 96 -58 68 -29 ct p ef
247 -258 m  409 -258 l  409 -229 l  281 -229 l  281 -152 l  404 -152 l 
404 -123 l  281 -123 l  281 -29 l  412 -29 l  412 0 l  247 0 l  247 -258 l 
p ef
440 -111 m  533 -111 l  533 -83 l  440 -83 l  440 -111 l  p ef
699 -139 m  716 -135 729 -128 738 -117 ct 748 -105 752 -91 752 -75 ct 752 -49 744 -30 726 -16 ct 
709 -2 684 5 652 5 ct 641 5 630 4 618 2 ct 607 0 595 -4 583 -8 ct 583 -41 l  593 -36 603 -32 615 -29 ct 
626 -26 638 -24 651 -24 ct 672 -24 689 -29 701 -37 ct 712 -46 718 -58 718 -75 ct 
718 -90 712 -102 702 -110 ct 691 -119 676 -123 657 -123 ct 627 -123 l  627 -152 l 
659 -152 l  676 -152 689 -155 698 -162 ct 707 -169 712 -179 712 -192 ct 712 -205 707 -215 698 -222 ct 
688 -229 675 -233 657 -233 ct 648 -233 638 -232 627 -230 ct 616 -228 604 -225 591 -220 ct 
591 -251 l  604 -255 616 -258 628 -260 ct 639 -261 650 -262 660 -262 ct 687 -262 708 -256 723 -244 ct 
739 -232 746 -216 746 -196 ct 746 -181 742 -169 734 -159 ct 726 -150 714 -143 699 -139 ct 
p ef
pom
pum
-6029 -258 t
143 -139 m  160 -135 173 -128 182 -117 ct 192 -105 196 -91 196 -75 ct 196 -49 188 -30 170 -16 ct 
153 -2 128 5 96 5 ct 85 5 74 4 62 2 ct 51 0 39 -4 27 -8 ct 27 -41 l  37 -36 47 -32 59 -29 ct 
70 -26 82 -24 95 -24 ct 116 -24 133 -29 145 -37 ct 156 -46 162 -58 162 -75 ct 162 -90 156 -102 146 -110 ct 
135 -119 120 -123 101 -123 ct 71 -123 l  71 -152 l  103 -152 l  120 -152 133 -155 142 -162 ct 
151 -169 156 -179 156 -192 ct 156 -205 151 -215 142 -222 ct 132 -229 119 -233 101 -233 ct 
92 -233 82 -232 71 -230 ct 60 -228 48 -225 35 -220 ct 35 -251 l  48 -255 60 -258 72 -260 ct 
83 -261 94 -262 104 -262 ct 131 -262 152 -256 167 -244 ct 183 -232 190 -216 190 -196 ct 
190 -181 186 -169 178 -159 ct 170 -150 158 -143 143 -139 ct p ef
247 -258 m  409 -258 l  409 -229 l  281 -229 l  281 -152 l  404 -152 l 
404 -123 l  281 -123 l  281 -29 l  412 -29 l  412 0 l  247 0 l  247 -258 l 
p ef
440 -111 m  533 -111 l  533 -83 l  440 -83 l  440 -111 l  p ef
699 -139 m  716 -135 729 -128 738 -117 ct 748 -105 752 -91 752 -75 ct 752 -49 744 -30 726 -16 ct 
709 -2 684 5 652 5 ct 641 5 630 4 618 2 ct 607 0 595 -4 583 -8 ct 583 -41 l  593 -36 603 -32 615 -29 ct 
626 -26 638 -24 651 -24 ct 672 -24 689 -29 701 -37 ct 712 -46 718 -58 718 -75 ct 
718 -90 712 -102 702 -110 ct 691 -119 676 -123 657 -123 ct 627 -123 l  627 -152 l 
659 -152 l  676 -152 689 -155 698 -162 ct 707 -169 712 -179 712 -192 ct 712 -205 707 -215 698 -222 ct 
688 -229 675 -233 657 -233 ct 648 -233 638 -232 627 -230 ct 616 -228 604 -225 591 -220 ct 
591 -251 l  604 -255 616 -258 628 -260 ct 639 -261 650 -262 660 -262 ct 687 -262 708 -256 723 -244 ct 
739 -232 746 -216 746 -196 ct 746 -181 742 -169 734 -159 ct 726 -150 714 -143 699 -139 ct 
p ef
pom
pum
-6029 -1281 t
133 -228 m  46 -90 l  133 -90 l  133 -228 l  p
124 -258 m  168 -258 l  168 -90 l  205 -90 l  205 -61 l  168 -61 l  168 0 l 
133 0 l  133 -61 l  17 -61 l  17 -95 l  124 -258 l  p ef
247 -258 m  409 -258 l  409 -229 l  281 -229 l  281 -152 l  404 -152 l 
404 -123 l  281 -123 l  281 -29 l  412 -29 l  412 0 l  247 0 l  247 -258 l 
p ef
440 -111 m  533 -111 l  533 -83 l  440 -83 l  440 -111 l  p ef
699 -139 m  716 -135 729 -128 738 -117 ct 748 -105 752 -91 752 -75 ct 752 -49 744 -30 726 -16 ct 
709 -2 684 5 652 5 ct 641 5 630 4 618 2 ct 607 0 595 -4 583 -8 ct 583 -41 l  593 -36 603 -32 615 -29 ct 
626 -26 638 -24 651 -24 ct 672 -24 689 -29 701 -37 ct 712 -46 718 -58 718 -75 ct 
718 -90 712 -102 702 -110 ct 691 -119 676 -123 657 -123 ct 627 -123 l  627 -152 l 
659 -152 l  676 -152 689 -155 698 -162 ct 707 -169 712 -179 712 -192 ct 712 -205 707 -215 698 -222 ct 
688 -229 675 -233 657 -233 ct 648 -233 638 -232 627 -230 ct 616 -228 604 -225 591 -220 ct 
591 -251 l  604 -255 616 -258 628 -260 ct 639 -261 650 -262 660 -262 ct 687 -262 708 -256 723 -244 ct 
739 -232 746 -216 746 -196 ct 746 -181 742 -169 734 -159 ct 726 -150 714 -143 699 -139 ct 
p ef
pom
pum
-6029 -2304 t
38 -258 m  175 -258 l  175 -229 l  70 -229 l  70 -165 l  75 -167 80 -168 85 -169 ct 
90 -170 95 -170 100 -170 ct 129 -170 152 -162 169 -147 ct 185 -131 194 -110 194 -83 ct 
194 -55 185 -33 168 -18 ct 151 -3 126 5 95 5 ct 84 5 73 4 62 2 ct 51 0 39 -2 27 -6 ct 
27 -41 l  38 -35 48 -31 59 -28 ct 70 -26 82 -24 94 -24 ct 114 -24 130 -30 142 -40 ct 
153 -51 159 -65 159 -83 ct 159 -101 153 -115 142 -125 ct 130 -136 114 -141 94 -141 ct 
85 -141 76 -140 66 -138 ct 57 -136 48 -133 38 -128 ct 38 -258 l  p ef
247 -258 m  409 -258 l  409 -229 l  281 -229 l  281 -152 l  404 -152 l 
404 -123 l  281 -123 l  281 -29 l  412 -29 l  412 0 l  247 0 l  247 -258 l 
p ef
440 -111 m  533 -111 l  533 -83 l  440 -83 l  440 -111 l  p ef
699 -139 m  716 -135 729 -128 738 -117 ct 748 -105 752 -91 752 -75 ct 752 -49 744 -30 726 -16 ct 
709 -2 684 5 652 5 ct 641 5 630 4 618 2 ct 607 0 595 -4 583 -8 ct 583 -41 l  593 -36 603 -32 615 -29 ct 
626 -26 638 -24 651 -24 ct 672 -24 689 -29 701 -37 ct 712 -46 718 -58 718 -75 ct 
718 -90 712 -102 702 -110 ct 691 -119 676 -123 657 -123 ct 627 -123 l  627 -152 l 
659 -152 l  676 -152 689 -155 698 -162 ct 707 -169 712 -179 712 -192 ct 712 -205 707 -215 698 -222 ct 
688 -229 675 -233 657 -233 ct 648 -233 638 -232 627 -230 ct 616 -228 604 -225 591 -220 ct 
591 -251 l  604 -255 616 -258 628 -260 ct 639 -261 650 -262 660 -262 ct 687 -262 708 -256 723 -244 ct 
739 -232 746 -216 746 -196 ct 746 -181 742 -169 734 -159 ct 726 -150 714 -143 699 -139 ct 
p ef
pom
pum
-6029 -3328 t
117 -143 m  101 -143 89 -138 79 -127 ct 70 -116 66 -101 66 -83 ct 66 -64 70 -50 79 -39 ct 
89 -28 101 -23 117 -23 ct 132 -23 145 -28 154 -39 ct 163 -50 167 -64 167 -83 ct 
167 -101 163 -116 154 -127 ct 145 -138 132 -143 117 -143 ct p
186 -252 m  186 -220 l  177 -224 168 -228 159 -230 ct 150 -232 141 -233 133 -233 ct 
110 -233 92 -225 80 -210 ct 68 -194 61 -171 59 -140 ct 66 -150 75 -157 85 -163 ct 
95 -168 106 -171 119 -171 ct 144 -171 165 -163 180 -147 ct 195 -131 202 -110 202 -83 ct 
202 -56 195 -35 179 -19 ct 163 -3 142 5 117 5 ct 87 5 64 -6 48 -29 ct 33 -52 25 -85 25 -129 ct 
25 -169 34 -202 54 -226 ct 73 -250 99 -262 131 -262 ct 140 -262 149 -261 158 -260 ct 
167 -258 176 -255 186 -252 ct p ef
247 -258 m  409 -258 l  409 -229 l  281 -229 l  281 -152 l  404 -152 l 
404 -123 l  281 -123 l  281 -29 l  412 -29 l  412 0 l  247 0 l  247 -258 l 
p ef
440 -111 m  533 -111 l  533 -83 l  440 -83 l  440 -111 l  p ef
699 -139 m  716 -135 729 -128 738 -117 ct 748 -105 752 -91 752 -75 ct 752 -49 744 -30 726 -16 ct 
709 -2 684 5 652 5 ct 641 5 630 4 618 2 ct 607 0 595 -4 583 -8 ct 583 -41 l  593 -36 603 -32 615 -29 ct 
626 -26 638 -24 651 -24 ct 672 -24 689 -29 701 -37 ct 712 -46 718 -58 718 -75 ct 
718 -90 712 -102 702 -110 ct 691 -119 676 -123 657 -123 ct 627 -123 l  627 -152 l 
659 -152 l  676 -152 689 -155 698 -162 ct 707 -169 712 -179 712 -192 ct 712 -205 707 -215 698 -222 ct 
688 -229 675 -233 657 -233 ct 648 -233 638 -232 627 -230 ct 616 -228 604 -225 591 -220 ct 
591 -251 l  604 -255 616 -258 628 -260 ct 639 -261 650 -262 660 -262 ct 687 -262 708 -256 723 -244 ct 
739 -232 746 -216 746 -196 ct 746 -181 742 -169 734 -159 ct 726 -150 714 -143 699 -139 ct 
p ef
pom
pum
-2077 -1451 t
131 -269 m  131 -243 l  101 -243 l  89 -243 81 -240 77 -236 ct 73 -231 70 -223 70 -211 ct 
70 -194 l  123 -194 l  123 -169 l  70 -169 l  70 -1 l  38 -1 l  38 -169 l 
8 -169 l  8 -194 l  38 -194 l  38 -207 l  38 -229 43 -244 53 -254 ct 63 -264 79 -269 101 -269 ct 
131 -269 l  p ef
241 -269 m  226 -243 215 -216 207 -190 ct 200 -165 196 -138 196 -112 ct 196 -85 200 -59 207 -33 ct 
215 -7 226 19 241 46 ct 214 46 l  197 19 184 -8 175 -34 ct 167 -60 162 -86 162 -112 ct 
162 -137 167 -163 175 -189 ct 184 -215 197 -242 214 -269 ct 241 -269 l  p ef
459 -193 m  389 -99 l  462 0 l  425 0 l  369 -76 l  313 0 l  275 0 l  350 -101 l 
282 -193 l  319 -193 l  370 -124 l  421 -193 l  459 -193 l  p ef
504 -269 m  532 -269 l  549 -242 562 -215 571 -189 ct 579 -163 583 -137 583 -112 ct 
583 -86 579 -60 571 -34 ct 562 -8 549 19 532 46 ct 504 46 l  520 19 531 -7 538 -33 ct 
546 -59 550 -85 550 -112 ct 550 -138 546 -165 538 -190 ct 531 -216 520 -243 504 -269 ct 
p ef
751 -161 m  972 -161 l  972 -132 l  751 -132 l  751 -161 l  p
751 -90 m  972 -90 l  972 -61 l  751 -61 l  751 -90 l  p ef
1149 -258 m  1286 -258 l  1286 -229 l  1181 -229 l  1181 -165 l  1186 -167 1191 -168 1196 -169 ct 
1201 -170 1206 -170 1211 -170 ct 1240 -170 1263 -162 1280 -147 ct 1296 -131 1305 -110 1305 -83 ct 
1305 -55 1296 -33 1279 -18 ct 1262 -3 1237 5 1206 5 ct 1195 5 1184 4 1173 2 ct 
1162 0 1150 -2 1138 -6 ct 1138 -41 l  1149 -35 1159 -31 1170 -28 ct 1181 -26 1193 -24 1205 -24 ct 
1225 -24 1241 -30 1253 -40 ct 1264 -51 1270 -65 1270 -83 ct 1270 -101 1264 -115 1253 -125 ct 
1241 -136 1225 -141 1205 -141 ct 1196 -141 1187 -140 1177 -138 ct 1168 -136 1159 -133 1149 -128 ct 
1149 -258 l  p ef
1352 -257 m  1517 -257 l  1517 -243 l  1424 1 l  1388 1 l  1476 -228 l 
1352 -228 l  1352 -257 l  p ef
1668 -228 m  1581 -90 l  1668 -90 l  1668 -228 l  p
1659 -258 m  1703 -258 l  1703 -90 l  1740 -90 l  1740 -61 l  1703 -61 l 
1703 0 l  1668 0 l  1668 -61 l  1552 -61 l  1552 -95 l  1659 -258 l  p ef
1787 -44 m  1824 -44 l  1824 -14 l  1795 41 l  1773 41 l  1787 -14 l  1787 -44 l 
p ef
1964 -235 m  1946 -235 1933 -226 1924 -208 ct 1915 -191 1910 -164 1910 -129 ct 
1910 -93 1915 -67 1924 -49 ct 1933 -31 1946 -23 1964 -23 ct 1982 -23 1996 -31 2005 -49 ct 
2014 -67 2018 -93 2018 -129 ct 2018 -164 2014 -191 2005 -208 ct 1996 -226 1982 -235 1964 -235 ct 
p
1964 -263 m  1993 -263 2015 -251 2030 -228 ct 2046 -205 2053 -172 2053 -129 ct 
2053 -85 2046 -52 2030 -29 ct 2015 -6 1993 5 1964 5 ct 1935 5 1913 -6 1898 -29 ct 
1883 -52 1875 -85 1875 -129 ct 1875 -172 1883 -205 1898 -228 ct 1913 -251 1935 -263 1964 -263 ct 
p ef
2176 -235 m  2158 -235 2145 -226 2136 -208 ct 2127 -191 2122 -164 2122 -129 ct 
2122 -93 2127 -67 2136 -49 ct 2145 -31 2158 -23 2176 -23 ct 2194 -23 2208 -31 2217 -49 ct 
2226 -67 2230 -93 2230 -129 ct 2230 -164 2226 -191 2217 -208 ct 2208 -226 2194 -235 2176 -235 ct 
p
2176 -263 m  2205 -263 2227 -251 2242 -228 ct 2258 -205 2265 -172 2265 -129 ct 
2265 -85 2258 -52 2242 -29 ct 2227 -6 2205 5 2176 5 ct 2147 5 2125 -6 2110 -29 ct 
2095 -52 2087 -85 2087 -129 ct 2087 -172 2095 -205 2110 -228 ct 2125 -251 2147 -263 2176 -263 ct 
p ef
2575 -193 m  2505 -99 l  2578 0 l  2541 0 l  2485 -76 l  2429 0 l  2391 0 l 
2466 -101 l  2398 -193 l  2435 -193 l  2486 -124 l  2537 -193 l  2575 -193 l 
p ef
2758 -258 m  2851 -162 l  2817 -162 l  2741 -230 l  2665 -162 l  2630 -162 l 
2724 -258 l  2758 -258 l  p ef
2901 -111 m  2994 -111 l  2994 -83 l  2901 -83 l  2901 -111 l  p ef
3128 -235 m  3110 -235 3097 -226 3088 -208 ct 3079 -191 3074 -164 3074 -129 ct 
3074 -93 3079 -67 3088 -49 ct 3097 -31 3110 -23 3128 -23 ct 3146 -23 3160 -31 3169 -49 ct 
3178 -67 3182 -93 3182 -129 ct 3182 -164 3178 -191 3169 -208 ct 3160 -226 3146 -235 3128 -235 ct 
p
3128 -263 m  3157 -263 3179 -251 3194 -228 ct 3210 -205 3217 -172 3217 -129 ct 
3217 -85 3210 -52 3194 -29 ct 3179 -6 3157 5 3128 5 ct 3099 5 3077 -6 3062 -29 ct 
3047 -52 3039 -85 3039 -129 ct 3039 -172 3047 -205 3062 -228 ct 3077 -251 3099 -263 3128 -263 ct 
p ef
3269 -44 m  3306 -44 l  3306 -14 l  3277 41 l  3255 41 l  3269 -14 l  3269 -44 l 
p ef
3451 -143 m  3435 -143 3423 -138 3413 -127 ct 3404 -116 3400 -101 3400 -83 ct 
3400 -64 3404 -50 3413 -39 ct 3423 -28 3435 -23 3451 -23 ct 3466 -23 3479 -28 3488 -39 ct 
3497 -50 3501 -64 3501 -83 ct 3501 -101 3497 -116 3488 -127 ct 3479 -138 3466 -143 3451 -143 ct 
p
3520 -252 m  3520 -220 l  3511 -224 3502 -228 3493 -230 ct 3484 -232 3475 -233 3467 -233 ct 
3444 -233 3426 -225 3414 -210 ct 3402 -194 3395 -171 3393 -140 ct 3400 -150 3409 -157 3419 -163 ct 
3429 -168 3440 -171 3453 -171 ct 3478 -171 3499 -163 3514 -147 ct 3529 -131 3536 -110 3536 -83 ct 
3536 -56 3529 -35 3513 -19 ct 3497 -3 3476 5 3451 5 ct 3421 5 3398 -6 3382 -29 ct 
3367 -52 3359 -85 3359 -129 ct 3359 -169 3368 -202 3388 -226 ct 3407 -250 3433 -262 3465 -262 ct 
3474 -262 3483 -261 3492 -260 ct 3501 -258 3510 -255 3520 -252 ct p ef
3584 -5 m  3584 -37 l  3593 -33 3601 -30 3610 -28 ct 3619 -25 3628 -24 3637 -24 ct 
3660 -24 3677 -32 3689 -47 ct 3701 -63 3708 -86 3710 -118 ct 3703 -108 3695 -100 3685 -95 ct 
3675 -90 3663 -87 3651 -87 ct 3625 -87 3605 -95 3590 -110 ct 3575 -126 3567 -148 3567 -175 ct 
3567 -201 3575 -223 3591 -239 ct 3606 -255 3627 -263 3653 -263 ct 3683 -263 3706 -251 3721 -228 ct 
3737 -205 3745 -172 3745 -129 ct 3745 -88 3735 -56 3716 -31 ct 3697 -7 3671 5 3638 5 ct 
3630 5 3621 4 3612 2 ct 3603 1 3593 -2 3584 -5 ct p
3653 -114 m  3669 -114 3681 -120 3690 -130 ct 3699 -141 3704 -156 3704 -175 ct 
3704 -193 3699 -208 3690 -219 ct 3681 -230 3669 -235 3653 -235 ct 3637 -235 3625 -230 3616 -219 ct 
3607 -208 3602 -193 3602 -175 ct 3602 -156 3607 -141 3616 -130 ct 3625 -120 3637 -114 3653 -114 ct 
p ef
pom
pum
-2077 -1054 t
157 -121 m  164 -118 171 -113 178 -105 ct 186 -96 193 -85 200 -70 ct 235 0 l 
198 0 l  165 -66 l  156 -83 148 -95 140 -101 ct 132 -106 121 -109 107 -109 ct 
69 -109 l  69 0 l  35 0 l  35 -258 l  113 -258 l  143 -258 165 -252 179 -239 ct 
194 -227 201 -208 201 -184 ct 201 -167 197 -154 190 -143 ct 182 -132 171 -125 157 -121 ct 
p
69 -229 m  69 -138 l  113 -138 l  130 -138 143 -142 151 -149 ct 160 -157 164 -168 164 -184 ct 
164 -199 160 -210 151 -218 ct 143 -225 130 -229 113 -229 ct 69 -229 l  p ef
284 -135 m  357 -135 l  357 -115 l  254 -115 l  254 -134 l  258 -138 264 -143 271 -149 ct 
310 -184 330 -207 330 -218 ct 330 -225 327 -232 321 -236 ct 315 -241 307 -243 298 -243 ct 
292 -243 285 -242 278 -240 ct 271 -238 264 -235 255 -231 ct 255 -252 l  264 -256 272 -258 280 -260 ct 
288 -261 295 -262 301 -262 ct 318 -262 331 -258 341 -251 ct 351 -243 356 -233 356 -221 ct 
356 -205 337 -180 299 -148 ct 293 -142 288 -138 284 -135 ct p ef
513 -161 m  734 -161 l  734 -132 l  513 -132 l  513 -161 l  p
513 -90 m  734 -90 l  734 -61 l  513 -61 l  513 -90 l  p ef
985 -235 m  967 -235 954 -226 945 -208 ct 936 -191 931 -164 931 -129 ct 931 -93 936 -67 945 -49 ct 
954 -31 967 -23 985 -23 ct 1003 -23 1017 -31 1026 -49 ct 1035 -67 1039 -93 1039 -129 ct 
1039 -164 1035 -191 1026 -208 ct 1017 -226 1003 -235 985 -235 ct p
985 -263 m  1014 -263 1036 -251 1051 -228 ct 1067 -205 1074 -172 1074 -129 ct 
1074 -85 1067 -52 1051 -29 ct 1036 -6 1014 5 985 5 ct 956 5 934 -6 919 -29 ct 904 -52 896 -85 896 -129 ct 
896 -172 904 -205 919 -228 ct 934 -251 956 -263 985 -263 ct p ef
1126 -44 m  1163 -44 l  1163 -14 l  1134 41 l  1112 41 l  1126 -14 l  1126 -44 l 
p ef
1230 -5 m  1230 -37 l  1239 -33 1247 -30 1256 -28 ct 1265 -25 1274 -24 1283 -24 ct 
1306 -24 1323 -32 1335 -47 ct 1347 -63 1354 -86 1356 -118 ct 1349 -108 1341 -100 1331 -95 ct 
1321 -90 1309 -87 1297 -87 ct 1271 -87 1251 -95 1236 -110 ct 1221 -126 1213 -148 1213 -175 ct 
1213 -201 1221 -223 1237 -239 ct 1252 -255 1273 -263 1299 -263 ct 1329 -263 1352 -251 1367 -228 ct 
1383 -205 1391 -172 1391 -129 ct 1391 -88 1381 -56 1362 -31 ct 1343 -7 1317 5 1284 5 ct 
1276 5 1267 4 1258 2 ct 1249 1 1239 -2 1230 -5 ct p
1299 -114 m  1315 -114 1327 -120 1336 -130 ct 1345 -141 1350 -156 1350 -175 ct 
1350 -193 1345 -208 1336 -219 ct 1327 -230 1315 -235 1299 -235 ct 1283 -235 1271 -230 1262 -219 ct 
1253 -208 1248 -193 1248 -175 ct 1248 -156 1253 -141 1262 -130 ct 1271 -120 1283 -114 1299 -114 ct 
p ef
1514 -235 m  1496 -235 1483 -226 1474 -208 ct 1465 -191 1460 -164 1460 -129 ct 
1460 -93 1465 -67 1474 -49 ct 1483 -31 1496 -23 1514 -23 ct 1532 -23 1546 -31 1555 -49 ct 
1564 -67 1568 -93 1568 -129 ct 1568 -164 1564 -191 1555 -208 ct 1546 -226 1532 -235 1514 -235 ct 
p
1514 -263 m  1543 -263 1565 -251 1580 -228 ct 1596 -205 1603 -172 1603 -129 ct 
1603 -85 1596 -52 1580 -29 ct 1565 -6 1543 5 1514 5 ct 1485 5 1463 -6 1448 -29 ct 
1433 -52 1425 -85 1425 -129 ct 1425 -172 1433 -205 1448 -228 ct 1463 -251 1485 -263 1514 -263 ct 
p ef
pom
pum
-2409 3906 t
31 -232 m  73 -232 l  176 -38 l  176 -232 l  207 -232 l  207 0 l  164 0 l 
62 -194 l  62 0 l  31 0 l  31 -232 l  p ef
265 -69 m  265 -174 l  294 -174 l  294 -70 l  294 -54 297 -41 303 -33 ct 
310 -25 319 -21 332 -21 ct 348 -21 360 -26 369 -36 ct 378 -45 382 -59 382 -76 ct 
382 -174 l  411 -174 l  411 0 l  382 0 l  382 -27 l  375 -17 367 -9 358 -4 ct 
349 1 338 4 326 4 ct 306 4 291 -2 281 -15 ct 270 -27 265 -45 265 -69 ct p
p ef
615 -140 m  623 -153 631 -163 641 -169 ct 651 -175 663 -178 676 -178 ct 694 -178 708 -172 718 -159 ct 
728 -146 733 -128 733 -105 ct 733 0 l  704 0 l  704 -104 l  704 -121 701 -133 695 -141 ct 
689 -149 680 -153 668 -153 ct 653 -153 642 -148 633 -138 ct 624 -129 620 -115 620 -98 ct 
620 0 l  591 0 l  591 -104 l  591 -121 589 -133 583 -141 ct 577 -149 568 -153 555 -153 ct 
541 -153 529 -148 520 -138 ct 512 -128 508 -115 508 -98 ct 508 0 l  479 0 l 
479 -174 l  508 -174 l  508 -147 l  514 -157 522 -165 531 -170 ct 540 -175 551 -178 564 -178 ct 
576 -178 587 -175 596 -168 ct 605 -162 611 -153 615 -140 ct p ef
946 -95 m  946 -81 l  814 -81 l  816 -61 822 -46 832 -36 ct 843 -25 858 -20 876 -20 ct 
887 -20 898 -22 908 -24 ct 919 -27 929 -31 939 -36 ct 939 -9 l  929 -5 918 -2 908 1 ct 
897 3 886 4 875 4 ct 847 4 825 -4 809 -20 ct 793 -36 785 -58 785 -86 ct 785 -114 792 -137 808 -153 ct 
823 -170 844 -178 870 -178 ct 893 -178 912 -171 925 -156 ct 939 -141 946 -120 946 -95 ct 
p
917 -103 m  917 -119 913 -131 904 -140 ct 895 -149 884 -154 870 -154 ct 854 -154 841 -150 832 -141 ct 
822 -132 817 -119 815 -103 ct 917 -103 l  p ef
1084 -147 m  1081 -149 1077 -150 1073 -151 ct 1069 -152 1065 -153 1061 -153 ct 
1045 -153 1032 -147 1024 -137 ct 1015 -126 1011 -111 1011 -92 ct 1011 0 l  982 0 l 
982 -174 l  1011 -174 l  1011 -147 l  1017 -157 1024 -165 1034 -170 ct 1044 -175 1055 -178 1069 -178 ct 
1071 -178 1073 -178 1076 -178 ct 1078 -177 1081 -177 1084 -176 ct 1084 -147 l 
p ef
1182 -154 m  1167 -154 1155 -148 1146 -136 ct 1137 -124 1133 -108 1133 -87 ct 
1133 -66 1137 -50 1146 -38 ct 1155 -26 1167 -20 1182 -20 ct 1198 -20 1210 -26 1219 -38 ct 
1227 -50 1232 -66 1232 -87 ct 1232 -108 1227 -124 1219 -136 ct 1210 -148 1198 -154 1182 -154 ct 
p
1182 -178 m  1207 -178 1227 -170 1241 -154 ct 1255 -138 1262 -116 1262 -87 ct 
1262 -59 1255 -36 1241 -20 ct 1227 -4 1207 4 1182 4 ct 1157 4 1138 -4 1124 -20 ct 
1110 -36 1103 -59 1103 -87 ct 1103 -116 1110 -138 1124 -154 ct 1138 -170 1157 -178 1182 -178 ct 
p ef
1520 -147 m  1520 -241 l  1549 -241 l  1549 0 l  1520 0 l  1520 -26 l 
1514 -15 1507 -8 1498 -3 ct 1489 2 1478 5 1465 5 ct 1444 5 1427 -3 1413 -20 ct 
1400 -37 1394 -59 1394 -86 ct 1394 -114 1400 -136 1413 -153 ct 1427 -169 1444 -178 1465 -178 ct 
1478 -178 1489 -175 1498 -170 ct 1507 -165 1514 -158 1520 -147 ct p
1423 -86 m  1423 -65 1427 -49 1436 -37 ct 1445 -25 1457 -19 1472 -19 ct 1487 -19 1499 -25 1507 -37 ct 
1516 -49 1520 -65 1520 -86 ct 1520 -108 1516 -124 1507 -136 ct 1499 -148 1487 -154 1472 -154 ct 
1457 -154 1445 -148 1436 -136 ct 1427 -124 1423 -108 1423 -86 ct p ef
1618 -173 m  1647 -173 l  1647 1 l  1618 1 l  1618 -173 l  p
1618 -241 m  1647 -241 l  1647 -205 l  1618 -205 l  1618 -241 l  p ef
1914 -109 m  1921 -106 1927 -102 1934 -94 ct 1940 -87 1947 -76 1953 -63 ct 1985 0 l 
1951 0 l  1921 -59 l  1914 -75 1906 -85 1899 -90 ct 1892 -95 1882 -98 1870 -98 ct 
1836 -98 l  1836 0 l  1804 0 l  1804 -232 l  1875 -232 l  1902 -232 1921 -226 1934 -215 ct 
1947 -204 1954 -187 1954 -165 ct 1954 -150 1951 -138 1944 -129 ct 1937 -119 1927 -112 1914 -109 ct 
p
1836 -206 m  1836 -124 l  1875 -124 l  1890 -124 1902 -127 1909 -134 ct 1917 -141 1921 -151 1921 -165 ct 
1921 -179 1917 -189 1909 -196 ct 1902 -203 1890 -206 1875 -206 ct 1836 -206 l 
p ef
2093 -88 m  2070 -88 2054 -85 2045 -80 ct 2036 -75 2032 -66 2032 -53 ct 2032 -43 2035 -35 2042 -29 ct 
2048 -23 2057 -20 2069 -20 ct 2085 -20 2097 -26 2107 -37 ct 2117 -48 2121 -63 2121 -82 ct 
2121 -88 l  2093 -88 l  p
2150 -100 m  2150 -1 l  2121 -1 l  2121 -27 l  2115 -16 2107 -9 2097 -4 ct 
2087 1 2075 4 2061 4 ct 2044 4 2029 -1 2019 -11 ct 2008 -21 2003 -34 2003 -51 ct 
2003 -71 2010 -85 2023 -95 ct 2036 -105 2055 -110 2081 -110 ct 2121 -110 l  2121 -113 l 
2121 -126 2117 -136 2108 -143 ct 2100 -150 2088 -154 2072 -154 ct 2062 -154 2052 -153 2043 -150 ct 
2034 -148 2025 -145 2016 -140 ct 2016 -166 l  2026 -170 2036 -173 2046 -175 ct 
2056 -177 2066 -178 2075 -178 ct 2100 -178 2119 -172 2131 -159 ct 2144 -146 2150 -126 2150 -100 ct 
p ef
2272 16 m  2264 37 2256 50 2249 57 ct 2241 63 2231 66 2218 66 ct 2195 66 l  2195 42 l 
2212 42 l  2220 42 2226 40 2230 37 ct 2235 33 2239 24 2245 10 ct 2250 -3 l  2179 -174 l 
2210 -174 l  2264 -38 l  2318 -174 l  2349 -174 l  2272 16 l  p ef
2385 -241 m  2414 -241 l  2414 0 l  2385 0 l  2385 -241 l  p ef
2613 -95 m  2613 -81 l  2481 -81 l  2483 -61 2489 -46 2499 -36 ct 2510 -25 2525 -20 2543 -20 ct 
2554 -20 2565 -22 2575 -24 ct 2586 -27 2596 -31 2606 -36 ct 2606 -9 l  2596 -5 2585 -2 2575 1 ct 
2564 3 2553 4 2542 4 ct 2514 4 2492 -4 2476 -20 ct 2460 -36 2452 -58 2452 -86 ct 
2452 -114 2459 -137 2475 -153 ct 2490 -170 2511 -178 2537 -178 ct 2560 -178 2579 -171 2592 -156 ct 
2606 -141 2613 -120 2613 -95 ct p
2584 -103 m  2584 -119 2580 -131 2571 -140 ct 2562 -149 2551 -154 2537 -154 ct 
2521 -154 2508 -150 2499 -141 ct 2489 -132 2484 -119 2482 -103 ct 2584 -103 l 
p ef
2649 -173 m  2678 -173 l  2678 1 l  2649 1 l  2649 -173 l  p
2649 -241 m  2678 -241 l  2678 -205 l  2649 -205 l  2649 -241 l  p ef
2843 -89 m  2843 -110 2839 -126 2831 -137 ct 2822 -148 2810 -154 2795 -154 ct 
2779 -154 2767 -148 2759 -137 ct 2750 -126 2746 -110 2746 -89 ct 2746 -68 2750 -52 2759 -41 ct 
2767 -30 2779 -24 2795 -24 ct 2810 -24 2822 -30 2831 -41 ct 2839 -52 2843 -68 2843 -89 ct 
p
2872 -22 m  2872 8 2865 30 2852 44 ct 2839 59 2819 66 2792 66 ct 2782 66 2772 65 2763 64 ct 
2755 62 2746 60 2738 57 ct 2738 29 l  2746 34 2754 37 2762 39 ct 2771 41 2779 42 2787 42 ct 
2806 42 2820 38 2829 28 ct 2839 18 2843 3 2843 -17 ct 2843 -31 l  2838 -20 2830 -13 2821 -8 ct 
2812 -3 2801 0 2788 0 ct 2766 0 2749 -8 2736 -24 ct 2723 -41 2717 -62 2717 -89 ct 
2717 -116 2723 -137 2736 -154 ct 2749 -170 2766 -178 2788 -178 ct 2801 -178 2812 -175 2821 -170 ct 
2830 -165 2838 -158 2843 -147 ct 2843 -174 l  2872 -174 l  2872 -22 l  p ef
3085 -105 m  3085 0 l  3056 0 l  3056 -104 l  3056 -120 3053 -133 3046 -141 ct 
3040 -149 3030 -153 3017 -153 ct 3002 -153 2990 -148 2981 -138 ct 2972 -128 2968 -115 2968 -98 ct 
2968 0 l  2939 0 l  2939 -241 l  2968 -241 l  2968 -147 l  2974 -157 2982 -165 2992 -170 ct 
3001 -175 3012 -178 3024 -178 ct 3044 -178 3059 -172 3069 -159 ct 3079 -147 3085 -129 3085 -105 ct 
p ef
3369 -170 m  3369 -143 l  3361 -147 3352 -150 3344 -152 ct 3335 -154 3326 -155 3317 -155 ct 
3302 -155 3292 -153 3285 -148 ct 3278 -144 3274 -138 3274 -129 ct 3274 -122 3277 -117 3282 -113 ct 
3287 -109 3297 -106 3312 -102 ct 3322 -100 l  3342 -96 3357 -90 3365 -82 ct 
3374 -74 3378 -63 3378 -49 ct 3378 -32 3372 -20 3359 -10 ct 3346 -1 3329 4 3306 4 ct 
3297 4 3287 3 3277 1 ct 3267 -1 3256 -3 3245 -7 ct 3245 -36 l  3256 -31 3266 -27 3276 -24 ct 
3287 -21 3297 -20 3307 -20 ct 3320 -20 3331 -22 3338 -27 ct 3345 -31 3349 -38 3349 -46 ct 
3349 -54 3346 -60 3341 -64 ct 3336 -68 3324 -72 3307 -76 ct 3297 -79 l  3279 -82 3266 -88 3258 -96 ct 
3250 -103 3246 -114 3246 -128 ct 3246 -144 3252 -157 3264 -166 ct 3275 -174 3292 -179 3313 -179 ct 
3324 -179 3334 -178 3343 -177 ct 3352 -175 3361 -173 3369 -170 ct p ef
3484 -154 m  3469 -154 3457 -148 3448 -136 ct 3439 -124 3435 -108 3435 -87 ct 
3435 -66 3439 -50 3448 -38 ct 3457 -26 3469 -20 3484 -20 ct 3500 -20 3512 -26 3521 -38 ct 
3529 -50 3534 -66 3534 -87 ct 3534 -108 3529 -124 3521 -136 ct 3512 -148 3500 -154 3484 -154 ct 
p
3484 -178 m  3509 -178 3529 -170 3543 -154 ct 3557 -138 3564 -116 3564 -87 ct 
3564 -59 3557 -36 3543 -20 ct 3529 -4 3509 4 3484 4 ct 3459 4 3440 -4 3426 -20 ct 
3412 -36 3405 -59 3405 -87 ct 3405 -116 3412 -138 3426 -154 ct 3440 -170 3459 -178 3484 -178 ct 
p ef
3602 -241 m  3631 -241 l  3631 0 l  3602 0 l  3602 -241 l  p ef
3678 -69 m  3678 -174 l  3707 -174 l  3707 -70 l  3707 -54 3710 -41 3716 -33 ct 
3723 -25 3732 -21 3745 -21 ct 3761 -21 3773 -26 3782 -36 ct 3791 -45 3795 -59 3795 -76 ct 
3795 -174 l  3824 -174 l  3824 0 l  3795 0 l  3795 -27 l  3788 -17 3780 -9 3771 -4 ct 
3762 1 3751 4 3739 4 ct 3719 4 3704 -2 3694 -15 ct 3683 -27 3678 -45 3678 -69 ct 
p
p ef
3921 -223 m  3921 -174 l  3980 -174 l  3980 -152 l  3921 -152 l  3921 -57 l 
3921 -43 3923 -34 3927 -30 ct 3931 -26 3939 -24 3951 -24 ct 3980 -24 l  3980 0 l 
3951 0 l  3929 0 3913 -4 3905 -12 ct 3897 -21 3893 -36 3893 -57 ct 3893 -152 l 
3872 -152 l  3872 -174 l  3893 -174 l  3893 -223 l  3921 -223 l  p ef
4104 -88 m  4081 -88 4065 -85 4056 -80 ct 4047 -75 4043 -66 4043 -53 ct 4043 -43 4046 -35 4053 -29 ct 
4059 -23 4068 -20 4080 -20 ct 4096 -20 4108 -26 4118 -37 ct 4128 -48 4132 -63 4132 -82 ct 
4132 -88 l  4104 -88 l  p
4161 -100 m  4161 -1 l  4132 -1 l  4132 -27 l  4126 -16 4118 -9 4108 -4 ct 
4098 1 4086 4 4072 4 ct 4055 4 4040 -1 4030 -11 ct 4019 -21 4014 -34 4014 -51 ct 
4014 -71 4021 -85 4034 -95 ct 4047 -105 4066 -110 4092 -110 ct 4132 -110 l  4132 -113 l 
4132 -126 4128 -136 4119 -143 ct 4111 -150 4099 -154 4083 -154 ct 4073 -154 4063 -153 4054 -150 ct 
4045 -148 4036 -145 4027 -140 ct 4027 -166 l  4037 -170 4047 -173 4057 -175 ct 
4067 -177 4077 -178 4086 -178 ct 4111 -178 4130 -172 4142 -159 ct 4155 -146 4161 -126 4161 -100 ct 
p ef
4210 -241 m  4239 -241 l  4239 0 l  4210 0 l  4210 -241 l  p ef
4439 -95 m  4439 -81 l  4307 -81 l  4309 -61 4315 -46 4325 -36 ct 4336 -25 4351 -20 4369 -20 ct 
4380 -20 4391 -22 4401 -24 ct 4412 -27 4422 -31 4432 -36 ct 4432 -9 l  4422 -5 4411 -2 4401 1 ct 
4390 3 4379 4 4368 4 ct 4340 4 4318 -4 4302 -20 ct 4286 -36 4278 -58 4278 -86 ct 
4278 -114 4285 -137 4301 -153 ct 4316 -170 4337 -178 4363 -178 ct 4386 -178 4405 -171 4418 -156 ct 
4432 -141 4439 -120 4439 -95 ct p
4410 -103 m  4410 -119 4406 -131 4397 -140 ct 4388 -149 4377 -154 4363 -154 ct 
4347 -154 4334 -150 4325 -141 ct 4315 -132 4310 -119 4308 -103 ct 4410 -103 l 
p ef
4650 -241 m  4636 -217 4625 -194 4619 -170 ct 4612 -147 4609 -124 4609 -100 ct 
4609 -76 4612 -52 4619 -29 ct 4626 -5 4636 18 4650 42 ct 4625 42 l  4609 18 4598 -6 4590 -30 ct 
4582 -53 4578 -76 4578 -100 ct 4578 -123 4582 -146 4590 -169 ct 4597 -193 4609 -217 4625 -241 ct 
4650 -241 l  p ef
4824 -109 m  4831 -106 4837 -102 4844 -94 ct 4850 -87 4857 -76 4863 -63 ct 4895 0 l 
4861 0 l  4831 -59 l  4824 -75 4816 -85 4809 -90 ct 4802 -95 4792 -98 4780 -98 ct 
4746 -98 l  4746 0 l  4714 0 l  4714 -232 l  4785 -232 l  4812 -232 4831 -226 4844 -215 ct 
4857 -204 4864 -187 4864 -165 ct 4864 -150 4861 -138 4854 -129 ct 4847 -119 4837 -112 4824 -109 ct 
p
4746 -206 m  4746 -124 l  4785 -124 l  4800 -124 4812 -127 4819 -134 ct 4827 -141 4831 -151 4831 -165 ct 
4831 -179 4827 -189 4819 -196 ct 4812 -203 4800 -206 4785 -206 ct 4746 -206 l 
p ef
5004 -88 m  4981 -88 4965 -85 4956 -80 ct 4947 -75 4943 -66 4943 -53 ct 4943 -43 4946 -35 4953 -29 ct 
4959 -23 4968 -20 4980 -20 ct 4996 -20 5008 -26 5018 -37 ct 5028 -48 5032 -63 5032 -82 ct 
5032 -88 l  5004 -88 l  p
5061 -100 m  5061 -1 l  5032 -1 l  5032 -27 l  5026 -16 5018 -9 5008 -4 ct 
4998 1 4986 4 4972 4 ct 4955 4 4940 -1 4930 -11 ct 4919 -21 4914 -34 4914 -51 ct 
4914 -71 4921 -85 4934 -95 ct 4947 -105 4966 -110 4992 -110 ct 5032 -110 l  5032 -113 l 
5032 -126 5028 -136 5019 -143 ct 5011 -150 4999 -154 4983 -154 ct 4973 -154 4963 -153 4954 -150 ct 
4945 -148 4936 -145 4927 -140 ct 4927 -166 l  4937 -170 4947 -173 4957 -175 ct 
4967 -177 4977 -178 4986 -178 ct 5011 -178 5030 -172 5042 -159 ct 5055 -146 5061 -126 5061 -100 ct 
p ef
5242 53 m  5242 75 l  5077 75 l  5077 53 l  5242 53 l  p ef
5380 -170 m  5380 -143 l  5372 -147 5363 -150 5355 -152 ct 5346 -154 5337 -155 5328 -155 ct 
5313 -155 5303 -153 5296 -148 ct 5289 -144 5285 -138 5285 -129 ct 5285 -122 5288 -117 5293 -113 ct 
5298 -109 5308 -106 5323 -102 ct 5333 -100 l  5353 -96 5368 -90 5376 -82 ct 
5385 -74 5389 -63 5389 -49 ct 5389 -32 5383 -20 5370 -10 ct 5357 -1 5340 4 5317 4 ct 
5308 4 5298 3 5288 1 ct 5278 -1 5267 -3 5256 -7 ct 5256 -36 l  5267 -31 5277 -27 5287 -24 ct 
5298 -21 5308 -20 5318 -20 ct 5331 -20 5342 -22 5349 -27 ct 5356 -31 5360 -38 5360 -46 ct 
5360 -54 5357 -60 5352 -64 ct 5347 -68 5335 -72 5318 -76 ct 5308 -79 l  5290 -82 5277 -88 5269 -96 ct 
5261 -103 5257 -114 5257 -128 ct 5257 -144 5263 -157 5275 -166 ct 5286 -174 5303 -179 5324 -179 ct 
5335 -179 5345 -178 5354 -177 ct 5363 -175 5372 -173 5380 -170 ct p ef
5423 -241 m  5448 -241 l  5464 -217 5475 -193 5483 -169 ct 5491 -146 5495 -123 5495 -100 ct 
5495 -76 5491 -53 5483 -30 ct 5475 -6 5464 18 5448 42 ct 5423 42 l  5437 18 5448 -5 5454 -29 ct 
5461 -52 5464 -76 5464 -100 ct 5464 -124 5461 -147 5454 -170 ct 5448 -194 5437 -217 5423 -241 ct 
p ef
pom
pum
-6663 2360 t
90.0 r -1 -231 m  195 -231 l  195 -205 l  113 -205 l  113 1 l  81 1 l  81 -205 l 
-1 -205 l  -1 -231 l  p ef
364 -95 m  364 -81 l  232 -81 l  234 -61 240 -46 250 -36 ct 261 -25 276 -20 294 -20 ct 
305 -20 316 -22 326 -24 ct 337 -27 347 -31 357 -36 ct 357 -9 l  347 -5 336 -2 326 1 ct 
315 3 304 4 293 4 ct 265 4 243 -4 227 -20 ct 211 -36 203 -58 203 -86 ct 203 -114 210 -137 226 -153 ct 
241 -170 262 -178 288 -178 ct 311 -178 330 -171 343 -156 ct 357 -141 364 -120 364 -95 ct 
p
335 -103 m  335 -119 331 -131 322 -140 ct 313 -149 302 -154 288 -154 ct 272 -154 259 -150 250 -141 ct 
240 -132 235 -119 233 -103 ct 335 -103 l  p ef
535 -140 m  543 -153 551 -163 561 -169 ct 571 -175 583 -178 596 -178 ct 614 -178 628 -172 638 -159 ct 
648 -146 653 -128 653 -105 ct 653 0 l  624 0 l  624 -104 l  624 -121 621 -133 615 -141 ct 
609 -149 600 -153 588 -153 ct 573 -153 562 -148 553 -138 ct 544 -129 540 -115 540 -98 ct 
540 0 l  511 0 l  511 -104 l  511 -121 509 -133 503 -141 ct 497 -149 488 -153 475 -153 ct 
461 -153 449 -148 440 -138 ct 432 -128 428 -115 428 -98 ct 428 0 l  399 0 l 
399 -174 l  428 -174 l  428 -147 l  434 -157 442 -165 451 -170 ct 460 -175 471 -178 484 -178 ct 
496 -178 507 -175 516 -168 ct 525 -162 531 -153 535 -140 ct p ef
746 -27 m  746 66 l  717 66 l  717 -174 l  746 -174 l  746 -147 l  752 -158 759 -165 768 -170 ct 
778 -176 788 -178 801 -178 ct 822 -178 839 -170 853 -153 ct 866 -136 872 -114 872 -87 ct 
872 -60 866 -38 853 -21 ct 839 -4 822 4 801 4 ct 788 4 778 1 768 -4 ct 759 -9 752 -16 746 -27 ct 
p
843 -87 m  843 -108 838 -124 830 -136 ct 821 -148 809 -154 794 -154 ct 779 -154 767 -148 759 -136 ct 
750 -124 746 -108 746 -87 ct 746 -66 750 -50 759 -38 ct 767 -26 779 -20 794 -20 ct 
809 -20 821 -26 830 -38 ct 838 -50 843 -66 843 -87 ct p ef
997 -154 m  982 -154 970 -148 961 -136 ct 952 -124 948 -108 948 -87 ct 948 -66 952 -50 961 -38 ct 
970 -26 982 -20 997 -20 ct 1013 -20 1025 -26 1034 -38 ct 1042 -50 1047 -66 1047 -87 ct 
1047 -108 1042 -124 1034 -136 ct 1025 -148 1013 -154 997 -154 ct p
997 -178 m  1022 -178 1042 -170 1056 -154 ct 1070 -138 1077 -116 1077 -87 ct 
1077 -59 1070 -36 1056 -20 ct 1042 -4 1022 4 997 4 ct 972 4 953 -4 939 -20 ct 925 -36 918 -59 918 -87 ct 
918 -116 925 -138 939 -154 ct 953 -170 972 -178 997 -178 ct p ef
1249 -223 m  1249 -174 l  1308 -174 l  1308 -152 l  1249 -152 l  1249 -57 l 
1249 -43 1251 -34 1255 -30 ct 1259 -26 1267 -24 1279 -24 ct 1308 -24 l  1308 0 l 
1279 0 l  1257 0 1241 -4 1233 -12 ct 1225 -21 1221 -36 1221 -57 ct 1221 -152 l 
1200 -152 l  1200 -174 l  1221 -174 l  1221 -223 l  1249 -223 l  p ef
1454 -147 m  1451 -149 1447 -150 1443 -151 ct 1439 -152 1435 -153 1431 -153 ct 
1415 -153 1402 -147 1394 -137 ct 1385 -126 1381 -111 1381 -92 ct 1381 0 l  1352 0 l 
1352 -174 l  1381 -174 l  1381 -147 l  1387 -157 1394 -165 1404 -170 ct 1414 -175 1425 -178 1439 -178 ct 
1441 -178 1443 -178 1446 -178 ct 1448 -177 1451 -177 1454 -176 ct 1454 -147 l 
p ef
1564 -88 m  1541 -88 1525 -85 1516 -80 ct 1507 -75 1503 -66 1503 -53 ct 1503 -43 1506 -35 1513 -29 ct 
1519 -23 1528 -20 1540 -20 ct 1556 -20 1568 -26 1578 -37 ct 1588 -48 1592 -63 1592 -82 ct 
1592 -88 l  1564 -88 l  p
1621 -100 m  1621 -1 l  1592 -1 l  1592 -27 l  1586 -16 1578 -9 1568 -4 ct 
1558 1 1546 4 1532 4 ct 1515 4 1500 -1 1490 -11 ct 1479 -21 1474 -34 1474 -51 ct 
1474 -71 1481 -85 1494 -95 ct 1507 -105 1526 -110 1552 -110 ct 1592 -110 l  1592 -113 l 
1592 -126 1588 -136 1579 -143 ct 1571 -150 1559 -154 1543 -154 ct 1533 -154 1523 -153 1514 -150 ct 
1505 -148 1496 -145 1487 -140 ct 1487 -166 l  1497 -170 1507 -173 1517 -175 ct 
1527 -177 1537 -178 1546 -178 ct 1571 -178 1590 -172 1602 -159 ct 1615 -146 1621 -126 1621 -100 ct 
p ef
1815 -105 m  1815 0 l  1786 0 l  1786 -104 l  1786 -120 1783 -133 1776 -141 ct 
1770 -149 1760 -153 1747 -153 ct 1732 -153 1720 -148 1711 -138 ct 1702 -129 1698 -115 1698 -98 ct 
1698 0 l  1669 0 l  1669 -174 l  1698 -174 l  1698 -147 l  1704 -157 1712 -165 1722 -170 ct 
1731 -175 1742 -178 1754 -178 ct 1774 -178 1789 -172 1799 -159 ct 1809 -147 1815 -129 1815 -105 ct 
p ef
1993 -170 m  1993 -143 l  1985 -147 1976 -150 1968 -152 ct 1959 -154 1950 -155 1941 -155 ct 
1926 -155 1916 -153 1909 -148 ct 1902 -144 1898 -138 1898 -129 ct 1898 -122 1901 -117 1906 -113 ct 
1911 -109 1921 -106 1936 -102 ct 1946 -100 l  1966 -96 1981 -90 1989 -82 ct 
1998 -74 2002 -63 2002 -49 ct 2002 -32 1996 -20 1983 -10 ct 1970 -1 1953 4 1930 4 ct 
1921 4 1911 3 1901 1 ct 1891 -1 1880 -3 1869 -7 ct 1869 -36 l  1880 -31 1890 -27 1900 -24 ct 
1911 -21 1921 -20 1931 -20 ct 1944 -20 1955 -22 1962 -27 ct 1969 -31 1973 -38 1973 -46 ct 
1973 -54 1970 -60 1965 -64 ct 1960 -68 1948 -72 1931 -76 ct 1921 -79 l  1903 -82 1890 -88 1882 -96 ct 
1874 -103 1870 -114 1870 -128 ct 1870 -144 1876 -157 1888 -166 ct 1899 -174 1916 -179 1937 -179 ct 
1948 -179 1958 -178 1967 -177 ct 1976 -175 1985 -173 1993 -170 ct p ef
2041 -173 m  2070 -173 l  2070 1 l  2041 1 l  2041 -173 l  p
2041 -241 m  2070 -241 l  2070 -205 l  2041 -205 l  2041 -241 l  p ef
2148 -223 m  2148 -174 l  2207 -174 l  2207 -152 l  2148 -152 l  2148 -57 l 
2148 -43 2150 -34 2154 -30 ct 2158 -26 2166 -24 2178 -24 ct 2207 -24 l  2207 0 l 
2178 0 l  2156 0 2140 -4 2132 -12 ct 2124 -21 2120 -36 2120 -57 ct 2120 -152 l 
2099 -152 l  2099 -174 l  2120 -174 l  2120 -223 l  2148 -223 l  p ef
2320 -154 m  2305 -154 2293 -148 2284 -136 ct 2275 -124 2271 -108 2271 -87 ct 
2271 -66 2275 -50 2284 -38 ct 2293 -26 2305 -20 2320 -20 ct 2336 -20 2348 -26 2357 -38 ct 
2365 -50 2370 -66 2370 -87 ct 2370 -108 2365 -124 2357 -136 ct 2348 -148 2336 -154 2320 -154 ct 
p
2320 -178 m  2345 -178 2365 -170 2379 -154 ct 2393 -138 2400 -116 2400 -87 ct 
2400 -59 2393 -36 2379 -20 ct 2365 -4 2345 4 2320 4 ct 2295 4 2276 -4 2262 -20 ct 
2248 -36 2241 -59 2241 -87 ct 2241 -116 2248 -138 2262 -154 ct 2276 -170 2295 -178 2320 -178 ct 
p ef
2539 -147 m  2536 -149 2532 -150 2528 -151 ct 2524 -152 2520 -153 2516 -153 ct 
2500 -153 2487 -147 2479 -137 ct 2470 -126 2466 -111 2466 -92 ct 2466 0 l  2437 0 l 
2437 -174 l  2466 -174 l  2466 -147 l  2472 -157 2479 -165 2489 -170 ct 2499 -175 2510 -178 2524 -178 ct 
2526 -178 2528 -178 2531 -178 ct 2533 -177 2536 -177 2539 -176 ct 2539 -147 l 
p ef
2570 -173 m  2599 -173 l  2599 1 l  2570 1 l  2570 -173 l  p
2570 -241 m  2599 -241 l  2599 -205 l  2570 -205 l  2570 -241 l  p ef
2716 -154 m  2701 -154 2689 -148 2680 -136 ct 2671 -124 2667 -108 2667 -87 ct 
2667 -66 2671 -50 2680 -38 ct 2689 -26 2701 -20 2716 -20 ct 2732 -20 2744 -26 2753 -38 ct 
2761 -50 2766 -66 2766 -87 ct 2766 -108 2761 -124 2753 -136 ct 2744 -148 2732 -154 2716 -154 ct 
p
2716 -178 m  2741 -178 2761 -170 2775 -154 ct 2789 -138 2796 -116 2796 -87 ct 
2796 -59 2789 -36 2775 -20 ct 2761 -4 2741 4 2716 4 ct 2691 4 2672 -4 2658 -20 ct 
2644 -36 2637 -59 2637 -87 ct 2637 -116 2644 -138 2658 -154 ct 2672 -170 2691 -178 2716 -178 ct 
p ef
3041 -147 m  3038 -149 3034 -150 3030 -151 ct 3026 -152 3022 -153 3018 -153 ct 
3002 -153 2989 -147 2981 -137 ct 2972 -126 2968 -111 2968 -92 ct 2968 0 l  2939 0 l 
2939 -174 l  2968 -174 l  2968 -147 l  2974 -157 2981 -165 2991 -170 ct 3001 -175 3012 -178 3026 -178 ct 
3028 -178 3030 -178 3033 -178 ct 3035 -177 3038 -177 3041 -176 ct 3041 -147 l 
p ef
3073 -173 m  3102 -173 l  3102 1 l  3073 1 l  3073 -173 l  p
3073 -241 m  3102 -241 l  3102 -205 l  3073 -205 l  3073 -241 l  p ef
3263 -170 m  3263 -143 l  3255 -147 3246 -150 3238 -152 ct 3229 -154 3220 -155 3211 -155 ct 
3196 -155 3186 -153 3179 -148 ct 3172 -144 3168 -138 3168 -129 ct 3168 -122 3171 -117 3176 -113 ct 
3181 -109 3191 -106 3206 -102 ct 3216 -100 l  3236 -96 3251 -90 3259 -82 ct 
3268 -74 3272 -63 3272 -49 ct 3272 -32 3266 -20 3253 -10 ct 3240 -1 3223 4 3200 4 ct 
3191 4 3181 3 3171 1 ct 3161 -1 3150 -3 3139 -7 ct 3139 -36 l  3150 -31 3160 -27 3170 -24 ct 
3181 -21 3191 -20 3201 -20 ct 3214 -20 3225 -22 3232 -27 ct 3239 -31 3243 -38 3243 -46 ct 
3243 -54 3240 -60 3235 -64 ct 3230 -68 3218 -72 3201 -76 ct 3191 -79 l  3173 -82 3160 -88 3152 -96 ct 
3144 -103 3140 -114 3140 -128 ct 3140 -144 3146 -157 3158 -166 ct 3169 -174 3186 -179 3207 -179 ct 
3218 -179 3228 -178 3237 -177 ct 3246 -175 3255 -173 3263 -170 ct p ef
3436 -167 m  3436 -141 l  3428 -145 3420 -148 3412 -151 ct 3404 -153 3395 -154 3387 -154 ct 
3369 -154 3354 -148 3344 -136 ct 3334 -125 3329 -108 3329 -87 ct 3329 -66 3334 -50 3344 -38 ct 
3354 -26 3369 -20 3387 -20 ct 3395 -20 3404 -21 3412 -24 ct 3420 -26 3428 -29 3436 -34 ct 
3436 -7 l  3428 -3 3420 -1 3411 1 ct 3403 3 3394 4 3384 4 ct 3358 4 3337 -4 3322 -21 ct 
3306 -37 3299 -59 3299 -87 ct 3299 -115 3306 -138 3322 -154 ct 3337 -170 3359 -178 3386 -178 ct 
3395 -178 3403 -177 3412 -175 ct 3420 -174 3428 -171 3436 -167 ct p ef
3575 -88 m  3552 -88 3536 -85 3527 -80 ct 3518 -75 3514 -66 3514 -53 ct 3514 -43 3517 -35 3524 -29 ct 
3530 -23 3539 -20 3551 -20 ct 3567 -20 3579 -26 3589 -37 ct 3599 -48 3603 -63 3603 -82 ct 
3603 -88 l  3575 -88 l  p
3632 -100 m  3632 -1 l  3603 -1 l  3603 -27 l  3597 -16 3589 -9 3579 -4 ct 
3569 1 3557 4 3543 4 ct 3526 4 3511 -1 3501 -11 ct 3490 -21 3485 -34 3485 -51 ct 
3485 -71 3492 -85 3505 -95 ct 3518 -105 3537 -110 3563 -110 ct 3603 -110 l  3603 -113 l 
3603 -126 3599 -136 3590 -143 ct 3582 -150 3570 -154 3554 -154 ct 3544 -154 3534 -153 3525 -150 ct 
3516 -148 3507 -145 3498 -140 ct 3498 -166 l  3508 -170 3518 -173 3528 -175 ct 
3538 -177 3548 -178 3557 -178 ct 3582 -178 3601 -172 3613 -159 ct 3626 -146 3632 -126 3632 -100 ct 
p ef
3681 -241 m  3710 -241 l  3710 0 l  3681 0 l  3681 -241 l  p ef
3840 -88 m  3817 -88 3801 -85 3792 -80 ct 3783 -75 3779 -66 3779 -53 ct 3779 -43 3782 -35 3789 -29 ct 
3795 -23 3804 -20 3816 -20 ct 3832 -20 3844 -26 3854 -37 ct 3864 -48 3868 -63 3868 -82 ct 
3868 -88 l  3840 -88 l  p
3897 -100 m  3897 -1 l  3868 -1 l  3868 -27 l  3862 -16 3854 -9 3844 -4 ct 
3834 1 3822 4 3808 4 ct 3791 4 3776 -1 3766 -11 ct 3755 -21 3750 -34 3750 -51 ct 
3750 -71 3757 -85 3770 -95 ct 3783 -105 3802 -110 3828 -110 ct 3868 -110 l  3868 -113 l 
3868 -126 3864 -136 3855 -143 ct 3847 -150 3835 -154 3819 -154 ct 3809 -154 3799 -153 3790 -150 ct 
3781 -148 3772 -145 3763 -140 ct 3763 -166 l  3773 -170 3783 -173 3793 -175 ct 
3803 -177 3813 -178 3822 -178 ct 3847 -178 3866 -172 3878 -159 ct 3891 -146 3897 -126 3897 -100 ct 
p ef
3974 -223 m  3974 -174 l  4033 -174 l  4033 -152 l  3974 -152 l  3974 -57 l 
3974 -43 3976 -34 3980 -30 ct 3984 -26 3992 -24 4004 -24 ct 4033 -24 l  4033 0 l 
4004 0 l  3982 0 3966 -4 3958 -12 ct 3950 -21 3946 -36 3946 -57 ct 3946 -152 l 
3925 -152 l  3925 -174 l  3946 -174 l  3946 -223 l  3974 -223 l  p ef
4145 -154 m  4130 -154 4118 -148 4109 -136 ct 4100 -124 4096 -108 4096 -87 ct 
4096 -66 4100 -50 4109 -38 ct 4118 -26 4130 -20 4145 -20 ct 4161 -20 4173 -26 4182 -38 ct 
4190 -50 4195 -66 4195 -87 ct 4195 -108 4190 -124 4182 -136 ct 4173 -148 4161 -154 4145 -154 ct 
p
4145 -178 m  4170 -178 4190 -170 4204 -154 ct 4218 -138 4225 -116 4225 -87 ct 
4225 -59 4218 -36 4204 -20 ct 4190 -4 4170 4 4145 4 ct 4120 4 4101 -4 4087 -20 ct 
4073 -36 4066 -59 4066 -87 ct 4066 -116 4073 -138 4087 -154 ct 4101 -170 4120 -178 4145 -178 ct 
p ef
4438 -241 m  4424 -217 4413 -194 4407 -170 ct 4400 -147 4397 -124 4397 -100 ct 
4397 -76 4400 -52 4407 -29 ct 4414 -5 4424 18 4438 42 ct 4413 42 l  4397 18 4386 -6 4378 -30 ct 
4370 -53 4366 -76 4366 -100 ct 4366 -123 4370 -146 4378 -169 ct 4385 -193 4397 -217 4413 -241 ct 
4438 -241 l  p ef
4529 -223 m  4529 -174 l  4588 -174 l  4588 -152 l  4529 -152 l  4529 -57 l 
4529 -43 4531 -34 4535 -30 ct 4539 -26 4547 -24 4559 -24 ct 4588 -24 l  4588 0 l 
4559 0 l  4537 0 4521 -4 4513 -12 ct 4505 -21 4501 -36 4501 -57 ct 4501 -152 l 
4480 -152 l  4480 -174 l  4501 -174 l  4501 -223 l  4529 -223 l  p ef
4685 -232 m  4711 -232 l  4630 29 l  4604 29 l  4685 -232 l  p ef
4825 -32 m  4829 -27 4836 -24 4848 -24 ct 4861 -24 l  4861 0 l  4844 0 l 
4826 0 4812 -5 4803 -15 ct 4795 -25 4791 -41 4791 -63 ct 4791 -145 l  4726 -145 l 
4726 -174 l  4886 -174 l  4886 -145 l  4820 -145 l  4820 -61 l  4820 -46 4822 -36 4825 -32 ct 
p ef
4920 -241 m  4945 -241 l  4961 -217 4972 -193 4980 -169 ct 4988 -146 4992 -123 4992 -100 ct 
4992 -76 4988 -53 4980 -30 ct 4972 -6 4961 18 4945 42 ct 4920 42 l  4934 18 4945 -5 4951 -29 ct 
4958 -52 4961 -76 4961 -100 ct 4961 -124 4958 -147 4951 -170 ct 4945 -194 4934 -217 4920 -241 ct 
p ef
pom
0 9001 t 
pom
count op_count sub {pop} repeat countdictstack dict_count sub {end} repeat b4_inc_state restore
%%PageTrailer
%%Trailer
%%EOF
