%!PS-Adobe-3.0 EPSF-3.0 
%%BoundingBox: 0 0 404 281
%%Pages: 0
%%Creator: LibreOffice 4.0
%%Title: none
%%CreationDate: none
%%LanguageLevel: 2
%%EndComments
%%BeginProlog
%%BeginResource: procset SDRes-Prolog 1.0 0
/b4_inc_state save def
/dict_count countdictstack def
/op_count count 1 sub def
userdict begin
0 setgray 0 setlinecap 1 setlinewidth 0 setlinejoin 10 setmiterlimit[] 0 setdash newpath
/languagelevel where {pop languagelevel 1 ne {false setstrokeadjust false setoverprint} if} if
/bdef {bind def} bind def
/c {setrgbcolor} bdef
/l {neg lineto} bdef
/rl {neg rlineto} bdef
/lc {setlinecap} bdef
/lj {setlinejoin} bdef
/lw {setlinewidth} bdef
/ml {setmiterlimit} bdef
/ld {setdash} bdef
/m {neg moveto} bdef
/ct {6 2 roll neg 6 2 roll neg 6 2 roll neg curveto} bdef
/r {rotate} bdef
/t {neg translate} bdef
/s {scale} bdef
/sw {show} bdef
/gs {gsave} bdef
/gr {grestore} bdef
/f {findfont dup length dict begin
{1 index /FID ne {def} {pop pop} ifelse} forall /Encoding ISOLatin1Encoding def
currentdict end /NFont exch definefont pop /NFont findfont} bdef
/p {closepath} bdef
/sf {scalefont setfont} bdef
/ef {eofill}bdef
/pc {closepath stroke}bdef
/ps {stroke}bdef
/pum {matrix currentmatrix}bdef
/pom {setmatrix}bdef
/bs {/aString exch def /nXOfs exch def /nWidth exch def currentpoint nXOfs 0 rmoveto pum nWidth aString stringwidth pop div 1 scale aString show pom moveto} bdef
%%EndResource
%%EndProlog
%%BeginSetup
%%EndSetup
%%Page: 1 1
%%BeginPageSetup
%%EndPageSetup
pum
0.02837 0.02838 s 
0 -9901 t
/tm matrix currentmatrix def
tm setmatrix
7118 4950 t 
1 1 s 
1.000 1.000 1.000 c 0 4950 m  -7118 4950 l  -7118 -4950 l  7118 -4950 l 
7118 4950 l  0 4950 l  p ef
50 lw 1 lj 0.703 0.703 0.703 c 565 3371 m  -4938 3371 l  -4938 -3578 l 
6069 -3578 l  6069 3371 l  565 3371 l  pc
0 lw -4938 -3579 m  -4938 3370 l  ps
-3104 -3579 m  -3104 3370 l  ps
-1269 -3579 m  -1269 3370 l  ps
565 -3579 m  565 3370 l  ps
2399 -3579 m  2399 3370 l  ps
4234 -3579 m  4234 3370 l  ps
6069 -3579 m  6069 3370 l  ps
20 lw 6069 3370 m  -4938 3370 l  ps
6069 2597 m  -4938 2597 l  ps
6069 1825 m  -4938 1825 l  ps
6069 1053 m  -4938 1053 l  ps
6069 281 m  -4938 281 l  ps
6069 -491 m  -4938 -491 l  ps
6069 -1263 m  -4938 -1263 l  ps
6069 -2035 m  -4938 -2035 l  ps
6069 -2807 m  -4938 -2807 l  ps
6069 -3579 m  -4938 -3579 l  ps
30 lw -4938 3520 m  -4938 3370 l  ps
-4938 3520 m  -4938 3370 l  ps
-3104 3520 m  -3104 3370 l  ps
-3104 3520 m  -3104 3370 l  ps
-1269 3520 m  -1269 3370 l  ps
-1269 3520 m  -1269 3370 l  ps
565 3520 m  565 3370 l  ps
565 3520 m  565 3370 l  ps
2399 3520 m  2399 3370 l  ps
2399 3520 m  2399 3370 l  ps
4234 3520 m  4234 3370 l  ps
4234 3520 m  4234 3370 l  ps
6069 3520 m  6069 3370 l  ps
6069 3520 m  6069 3370 l  ps
-4938 3370 m  6069 3370 l  ps
-5088 3370 m  -4938 3370 l  ps
-5088 3370 m  -4938 3370 l  ps
-5088 2597 m  -4938 2597 l  ps
-5088 2597 m  -4938 2597 l  ps
-5088 1825 m  -4938 1825 l  ps
-5088 1825 m  -4938 1825 l  ps
-5088 1053 m  -4938 1053 l  ps
-5088 1053 m  -4938 1053 l  ps
-5088 281 m  -4938 281 l  ps
-5088 281 m  -4938 281 l  ps
-5088 -491 m  -4938 -491 l  ps
-5088 -491 m  -4938 -491 l  ps
-5088 -1263 m  -4938 -1263 l  ps
-5088 -1263 m  -4938 -1263 l  ps
-5088 -2035 m  -4938 -2035 l  ps
-5088 -2035 m  -4938 -2035 l  ps
-5088 -2807 m  -4938 -2807 l  ps
-5088 -2807 m  -4938 -2807 l  ps
-5088 -3579 m  -4938 -3579 l  ps
-5088 -3579 m  -4938 -3579 l  ps
-4938 3370 m  -4938 -3579 l  ps
0.003 0.273 0.527 c 4898 1700 m  4898 1950 l  5148 1950 l  5148 1700 l  4898 1700 l 
p ef
0 lw 4898 1700 m  4898 1950 l  5148 1950 l  5148 1700 l  4898 1700 l  pc
4898 1638 m  4898 1888 l  5148 1888 l  5148 1638 l  4898 1638 l  p ef
4898 1638 m  4898 1888 l  5148 1888 l  5148 1638 l  4898 1638 l  pc
4898 1577 m  4898 1827 l  5148 1827 l  5148 1577 l  4898 1577 l  p ef
4898 1577 m  4898 1827 l  5148 1827 l  5148 1577 l  4898 1577 l  pc
4898 1685 m  4898 1935 l  5148 1935 l  5148 1685 l  4898 1685 l  p ef
4898 1685 m  4898 1935 l  5148 1935 l  5148 1685 l  4898 1685 l  pc
4898 1546 m  4898 1796 l  5148 1796 l  5148 1546 l  4898 1546 l  p ef
4898 1546 m  4898 1796 l  5148 1796 l  5148 1546 l  4898 1546 l  pc
4898 1700 m  4898 1950 l  5148 1950 l  5148 1700 l  4898 1700 l  p ef
4898 1700 m  4898 1950 l  5148 1950 l  5148 1700 l  4898 1700 l  pc
4898 1777 m  4898 2027 l  5148 2027 l  5148 1777 l  4898 1777 l  p ef
4898 1777 m  4898 2027 l  5148 2027 l  5148 1777 l  4898 1777 l  pc
-541 233 m  -541 483 l  -291 483 l  -291 233 l  -541 233 l  p ef
-541 233 m  -541 483 l  -291 483 l  -291 233 l  -541 233 l  pc
-2798 -3241 m  -2798 -2991 l  -2548 -2991 l  -2548 -3241 l  -2798 -3241 l 
p ef
-2798 -3241 m  -2798 -2991 l  -2548 -2991 l  -2548 -3241 l  -2798 -3241 l 
pc
-3100 -1388 m  -3100 -1138 l  -2850 -1138 l  -2850 -1388 l  -3100 -1388 l 
p ef
-3100 -1388 m  -3100 -1138 l  -2850 -1138 l  -2850 -1388 l  -3100 -1388 l 
pc
-1055 372 m  -1055 622 l  -805 622 l  -805 372 l  -1055 372 l  p ef
-1055 372 m  -1055 622 l  -805 622 l  -805 372 l  -1055 372 l  pc
-2770 -770 m  -2770 -520 l  -2520 -520 l  -2520 -770 l  -2770 -770 l  p ef
-2770 -770 m  -2770 -520 l  -2520 -520 l  -2520 -770 l  -2770 -770 l  pc
-312 1082 m  -312 1332 l  -62 1332 l  -62 1082 l  -312 1082 l  p ef
-312 1082 m  -312 1332 l  -62 1332 l  -62 1082 l  -312 1082 l  pc
1449 1314 m  1449 1564 l  1699 1564 l  1699 1314 l  1449 1314 l  p ef
1449 1314 m  1449 1564 l  1699 1564 l  1699 1314 l  1449 1314 l  pc
1696 1082 m  1696 1332 l  1946 1332 l  1946 1082 l  1696 1082 l  p ef
1696 1082 m  1696 1332 l  1946 1332 l  1946 1082 l  1696 1082 l  pc
1678 1237 m  1678 1487 l  1928 1487 l  1928 1237 l  1678 1237 l  p ef
1678 1237 m  1678 1487 l  1928 1487 l  1928 1237 l  1678 1237 l  pc
-486 851 m  -486 1101 l  -236 1101 l  -236 851 l  -486 851 l  p ef
-486 851 m  -486 1101 l  -236 1101 l  -236 851 l  -486 851 l  pc
2008 1082 m  2008 1332 l  2258 1332 l  2258 1082 l  2008 1082 l  p ef
2008 1082 m  2008 1332 l  2258 1332 l  2258 1082 l  2008 1082 l  pc
1926 1160 m  1926 1410 l  2176 1410 l  2176 1160 l  1926 1160 l  p ef
1926 1160 m  1926 1410 l  2176 1410 l  2176 1160 l  1926 1160 l  pc
1412 1391 m  1412 1641 l  1662 1641 l  1662 1391 l  1412 1391 l  p ef
1412 1391 m  1412 1641 l  1662 1641 l  1662 1391 l  1412 1391 l  pc
-339 1082 m  -339 1332 l  -89 1332 l  -89 1082 l  -339 1082 l  p ef
-339 1082 m  -339 1332 l  -89 1332 l  -89 1082 l  -339 1082 l  pc
1173 1082 m  1173 1332 l  1423 1332 l  1423 1082 l  1173 1082 l  p ef
1173 1082 m  1173 1332 l  1423 1332 l  1423 1082 l  1173 1082 l  pc
-1110 465 m  -1110 715 l  -860 715 l  -860 465 l  -1110 465 l  p ef
-1110 465 m  -1110 715 l  -860 715 l  -860 465 l  -1110 465 l  pc
-2706 -1619 m  -2706 -1369 l  -2456 -1369 l  -2456 -1619 l  -2706 -1619 l 
p ef
-2706 -1619 m  -2706 -1369 l  -2456 -1369 l  -2456 -1619 l  -2706 -1619 l 
pc
50 lw -3683 -3579 m  -3591 -3196 l  -3366 -2499 l  -3141 -1956 l  -2917 -1518 l 
-2692 -1157 l  -2467 -854 l  -2243 -595 l  -2018 -370 l  -1793 -174 l 
-1569 0 l  -1344 153 l  -1119 292 l  -895 418 l  -670 531 l  -445 635 l 
-221 731 l  3 819 l  228 900 l  452 975 l  677 1045 l  901 1111 l  1126 1172 l 
1351 1229 l  1575 1283 l  1800 1334 l  2025 1382 l  2249 1427 l  2474 1470 l 
2699 1511 l  2923 1550 l  3148 1587 l  3373 1622 l  3597 1656 l  3822 1688 l 
4047 1718 l  4271 1748 l  4496 1776 l  4721 1803 l  4945 1829 l  5170 1854 l 
5395 1878 l  5619 1901 l  5844 1924 l  6069 1945 l  ps
pum
-5044 3938 t
0.003 0.003 0.003 c 112 -235 m  94 -235 81 -226 72 -208 ct 63 -191 58 -164 58 -129 ct 
58 -93 63 -67 72 -49 ct 81 -31 94 -23 112 -23 ct 130 -23 144 -31 153 -49 ct 162 -67 166 -93 166 -129 ct 
166 -164 162 -191 153 -208 ct 144 -226 130 -235 112 -235 ct p
112 -263 m  141 -263 163 -251 178 -228 ct 194 -205 201 -172 201 -129 ct 201 -85 194 -52 178 -29 ct 
163 -6 141 5 112 5 ct 83 5 61 -6 46 -29 ct 31 -52 23 -85 23 -129 ct 23 -172 31 -205 46 -228 ct 
61 -251 83 -263 112 -263 ct p ef
pom
pum
-3210 3938 t
68 -29 m  189 -29 l  189 0 l  26 0 l  26 -29 l  39 -43 57 -61 80 -84 ct 103 -108 117 -122 123 -129 ct 
134 -142 142 -152 146 -161 ct 151 -170 153 -178 153 -187 ct 153 -200 148 -211 139 -220 ct 
129 -229 116 -233 101 -233 ct 90 -233 79 -231 66 -227 ct 54 -224 41 -218 28 -210 ct 
28 -245 l  42 -251 55 -255 67 -258 ct 79 -261 90 -262 100 -262 ct 127 -262 148 -256 164 -242 ct 
180 -229 188 -211 188 -189 ct 188 -178 186 -168 182 -159 ct 178 -149 171 -138 160 -125 ct 
157 -122 148 -112 133 -96 ct 118 -80 96 -58 68 -29 ct p ef
pom
pum
-1375 3938 t
133 -228 m  46 -90 l  133 -90 l  133 -228 l  p
124 -258 m  168 -258 l  168 -90 l  205 -90 l  205 -61 l  168 -61 l  168 0 l 
133 0 l  133 -61 l  17 -61 l  17 -95 l  124 -258 l  p ef
pom
pum
460 3938 t
117 -143 m  101 -143 89 -138 79 -127 ct 70 -116 66 -101 66 -83 ct 66 -64 70 -50 79 -39 ct 
89 -28 101 -23 117 -23 ct 132 -23 145 -28 154 -39 ct 163 -50 167 -64 167 -83 ct 
167 -101 163 -116 154 -127 ct 145 -138 132 -143 117 -143 ct p
186 -252 m  186 -220 l  177 -224 168 -228 159 -230 ct 150 -232 141 -233 133 -233 ct 
110 -233 92 -225 80 -210 ct 68 -194 61 -171 59 -140 ct 66 -150 75 -157 85 -163 ct 
95 -168 106 -171 119 -171 ct 144 -171 165 -163 180 -147 ct 195 -131 202 -110 202 -83 ct 
202 -56 195 -35 179 -19 ct 163 -3 142 5 117 5 ct 87 5 64 -6 48 -29 ct 33 -52 25 -85 25 -129 ct 
25 -169 34 -202 54 -226 ct 73 -250 99 -262 131 -262 ct 140 -262 149 -261 158 -260 ct 
167 -258 176 -255 186 -252 ct p ef
pom
pum
2294 3938 t
112 -123 m  96 -123 83 -118 73 -109 ct 64 -100 59 -88 59 -73 ct 59 -57 64 -45 73 -36 ct 
83 -27 96 -23 112 -23 ct 129 -23 142 -27 151 -36 ct 161 -45 166 -57 166 -73 ct 
166 -88 161 -100 151 -109 ct 142 -118 129 -123 112 -123 ct p
77 -137 m  62 -141 51 -148 42 -158 ct 34 -169 30 -181 30 -196 ct 30 -216 37 -233 52 -245 ct 
67 -257 87 -263 112 -263 ct 138 -263 158 -257 173 -245 ct 187 -233 194 -216 194 -196 ct 
194 -181 190 -169 182 -158 ct 174 -148 162 -141 147 -137 ct 164 -133 177 -126 186 -114 ct 
196 -103 200 -89 200 -73 ct 200 -48 193 -28 178 -15 ct 162 -2 141 5 112 5 ct 84 5 62 -2 47 -15 ct 
32 -28 24 -48 24 -73 ct 24 -89 29 -103 38 -114 ct 48 -126 61 -133 77 -137 ct p
65 -192 m  65 -179 69 -169 77 -161 ct 85 -154 97 -150 112 -150 ct 127 -150 139 -154 147 -161 ct 
156 -169 160 -179 160 -192 ct 160 -206 156 -216 147 -224 ct 139 -231 127 -235 112 -235 ct 
97 -235 85 -231 77 -224 ct 69 -216 65 -206 65 -192 ct p ef
pom
pum
4023 3938 t
44 -29 m  101 -29 l  101 -226 l  39 -213 l  39 -245 l  100 -258 l  135 -258 l 
135 -29 l  192 -29 l  192 0 l  44 0 l  44 -29 l  p ef
324 -235 m  306 -235 293 -226 284 -208 ct 275 -191 270 -164 270 -129 ct 270 -93 275 -67 284 -49 ct 
293 -31 306 -23 324 -23 ct 342 -23 356 -31 365 -49 ct 374 -67 378 -93 378 -129 ct 
378 -164 374 -191 365 -208 ct 356 -226 342 -235 324 -235 ct p
324 -263 m  353 -263 375 -251 390 -228 ct 406 -205 413 -172 413 -129 ct 413 -85 406 -52 390 -29 ct 
375 -6 353 5 324 5 ct 295 5 273 -6 258 -29 ct 243 -52 235 -85 235 -129 ct 235 -172 243 -205 258 -228 ct 
273 -251 295 -263 324 -263 ct p ef
pom
pum
5858 3938 t
44 -29 m  101 -29 l  101 -226 l  39 -213 l  39 -245 l  100 -258 l  135 -258 l 
135 -29 l  192 -29 l  192 0 l  44 0 l  44 -29 l  p ef
280 -29 m  401 -29 l  401 0 l  238 0 l  238 -29 l  251 -43 269 -61 292 -84 ct 
315 -108 329 -122 335 -129 ct 346 -142 354 -152 358 -161 ct 363 -170 365 -178 365 -187 ct 
365 -200 360 -211 351 -220 ct 341 -229 328 -233 313 -233 ct 302 -233 291 -231 278 -227 ct 
266 -224 253 -218 240 -210 ct 240 -245 l  254 -251 267 -255 279 -258 ct 291 -261 302 -262 312 -262 ct 
339 -262 360 -256 376 -242 ct 392 -229 400 -211 400 -189 ct 400 -178 398 -168 394 -159 ct 
390 -149 383 -138 372 -125 ct 369 -122 360 -112 345 -96 ct 330 -80 308 -58 280 -29 ct 
p ef
pom
pum
-5400 3491 t
112 -235 m  94 -235 81 -226 72 -208 ct 63 -191 58 -164 58 -129 ct 58 -93 63 -67 72 -49 ct 
81 -31 94 -23 112 -23 ct 130 -23 144 -31 153 -49 ct 162 -67 166 -93 166 -129 ct 
166 -164 162 -191 153 -208 ct 144 -226 130 -235 112 -235 ct p
112 -263 m  141 -263 163 -251 178 -228 ct 194 -205 201 -172 201 -129 ct 201 -85 194 -52 178 -29 ct 
163 -6 141 5 112 5 ct 83 5 61 -6 46 -29 ct 31 -52 23 -85 23 -129 ct 23 -172 31 -205 46 -228 ct 
61 -251 83 -263 112 -263 ct p ef
pom
pum
-5611 2718 t
38 -258 m  175 -258 l  175 -229 l  70 -229 l  70 -165 l  75 -167 80 -168 85 -169 ct 
90 -170 95 -170 100 -170 ct 129 -170 152 -162 169 -147 ct 185 -131 194 -110 194 -83 ct 
194 -55 185 -33 168 -18 ct 151 -3 126 5 95 5 ct 84 5 73 4 62 2 ct 51 0 39 -2 27 -6 ct 
27 -41 l  38 -35 48 -31 59 -28 ct 70 -26 82 -24 94 -24 ct 114 -24 130 -30 142 -40 ct 
153 -51 159 -65 159 -83 ct 159 -101 153 -115 142 -125 ct 130 -136 114 -141 94 -141 ct 
85 -141 76 -140 66 -138 ct 57 -136 48 -133 38 -128 ct 38 -258 l  p ef
324 -235 m  306 -235 293 -226 284 -208 ct 275 -191 270 -164 270 -129 ct 270 -93 275 -67 284 -49 ct 
293 -31 306 -23 324 -23 ct 342 -23 356 -31 365 -49 ct 374 -67 378 -93 378 -129 ct 
378 -164 374 -191 365 -208 ct 356 -226 342 -235 324 -235 ct p
324 -263 m  353 -263 375 -251 390 -228 ct 406 -205 413 -172 413 -129 ct 413 -85 406 -52 390 -29 ct 
375 -6 353 5 324 5 ct 295 5 273 -6 258 -29 ct 243 -52 235 -85 235 -129 ct 235 -172 243 -205 258 -228 ct 
273 -251 295 -263 324 -263 ct p ef
pom
pum
-5823 1946 t
44 -29 m  101 -29 l  101 -226 l  39 -213 l  39 -245 l  100 -258 l  135 -258 l 
135 -29 l  192 -29 l  192 0 l  44 0 l  44 -29 l  p ef
324 -235 m  306 -235 293 -226 284 -208 ct 275 -191 270 -164 270 -129 ct 270 -93 275 -67 284 -49 ct 
293 -31 306 -23 324 -23 ct 342 -23 356 -31 365 -49 ct 374 -67 378 -93 378 -129 ct 
378 -164 374 -191 365 -208 ct 356 -226 342 -235 324 -235 ct p
324 -263 m  353 -263 375 -251 390 -228 ct 406 -205 413 -172 413 -129 ct 413 -85 406 -52 390 -29 ct 
375 -6 353 5 324 5 ct 295 5 273 -6 258 -29 ct 243 -52 235 -85 235 -129 ct 235 -172 243 -205 258 -228 ct 
273 -251 295 -263 324 -263 ct p ef
535 -235 m  517 -235 504 -226 495 -208 ct 486 -191 481 -164 481 -129 ct 481 -93 486 -67 495 -49 ct 
504 -31 517 -23 535 -23 ct 553 -23 567 -31 576 -49 ct 585 -67 589 -93 589 -129 ct 
589 -164 585 -191 576 -208 ct 567 -226 553 -235 535 -235 ct p
535 -263 m  564 -263 586 -251 601 -228 ct 617 -205 624 -172 624 -129 ct 624 -85 617 -52 601 -29 ct 
586 -6 564 5 535 5 ct 506 5 484 -6 469 -29 ct 454 -52 446 -85 446 -129 ct 446 -172 454 -205 469 -228 ct 
484 -251 506 -263 535 -263 ct p ef
pom
pum
-5823 1174 t
44 -29 m  101 -29 l  101 -226 l  39 -213 l  39 -245 l  100 -258 l  135 -258 l 
135 -29 l  192 -29 l  192 0 l  44 0 l  44 -29 l  p ef
250 -258 m  387 -258 l  387 -229 l  282 -229 l  282 -165 l  287 -167 292 -168 297 -169 ct 
302 -170 307 -170 312 -170 ct 341 -170 364 -162 381 -147 ct 397 -131 406 -110 406 -83 ct 
406 -55 397 -33 380 -18 ct 363 -3 338 5 307 5 ct 296 5 285 4 274 2 ct 263 0 251 -2 239 -6 ct 
239 -41 l  250 -35 260 -31 271 -28 ct 282 -26 294 -24 306 -24 ct 326 -24 342 -30 354 -40 ct 
365 -51 371 -65 371 -83 ct 371 -101 365 -115 354 -125 ct 342 -136 326 -141 306 -141 ct 
297 -141 288 -140 278 -138 ct 269 -136 260 -133 250 -128 ct 250 -258 l  p ef
535 -235 m  517 -235 504 -226 495 -208 ct 486 -191 481 -164 481 -129 ct 481 -93 486 -67 495 -49 ct 
504 -31 517 -23 535 -23 ct 553 -23 567 -31 576 -49 ct 585 -67 589 -93 589 -129 ct 
589 -164 585 -191 576 -208 ct 567 -226 553 -235 535 -235 ct p
535 -263 m  564 -263 586 -251 601 -228 ct 617 -205 624 -172 624 -129 ct 624 -85 617 -52 601 -29 ct 
586 -6 564 5 535 5 ct 506 5 484 -6 469 -29 ct 454 -52 446 -85 446 -129 ct 446 -172 454 -205 469 -228 ct 
484 -251 506 -263 535 -263 ct p ef
pom
pum
-5823 402 t
68 -29 m  189 -29 l  189 0 l  26 0 l  26 -29 l  39 -43 57 -61 80 -84 ct 103 -108 117 -122 123 -129 ct 
134 -142 142 -152 146 -161 ct 151 -170 153 -178 153 -187 ct 153 -200 148 -211 139 -220 ct 
129 -229 116 -233 101 -233 ct 90 -233 79 -231 66 -227 ct 54 -224 41 -218 28 -210 ct 
28 -245 l  42 -251 55 -255 67 -258 ct 79 -261 90 -262 100 -262 ct 127 -262 148 -256 164 -242 ct 
180 -229 188 -211 188 -189 ct 188 -178 186 -168 182 -159 ct 178 -149 171 -138 160 -125 ct 
157 -122 148 -112 133 -96 ct 118 -80 96 -58 68 -29 ct p ef
324 -235 m  306 -235 293 -226 284 -208 ct 275 -191 270 -164 270 -129 ct 270 -93 275 -67 284 -49 ct 
293 -31 306 -23 324 -23 ct 342 -23 356 -31 365 -49 ct 374 -67 378 -93 378 -129 ct 
378 -164 374 -191 365 -208 ct 356 -226 342 -235 324 -235 ct p
324 -263 m  353 -263 375 -251 390 -228 ct 406 -205 413 -172 413 -129 ct 413 -85 406 -52 390 -29 ct 
375 -6 353 5 324 5 ct 295 5 273 -6 258 -29 ct 243 -52 235 -85 235 -129 ct 235 -172 243 -205 258 -228 ct 
273 -251 295 -263 324 -263 ct p ef
535 -235 m  517 -235 504 -226 495 -208 ct 486 -191 481 -164 481 -129 ct 481 -93 486 -67 495 -49 ct 
504 -31 517 -23 535 -23 ct 553 -23 567 -31 576 -49 ct 585 -67 589 -93 589 -129 ct 
589 -164 585 -191 576 -208 ct 567 -226 553 -235 535 -235 ct p
535 -263 m  564 -263 586 -251 601 -228 ct 617 -205 624 -172 624 -129 ct 624 -85 617 -52 601 -29 ct 
586 -6 564 5 535 5 ct 506 5 484 -6 469 -29 ct 454 -52 446 -85 446 -129 ct 446 -172 454 -205 469 -228 ct 
484 -251 506 -263 535 -263 ct p ef
pom
pum
-5823 -371 t
68 -29 m  189 -29 l  189 0 l  26 0 l  26 -29 l  39 -43 57 -61 80 -84 ct 103 -108 117 -122 123 -129 ct 
134 -142 142 -152 146 -161 ct 151 -170 153 -178 153 -187 ct 153 -200 148 -211 139 -220 ct 
129 -229 116 -233 101 -233 ct 90 -233 79 -231 66 -227 ct 54 -224 41 -218 28 -210 ct 
28 -245 l  42 -251 55 -255 67 -258 ct 79 -261 90 -262 100 -262 ct 127 -262 148 -256 164 -242 ct 
180 -229 188 -211 188 -189 ct 188 -178 186 -168 182 -159 ct 178 -149 171 -138 160 -125 ct 
157 -122 148 -112 133 -96 ct 118 -80 96 -58 68 -29 ct p ef
250 -258 m  387 -258 l  387 -229 l  282 -229 l  282 -165 l  287 -167 292 -168 297 -169 ct 
302 -170 307 -170 312 -170 ct 341 -170 364 -162 381 -147 ct 397 -131 406 -110 406 -83 ct 
406 -55 397 -33 380 -18 ct 363 -3 338 5 307 5 ct 296 5 285 4 274 2 ct 263 0 251 -2 239 -6 ct 
239 -41 l  250 -35 260 -31 271 -28 ct 282 -26 294 -24 306 -24 ct 326 -24 342 -30 354 -40 ct 
365 -51 371 -65 371 -83 ct 371 -101 365 -115 354 -125 ct 342 -136 326 -141 306 -141 ct 
297 -141 288 -140 278 -138 ct 269 -136 260 -133 250 -128 ct 250 -258 l  p ef
535 -235 m  517 -235 504 -226 495 -208 ct 486 -191 481 -164 481 -129 ct 481 -93 486 -67 495 -49 ct 
504 -31 517 -23 535 -23 ct 553 -23 567 -31 576 -49 ct 585 -67 589 -93 589 -129 ct 
589 -164 585 -191 576 -208 ct 567 -226 553 -235 535 -235 ct p
535 -263 m  564 -263 586 -251 601 -228 ct 617 -205 624 -172 624 -129 ct 624 -85 617 -52 601 -29 ct 
586 -6 564 5 535 5 ct 506 5 484 -6 469 -29 ct 454 -52 446 -85 446 -129 ct 446 -172 454 -205 469 -228 ct 
484 -251 506 -263 535 -263 ct p ef
pom
pum
-5823 -1143 t
143 -139 m  160 -135 173 -128 182 -117 ct 192 -105 196 -91 196 -75 ct 196 -49 188 -30 170 -16 ct 
153 -2 128 5 96 5 ct 85 5 74 4 62 2 ct 51 0 39 -4 27 -8 ct 27 -41 l  37 -36 47 -32 59 -29 ct 
70 -26 82 -24 95 -24 ct 116 -24 133 -29 145 -37 ct 156 -46 162 -58 162 -75 ct 162 -90 156 -102 146 -110 ct 
135 -119 120 -123 101 -123 ct 71 -123 l  71 -152 l  103 -152 l  120 -152 133 -155 142 -162 ct 
151 -169 156 -179 156 -192 ct 156 -205 151 -215 142 -222 ct 132 -229 119 -233 101 -233 ct 
92 -233 82 -232 71 -230 ct 60 -228 48 -225 35 -220 ct 35 -251 l  48 -255 60 -258 72 -260 ct 
83 -261 94 -262 104 -262 ct 131 -262 152 -256 167 -244 ct 183 -232 190 -216 190 -196 ct 
190 -181 186 -169 178 -159 ct 170 -150 158 -143 143 -139 ct p ef
324 -235 m  306 -235 293 -226 284 -208 ct 275 -191 270 -164 270 -129 ct 270 -93 275 -67 284 -49 ct 
293 -31 306 -23 324 -23 ct 342 -23 356 -31 365 -49 ct 374 -67 378 -93 378 -129 ct 
378 -164 374 -191 365 -208 ct 356 -226 342 -235 324 -235 ct p
324 -263 m  353 -263 375 -251 390 -228 ct 406 -205 413 -172 413 -129 ct 413 -85 406 -52 390 -29 ct 
375 -6 353 5 324 5 ct 295 5 273 -6 258 -29 ct 243 -52 235 -85 235 -129 ct 235 -172 243 -205 258 -228 ct 
273 -251 295 -263 324 -263 ct p ef
535 -235 m  517 -235 504 -226 495 -208 ct 486 -191 481 -164 481 -129 ct 481 -93 486 -67 495 -49 ct 
504 -31 517 -23 535 -23 ct 553 -23 567 -31 576 -49 ct 585 -67 589 -93 589 -129 ct 
589 -164 585 -191 576 -208 ct 567 -226 553 -235 535 -235 ct p
535 -263 m  564 -263 586 -251 601 -228 ct 617 -205 624 -172 624 -129 ct 624 -85 617 -52 601 -29 ct 
586 -6 564 5 535 5 ct 506 5 484 -6 469 -29 ct 454 -52 446 -85 446 -129 ct 446 -172 454 -205 469 -228 ct 
484 -251 506 -263 535 -263 ct p ef
pom
pum
-5823 -1915 t
143 -139 m  160 -135 173 -128 182 -117 ct 192 -105 196 -91 196 -75 ct 196 -49 188 -30 170 -16 ct 
153 -2 128 5 96 5 ct 85 5 74 4 62 2 ct 51 0 39 -4 27 -8 ct 27 -41 l  37 -36 47 -32 59 -29 ct 
70 -26 82 -24 95 -24 ct 116 -24 133 -29 145 -37 ct 156 -46 162 -58 162 -75 ct 162 -90 156 -102 146 -110 ct 
135 -119 120 -123 101 -123 ct 71 -123 l  71 -152 l  103 -152 l  120 -152 133 -155 142 -162 ct 
151 -169 156 -179 156 -192 ct 156 -205 151 -215 142 -222 ct 132 -229 119 -233 101 -233 ct 
92 -233 82 -232 71 -230 ct 60 -228 48 -225 35 -220 ct 35 -251 l  48 -255 60 -258 72 -260 ct 
83 -261 94 -262 104 -262 ct 131 -262 152 -256 167 -244 ct 183 -232 190 -216 190 -196 ct 
190 -181 186 -169 178 -159 ct 170 -150 158 -143 143 -139 ct p ef
250 -258 m  387 -258 l  387 -229 l  282 -229 l  282 -165 l  287 -167 292 -168 297 -169 ct 
302 -170 307 -170 312 -170 ct 341 -170 364 -162 381 -147 ct 397 -131 406 -110 406 -83 ct 
406 -55 397 -33 380 -18 ct 363 -3 338 5 307 5 ct 296 5 285 4 274 2 ct 263 0 251 -2 239 -6 ct 
239 -41 l  250 -35 260 -31 271 -28 ct 282 -26 294 -24 306 -24 ct 326 -24 342 -30 354 -40 ct 
365 -51 371 -65 371 -83 ct 371 -101 365 -115 354 -125 ct 342 -136 326 -141 306 -141 ct 
297 -141 288 -140 278 -138 ct 269 -136 260 -133 250 -128 ct 250 -258 l  p ef
535 -235 m  517 -235 504 -226 495 -208 ct 486 -191 481 -164 481 -129 ct 481 -93 486 -67 495 -49 ct 
504 -31 517 -23 535 -23 ct 553 -23 567 -31 576 -49 ct 585 -67 589 -93 589 -129 ct 
589 -164 585 -191 576 -208 ct 567 -226 553 -235 535 -235 ct p
535 -263 m  564 -263 586 -251 601 -228 ct 617 -205 624 -172 624 -129 ct 624 -85 617 -52 601 -29 ct 
586 -6 564 5 535 5 ct 506 5 484 -6 469 -29 ct 454 -52 446 -85 446 -129 ct 446 -172 454 -205 469 -228 ct 
484 -251 506 -263 535 -263 ct p ef
pom
pum
-5823 -2687 t
133 -228 m  46 -90 l  133 -90 l  133 -228 l  p
124 -258 m  168 -258 l  168 -90 l  205 -90 l  205 -61 l  168 -61 l  168 0 l 
133 0 l  133 -61 l  17 -61 l  17 -95 l  124 -258 l  p ef
324 -235 m  306 -235 293 -226 284 -208 ct 275 -191 270 -164 270 -129 ct 270 -93 275 -67 284 -49 ct 
293 -31 306 -23 324 -23 ct 342 -23 356 -31 365 -49 ct 374 -67 378 -93 378 -129 ct 
378 -164 374 -191 365 -208 ct 356 -226 342 -235 324 -235 ct p
324 -263 m  353 -263 375 -251 390 -228 ct 406 -205 413 -172 413 -129 ct 413 -85 406 -52 390 -29 ct 
375 -6 353 5 324 5 ct 295 5 273 -6 258 -29 ct 243 -52 235 -85 235 -129 ct 235 -172 243 -205 258 -228 ct 
273 -251 295 -263 324 -263 ct p ef
535 -235 m  517 -235 504 -226 495 -208 ct 486 -191 481 -164 481 -129 ct 481 -93 486 -67 495 -49 ct 
504 -31 517 -23 535 -23 ct 553 -23 567 -31 576 -49 ct 585 -67 589 -93 589 -129 ct 
589 -164 585 -191 576 -208 ct 567 -226 553 -235 535 -235 ct p
535 -263 m  564 -263 586 -251 601 -228 ct 617 -205 624 -172 624 -129 ct 624 -85 617 -52 601 -29 ct 
586 -6 564 5 535 5 ct 506 5 484 -6 469 -29 ct 454 -52 446 -85 446 -129 ct 446 -172 454 -205 469 -228 ct 
484 -251 506 -263 535 -263 ct p ef
pom
pum
-5823 -3459 t
133 -228 m  46 -90 l  133 -90 l  133 -228 l  p
124 -258 m  168 -258 l  168 -90 l  205 -90 l  205 -61 l  168 -61 l  168 0 l 
133 0 l  133 -61 l  17 -61 l  17 -95 l  124 -258 l  p ef
250 -258 m  387 -258 l  387 -229 l  282 -229 l  282 -165 l  287 -167 292 -168 297 -169 ct 
302 -170 307 -170 312 -170 ct 341 -170 364 -162 381 -147 ct 397 -131 406 -110 406 -83 ct 
406 -55 397 -33 380 -18 ct 363 -3 338 5 307 5 ct 296 5 285 4 274 2 ct 263 0 251 -2 239 -6 ct 
239 -41 l  250 -35 260 -31 271 -28 ct 282 -26 294 -24 306 -24 ct 326 -24 342 -30 354 -40 ct 
365 -51 371 -65 371 -83 ct 371 -101 365 -115 354 -125 ct 342 -136 326 -141 306 -141 ct 
297 -141 288 -140 278 -138 ct 269 -136 260 -133 250 -128 ct 250 -258 l  p ef
535 -235 m  517 -235 504 -226 495 -208 ct 486 -191 481 -164 481 -129 ct 481 -93 486 -67 495 -49 ct 
504 -31 517 -23 535 -23 ct 553 -23 567 -31 576 -49 ct 585 -67 589 -93 589 -129 ct 
589 -164 585 -191 576 -208 ct 567 -226 553 -235 535 -235 ct p
535 -263 m  564 -263 586 -251 601 -228 ct 617 -205 624 -172 624 -129 ct 624 -85 617 -52 601 -29 ct 
586 -6 564 5 535 5 ct 506 5 484 -6 469 -29 ct 454 -52 446 -85 446 -129 ct 446 -172 454 -205 469 -228 ct 
484 -251 506 -263 535 -263 ct p ef
pom
pum
523 315 t
131 -269 m  131 -243 l  101 -243 l  89 -243 81 -240 77 -236 ct 73 -231 70 -223 70 -211 ct 
70 -194 l  123 -194 l  123 -169 l  70 -169 l  70 -1 l  38 -1 l  38 -169 l 
8 -169 l  8 -194 l  38 -194 l  38 -207 l  38 -229 43 -244 53 -254 ct 63 -264 79 -269 101 -269 ct 
131 -269 l  p ef
241 -269 m  226 -243 215 -216 207 -190 ct 200 -165 196 -138 196 -112 ct 196 -85 200 -59 207 -33 ct 
215 -7 226 19 241 46 ct 214 46 l  197 19 184 -8 175 -34 ct 167 -60 162 -86 162 -112 ct 
162 -137 167 -163 175 -189 ct 184 -215 197 -242 214 -269 ct 241 -269 l  p ef
459 -193 m  389 -99 l  462 0 l  425 0 l  369 -76 l  313 0 l  275 0 l  350 -101 l 
282 -193 l  319 -193 l  370 -124 l  421 -193 l  459 -193 l  p ef
504 -269 m  532 -269 l  549 -242 562 -215 571 -189 ct 579 -163 583 -137 583 -112 ct 
583 -86 579 -60 571 -34 ct 562 -8 549 19 532 46 ct 504 46 l  520 19 531 -7 538 -33 ct 
546 -59 550 -85 550 -112 ct 550 -138 546 -165 538 -190 ct 531 -216 520 -243 504 -269 ct 
p ef
751 -161 m  972 -161 l  972 -132 l  751 -132 l  751 -161 l  p
751 -90 m  972 -90 l  972 -61 l  751 -61 l  751 -90 l  p ef
1149 -258 m  1286 -258 l  1286 -229 l  1181 -229 l  1181 -165 l  1186 -167 1191 -168 1196 -169 ct 
1201 -170 1206 -170 1211 -170 ct 1240 -170 1263 -162 1280 -147 ct 1296 -131 1305 -110 1305 -83 ct 
1305 -55 1296 -33 1279 -18 ct 1262 -3 1237 5 1206 5 ct 1195 5 1184 4 1173 2 ct 
1162 0 1150 -2 1138 -6 ct 1138 -41 l  1149 -35 1159 -31 1170 -28 ct 1181 -26 1193 -24 1205 -24 ct 
1225 -24 1241 -30 1253 -40 ct 1264 -51 1270 -65 1270 -83 ct 1270 -101 1264 -115 1253 -125 ct 
1241 -136 1225 -141 1205 -141 ct 1196 -141 1187 -140 1177 -138 ct 1168 -136 1159 -133 1149 -128 ct 
1149 -258 l  p ef
1440 -143 m  1424 -143 1412 -138 1402 -127 ct 1393 -116 1389 -101 1389 -83 ct 
1389 -64 1393 -50 1402 -39 ct 1412 -28 1424 -23 1440 -23 ct 1455 -23 1468 -28 1477 -39 ct 
1486 -50 1490 -64 1490 -83 ct 1490 -101 1486 -116 1477 -127 ct 1468 -138 1455 -143 1440 -143 ct 
p
1509 -252 m  1509 -220 l  1500 -224 1491 -228 1482 -230 ct 1473 -232 1464 -233 1456 -233 ct 
1433 -233 1415 -225 1403 -210 ct 1391 -194 1384 -171 1382 -140 ct 1389 -150 1398 -157 1408 -163 ct 
1418 -168 1429 -171 1442 -171 ct 1467 -171 1488 -163 1503 -147 ct 1518 -131 1525 -110 1525 -83 ct 
1525 -56 1518 -35 1502 -19 ct 1486 -3 1465 5 1440 5 ct 1410 5 1387 -6 1371 -29 ct 
1356 -52 1348 -85 1348 -129 ct 1348 -169 1357 -202 1377 -226 ct 1396 -250 1422 -262 1454 -262 ct 
1463 -262 1472 -261 1481 -260 ct 1490 -258 1499 -255 1509 -252 ct p ef
1603 -29 m  1724 -29 l  1724 0 l  1561 0 l  1561 -29 l  1574 -43 1592 -61 1615 -84 ct 
1638 -108 1652 -122 1658 -129 ct 1669 -142 1677 -152 1681 -161 ct 1686 -170 1688 -178 1688 -187 ct 
1688 -200 1683 -211 1674 -220 ct 1664 -229 1651 -233 1636 -233 ct 1625 -233 1614 -231 1601 -227 ct 
1589 -224 1576 -218 1563 -210 ct 1563 -245 l  1577 -251 1590 -255 1602 -258 ct 
1614 -261 1625 -262 1635 -262 ct 1662 -262 1683 -256 1699 -242 ct 1715 -229 1723 -211 1723 -189 ct 
1723 -178 1721 -168 1717 -159 ct 1713 -149 1706 -138 1695 -125 ct 1692 -122 1683 -112 1668 -96 ct 
1653 -80 1631 -58 1603 -29 ct p ef
1787 -44 m  1824 -44 l  1824 -14 l  1795 41 l  1773 41 l  1787 -14 l  1787 -44 l 
p ef
1890 -258 m  2027 -258 l  2027 -229 l  1922 -229 l  1922 -165 l  1927 -167 1932 -168 1937 -169 ct 
1942 -170 1947 -170 1952 -170 ct 1981 -170 2004 -162 2021 -147 ct 2037 -131 2046 -110 2046 -83 ct 
2046 -55 2037 -33 2020 -18 ct 2003 -3 1978 5 1947 5 ct 1936 5 1925 4 1914 2 ct 
1903 0 1891 -2 1879 -6 ct 1879 -41 l  1890 -35 1900 -31 1911 -28 ct 1922 -26 1934 -24 1946 -24 ct 
1966 -24 1982 -30 1994 -40 ct 2005 -51 2011 -65 2011 -83 ct 2011 -101 2005 -115 1994 -125 ct 
1982 -136 1966 -141 1946 -141 ct 1937 -141 1928 -140 1918 -138 ct 1909 -136 1900 -133 1890 -128 ct 
1890 -258 l  p ef
2093 -257 m  2258 -257 l  2258 -243 l  2165 1 l  2129 1 l  2217 -228 l 
2093 -228 l  2093 -257 l  p ef
2575 -193 m  2505 -99 l  2578 0 l  2541 0 l  2485 -76 l  2429 0 l  2391 0 l 
2466 -101 l  2398 -193 l  2435 -193 l  2486 -124 l  2537 -193 l  2575 -193 l 
p ef
2758 -258 m  2851 -162 l  2817 -162 l  2741 -230 l  2665 -162 l  2630 -162 l 
2724 -258 l  2758 -258 l  p ef
2901 -111 m  2994 -111 l  2994 -83 l  2901 -83 l  2901 -111 l  p ef
3128 -235 m  3110 -235 3097 -226 3088 -208 ct 3079 -191 3074 -164 3074 -129 ct 
3074 -93 3079 -67 3088 -49 ct 3097 -31 3110 -23 3128 -23 ct 3146 -23 3160 -31 3169 -49 ct 
3178 -67 3182 -93 3182 -129 ct 3182 -164 3178 -191 3169 -208 ct 3160 -226 3146 -235 3128 -235 ct 
p
3128 -263 m  3157 -263 3179 -251 3194 -228 ct 3210 -205 3217 -172 3217 -129 ct 
3217 -85 3210 -52 3194 -29 ct 3179 -6 3157 5 3128 5 ct 3099 5 3077 -6 3062 -29 ct 
3047 -52 3039 -85 3039 -129 ct 3039 -172 3047 -205 3062 -228 ct 3077 -251 3099 -263 3128 -263 ct 
p ef
3269 -44 m  3306 -44 l  3306 -14 l  3277 41 l  3255 41 l  3269 -14 l  3269 -44 l 
p ef
3363 -257 m  3528 -257 l  3528 -243 l  3435 1 l  3399 1 l  3487 -228 l 
3363 -228 l  3363 -257 l  p ef
3688 -139 m  3705 -135 3718 -128 3727 -117 ct 3737 -105 3741 -91 3741 -75 ct 
3741 -49 3733 -30 3715 -16 ct 3698 -2 3673 5 3641 5 ct 3630 5 3619 4 3607 2 ct 
3596 0 3584 -4 3572 -8 ct 3572 -41 l  3582 -36 3592 -32 3604 -29 ct 3615 -26 3627 -24 3640 -24 ct 
3661 -24 3678 -29 3690 -37 ct 3701 -46 3707 -58 3707 -75 ct 3707 -90 3701 -102 3691 -110 ct 
3680 -119 3665 -123 3646 -123 ct 3616 -123 l  3616 -152 l  3648 -152 l  3665 -152 3678 -155 3687 -162 ct 
3696 -169 3701 -179 3701 -192 ct 3701 -205 3696 -215 3687 -222 ct 3677 -229 3664 -233 3646 -233 ct 
3637 -233 3627 -232 3616 -230 ct 3605 -228 3593 -225 3580 -220 ct 3580 -251 l 
3593 -255 3605 -258 3617 -260 ct 3628 -261 3639 -262 3649 -262 ct 3676 -262 3697 -256 3712 -244 ct 
3728 -232 3735 -216 3735 -196 ct 3735 -181 3731 -169 3723 -159 ct 3715 -150 3703 -143 3688 -139 ct 
p ef
pom
pum
523 712 t
157 -121 m  164 -118 171 -113 178 -105 ct 186 -96 193 -85 200 -70 ct 235 0 l 
198 0 l  165 -66 l  156 -83 148 -95 140 -101 ct 132 -106 121 -109 107 -109 ct 
69 -109 l  69 0 l  35 0 l  35 -258 l  113 -258 l  143 -258 165 -252 179 -239 ct 
194 -227 201 -208 201 -184 ct 201 -167 197 -154 190 -143 ct 182 -132 171 -125 157 -121 ct 
p
69 -229 m  69 -138 l  113 -138 l  130 -138 143 -142 151 -149 ct 160 -157 164 -168 164 -184 ct 
164 -199 160 -210 151 -218 ct 143 -225 130 -229 113 -229 ct 69 -229 l  p ef
284 -135 m  357 -135 l  357 -115 l  254 -115 l  254 -134 l  258 -138 264 -143 271 -149 ct 
310 -184 330 -207 330 -218 ct 330 -225 327 -232 321 -236 ct 315 -241 307 -243 298 -243 ct 
292 -243 285 -242 278 -240 ct 271 -238 264 -235 255 -231 ct 255 -252 l  264 -256 272 -258 280 -260 ct 
288 -261 295 -262 301 -262 ct 318 -262 331 -258 341 -251 ct 351 -243 356 -233 356 -221 ct 
356 -205 337 -180 299 -148 ct 293 -142 288 -138 284 -135 ct p ef
513 -161 m  734 -161 l  734 -132 l  513 -132 l  513 -161 l  p
513 -90 m  734 -90 l  734 -61 l  513 -61 l  513 -90 l  p ef
985 -235 m  967 -235 954 -226 945 -208 ct 936 -191 931 -164 931 -129 ct 931 -93 936 -67 945 -49 ct 
954 -31 967 -23 985 -23 ct 1003 -23 1017 -31 1026 -49 ct 1035 -67 1039 -93 1039 -129 ct 
1039 -164 1035 -191 1026 -208 ct 1017 -226 1003 -235 985 -235 ct p
985 -263 m  1014 -263 1036 -251 1051 -228 ct 1067 -205 1074 -172 1074 -129 ct 
1074 -85 1067 -52 1051 -29 ct 1036 -6 1014 5 985 5 ct 956 5 934 -6 919 -29 ct 904 -52 896 -85 896 -129 ct 
896 -172 904 -205 919 -228 ct 934 -251 956 -263 985 -263 ct p ef
1126 -44 m  1163 -44 l  1163 -14 l  1134 41 l  1112 41 l  1126 -14 l  1126 -44 l 
p ef
1230 -5 m  1230 -37 l  1239 -33 1247 -30 1256 -28 ct 1265 -25 1274 -24 1283 -24 ct 
1306 -24 1323 -32 1335 -47 ct 1347 -63 1354 -86 1356 -118 ct 1349 -108 1341 -100 1331 -95 ct 
1321 -90 1309 -87 1297 -87 ct 1271 -87 1251 -95 1236 -110 ct 1221 -126 1213 -148 1213 -175 ct 
1213 -201 1221 -223 1237 -239 ct 1252 -255 1273 -263 1299 -263 ct 1329 -263 1352 -251 1367 -228 ct 
1383 -205 1391 -172 1391 -129 ct 1391 -88 1381 -56 1362 -31 ct 1343 -7 1317 5 1284 5 ct 
1276 5 1267 4 1258 2 ct 1249 1 1239 -2 1230 -5 ct p
1299 -114 m  1315 -114 1327 -120 1336 -130 ct 1345 -141 1350 -156 1350 -175 ct 
1350 -193 1345 -208 1336 -219 ct 1327 -230 1315 -235 1299 -235 ct 1283 -235 1271 -230 1262 -219 ct 
1253 -208 1248 -193 1248 -175 ct 1248 -156 1253 -141 1262 -130 ct 1271 -120 1283 -114 1299 -114 ct 
p ef
1446 -29 m  1503 -29 l  1503 -226 l  1441 -213 l  1441 -245 l  1502 -258 l 
1537 -258 l  1537 -29 l  1594 -29 l  1594 0 l  1446 0 l  1446 -29 l  p ef
pom
pum
-2673 -4055 t
-1 -334 m  282 -334 l  282 -296 l  163 -296 l  163 1 l  117 1 l  117 -296 l 
-1 -296 l  -1 -334 l  p ef
523 -136 m  523 -116 l  333 -116 l  335 -88 344 -66 359 -51 ct 374 -36 396 -29 423 -29 ct 
439 -29 454 -31 469 -35 ct 484 -39 499 -44 513 -52 ct 513 -13 l  499 -7 483 -2 468 1 ct 
452 4 437 6 421 6 ct 381 6 349 -6 325 -29 ct 302 -52 290 -84 290 -124 ct 290 -165 301 -198 324 -222 ct 
346 -246 376 -258 413 -258 ct 447 -258 474 -247 493 -225 ct 513 -203 523 -174 523 -136 ct 
p
482 -148 m  481 -171 475 -189 463 -203 ct 450 -216 434 -223 414 -223 ct 391 -223 372 -216 359 -203 ct 
345 -190 337 -172 335 -148 ct 482 -148 l  p ef
768 -203 m  778 -221 790 -235 805 -244 ct 819 -253 836 -257 855 -257 ct 881 -257 902 -248 916 -230 ct 
930 -211 937 -185 937 -151 ct 937 0 l  896 0 l  896 -150 l  896 -174 891 -192 883 -204 ct 
874 -215 861 -221 844 -221 ct 823 -221 806 -214 793 -200 ct 781 -186 775 -166 775 -142 ct 
775 0 l  733 0 l  733 -150 l  733 -174 729 -192 720 -204 ct 712 -215 699 -221 681 -221 ct 
660 -221 643 -214 631 -200 ct 618 -185 612 -166 612 -142 ct 612 0 l  571 0 l 
571 -251 l  612 -251 l  612 -212 l  622 -227 633 -239 646 -246 ct 659 -253 675 -257 693 -257 ct 
711 -257 727 -252 739 -243 ct 752 -234 762 -220 768 -203 ct p ef
1062 -38 m  1062 95 l  1021 95 l  1021 -251 l  1062 -251 l  1062 -213 l 
1071 -228 1082 -239 1095 -247 ct 1108 -254 1124 -258 1142 -258 ct 1173 -258 1198 -245 1217 -221 ct 
1236 -197 1245 -165 1245 -126 ct 1245 -86 1236 -55 1217 -30 ct 1198 -6 1173 6 1142 6 ct 
1124 6 1108 2 1095 -5 ct 1082 -12 1071 -23 1062 -38 ct p
1202 -126 m  1202 -156 1196 -180 1184 -197 ct 1171 -214 1154 -223 1132 -223 ct 
1110 -223 1093 -214 1081 -197 ct 1068 -180 1062 -156 1062 -126 ct 1062 -95 1068 -72 1081 -54 ct 
1093 -37 1110 -29 1132 -29 ct 1154 -29 1171 -37 1184 -54 ct 1196 -72 1202 -95 1202 -126 ct 
p ef
1411 -223 m  1388 -223 1371 -214 1358 -197 ct 1345 -180 1339 -156 1339 -126 ct 
1339 -96 1345 -72 1358 -55 ct 1371 -38 1388 -29 1411 -29 ct 1432 -29 1450 -38 1463 -55 ct 
1476 -72 1482 -96 1482 -126 ct 1482 -156 1476 -179 1463 -197 ct 1450 -214 1432 -223 1411 -223 ct 
p
1411 -258 m  1446 -258 1475 -246 1495 -223 ct 1515 -200 1526 -167 1526 -126 ct 
1526 -85 1515 -53 1495 -29 ct 1475 -6 1446 6 1411 6 ct 1375 6 1346 -6 1326 -29 ct 
1306 -53 1295 -85 1295 -126 ct 1295 -167 1306 -200 1326 -223 ct 1346 -246 1375 -258 1411 -258 ct 
p ef
1751 -322 m  1751 -251 l  1836 -251 l  1836 -219 l  1751 -219 l  1751 -83 l 
1751 -62 1754 -49 1759 -43 ct 1765 -37 1776 -35 1794 -35 ct 1836 -35 l  1836 0 l 
1794 0 l  1762 0 1740 -6 1728 -18 ct 1716 -30 1710 -51 1710 -83 ct 1710 -219 l 
1679 -219 l  1679 -251 l  1710 -251 l  1710 -322 l  1751 -322 l  p ef
2041 -212 m  2036 -215 2031 -217 2026 -218 ct 2020 -220 2014 -220 2008 -220 ct 
1984 -220 1966 -213 1954 -198 ct 1941 -182 1935 -161 1935 -132 ct 1935 0 l  1894 0 l 
1894 -251 l  1935 -251 l  1935 -212 l  1944 -227 1955 -239 1969 -246 ct 1983 -253 2000 -257 2020 -257 ct 
2022 -257 2026 -257 2029 -256 ct 2032 -256 2036 -256 2040 -255 ct 2041 -212 l 
p ef
2194 -127 m  2161 -127 2138 -123 2125 -115 ct 2112 -108 2106 -95 2106 -76 ct 
2106 -62 2111 -50 2120 -41 ct 2130 -33 2143 -29 2160 -29 ct 2182 -29 2201 -37 2215 -53 ct 
2228 -69 2235 -91 2235 -118 ct 2235 -127 l  2194 -127 l  p
2277 -144 m  2277 -1 l  2235 -1 l  2235 -39 l  2226 -23 2214 -12 2200 -5 ct 
2186 2 2169 6 2149 6 ct 2123 6 2102 -1 2087 -16 ct 2072 -30 2065 -49 2065 -74 ct 
2065 -102 2074 -123 2093 -137 ct 2112 -152 2140 -159 2178 -159 ct 2235 -159 l 
2235 -163 l  2235 -182 2229 -197 2217 -207 ct 2204 -218 2187 -223 2164 -223 ct 
2150 -223 2136 -221 2122 -218 ct 2109 -214 2095 -209 2083 -202 ct 2083 -240 l 
2098 -246 2113 -251 2127 -254 ct 2141 -257 2155 -258 2168 -258 ct 2205 -258 2232 -249 2250 -230 ct 
2268 -211 2277 -182 2277 -144 ct p ef
2554 -151 m  2554 0 l  2513 0 l  2513 -150 l  2513 -174 2508 -192 2499 -203 ct 
2490 -215 2476 -221 2457 -221 ct 2435 -221 2417 -214 2404 -200 ct 2392 -186 2385 -166 2385 -142 ct 
2385 0 l  2344 0 l  2344 -251 l  2385 -251 l  2385 -212 l  2395 -227 2407 -238 2420 -246 ct 
2433 -253 2449 -257 2466 -257 ct 2495 -257 2517 -248 2532 -230 ct 2547 -212 2554 -186 2554 -151 ct 
p ef
2796 -244 m  2796 -205 l  2785 -211 2773 -216 2760 -219 ct 2747 -222 2734 -223 2721 -223 ct 
2701 -223 2685 -220 2675 -214 ct 2665 -207 2660 -198 2660 -185 ct 2660 -176 2663 -168 2671 -163 ct 
2678 -157 2693 -152 2715 -147 ct 2729 -144 l  2758 -138 2779 -129 2791 -118 ct 
2804 -106 2810 -90 2810 -70 ct 2810 -46 2801 -28 2782 -14 ct 2764 -1 2738 6 2706 6 ct 
2693 6 2679 5 2664 2 ct 2649 -1 2634 -4 2618 -10 ct 2618 -52 l  2633 -44 2648 -38 2663 -34 ct 
2678 -31 2692 -29 2707 -29 ct 2726 -29 2741 -32 2752 -38 ct 2762 -45 2767 -55 2767 -67 ct 
2767 -78 2764 -86 2756 -92 ct 2749 -98 2732 -104 2706 -110 ct 2692 -113 l  2667 -118 2648 -127 2637 -138 ct 
2625 -149 2620 -164 2620 -184 ct 2620 -207 2628 -225 2645 -238 ct 2662 -251 2685 -258 2716 -258 ct 
2731 -258 2746 -256 2759 -254 ct 2773 -252 2785 -249 2796 -244 ct p ef
2874 -251 m  2916 -251 l  2916 0 l  2874 0 l  2874 -251 l  p
2874 -349 m  2916 -349 l  2916 -297 l  2874 -297 l  2874 -349 l  p ef
3047 -322 m  3047 -251 l  3132 -251 l  3132 -219 l  3047 -219 l  3047 -83 l 
3047 -62 3050 -49 3055 -43 ct 3061 -37 3072 -35 3090 -35 ct 3132 -35 l  3132 0 l 
3090 0 l  3058 0 3036 -6 3024 -18 ct 3012 -30 3006 -51 3006 -83 ct 3006 -219 l 
2975 -219 l  2975 -251 l  3006 -251 l  3006 -322 l  3047 -322 l  p ef
3290 -223 m  3267 -223 3250 -214 3237 -197 ct 3224 -180 3218 -156 3218 -126 ct 
3218 -96 3224 -72 3237 -55 ct 3250 -38 3267 -29 3290 -29 ct 3311 -29 3329 -38 3342 -55 ct 
3355 -72 3361 -96 3361 -126 ct 3361 -156 3355 -179 3342 -197 ct 3329 -214 3311 -223 3290 -223 ct 
p
3290 -258 m  3325 -258 3354 -246 3374 -223 ct 3394 -200 3405 -167 3405 -126 ct 
3405 -85 3394 -53 3374 -29 ct 3354 -6 3325 6 3290 6 ct 3254 6 3225 -6 3205 -29 ct 
3185 -53 3174 -85 3174 -126 ct 3174 -167 3185 -200 3205 -223 ct 3225 -246 3254 -258 3290 -258 ct 
p ef
3602 -212 m  3597 -215 3592 -217 3587 -218 ct 3581 -220 3575 -220 3569 -220 ct 
3545 -220 3527 -213 3515 -198 ct 3502 -182 3496 -161 3496 -132 ct 3496 0 l  3455 0 l 
3455 -251 l  3496 -251 l  3496 -212 l  3505 -227 3516 -239 3530 -246 ct 3544 -253 3561 -257 3581 -257 ct 
3583 -257 3587 -257 3590 -256 ct 3593 -256 3597 -256 3601 -255 ct 3602 -212 l 
p ef
3641 -251 m  3683 -251 l  3683 0 l  3641 0 l  3641 -251 l  p
3641 -349 m  3683 -349 l  3683 -297 l  3641 -297 l  3641 -349 l  p ef
3872 -223 m  3849 -223 3832 -214 3819 -197 ct 3806 -180 3800 -156 3800 -126 ct 
3800 -96 3806 -72 3819 -55 ct 3832 -38 3849 -29 3872 -29 ct 3893 -29 3911 -38 3924 -55 ct 
3937 -72 3943 -96 3943 -126 ct 3943 -156 3937 -179 3924 -197 ct 3911 -214 3893 -223 3872 -223 ct 
p
3872 -258 m  3907 -258 3936 -246 3956 -223 ct 3976 -200 3987 -167 3987 -126 ct 
3987 -85 3976 -53 3956 -29 ct 3936 -6 3907 6 3872 6 ct 3836 6 3807 -6 3787 -29 ct 
3767 -53 3756 -85 3756 -126 ct 3756 -167 3767 -200 3787 -223 ct 3807 -246 3836 -258 3872 -258 ct 
p ef
4142 -251 m  4185 -251 l  4264 -40 l  4342 -251 l  4386 -251 l  4292 0 l 
4236 0 l  4142 -251 l  p ef
4595 -244 m  4595 -205 l  4584 -211 4572 -216 4559 -219 ct 4546 -222 4533 -223 4520 -223 ct 
4500 -223 4484 -220 4474 -214 ct 4464 -207 4459 -198 4459 -185 ct 4459 -176 4462 -168 4470 -163 ct 
4477 -157 4492 -152 4514 -147 ct 4528 -144 l  4557 -138 4578 -129 4590 -118 ct 
4603 -106 4609 -90 4609 -70 ct 4609 -46 4600 -28 4581 -14 ct 4563 -1 4537 6 4505 6 ct 
4492 6 4478 5 4463 2 ct 4448 -1 4433 -4 4417 -10 ct 4417 -52 l  4432 -44 4447 -38 4462 -34 ct 
4477 -31 4491 -29 4506 -29 ct 4525 -29 4540 -32 4551 -38 ct 4561 -45 4566 -55 4566 -67 ct 
4566 -78 4563 -86 4555 -92 ct 4548 -98 4531 -104 4505 -110 ct 4491 -113 l  4466 -118 4447 -127 4436 -138 ct 
4424 -149 4419 -164 4419 -184 ct 4419 -207 4427 -225 4444 -238 ct 4461 -251 4484 -258 4515 -258 ct 
4530 -258 4545 -256 4558 -254 ct 4572 -252 4584 -249 4595 -244 ct p ef
4920 -290 m  4828 -38 l  5012 -38 l  4920 -290 l  p
4767 0 m  4894 -335 l  4946 -335 l  5073 0 l  4767 0 l  p ef
5079 -334 m  5362 -334 l  5362 -296 l  5243 -296 l  5243 1 l  5197 1 l 
5197 -296 l  5079 -296 l  5079 -334 l  p ef
pom
pum
-261 4603 t
109 -201 m  45 -26 l  173 -26 l  109 -201 l  p
2 0 m  91 -232 l  127 -232 l  215 0 l  2 0 l  p ef
211 -231 m  407 -231 l  407 -205 l  325 -205 l  325 1 l  293 1 l  293 -205 l 
211 -205 l  211 -231 l  p ef
602 -241 m  588 -217 577 -194 571 -170 ct 564 -147 561 -124 561 -100 ct 561 -76 564 -52 571 -29 ct 
578 -5 588 18 602 42 ct 577 42 l  561 18 550 -6 542 -30 ct 534 -53 530 -76 530 -100 ct 
530 -123 534 -146 542 -169 ct 549 -193 561 -217 577 -241 ct 602 -241 l  p ef
666 -232 m  698 -232 l  698 -134 l  802 -232 l  842 -232 l  727 -124 l 
850 0 l  809 0 l  698 -112 l  698 0 l  666 0 l  666 -232 l  p ef
872 -241 m  897 -241 l  913 -217 924 -193 932 -169 ct 940 -146 944 -123 944 -100 ct 
944 -76 940 -53 932 -30 ct 924 -6 913 18 897 42 ct 872 42 l  886 18 897 -5 903 -29 ct 
910 -52 913 -76 913 -100 ct 913 -124 910 -147 903 -170 ct 897 -194 886 -217 872 -241 ct 
p ef
pom
pum
-6282 1443 t
90.0 r -1 -231 m  195 -231 l  195 -205 l  113 -205 l  113 1 l  81 1 l  81 -205 l 
-1 -205 l  -1 -231 l  p ef
364 -95 m  364 -81 l  232 -81 l  234 -61 240 -46 250 -36 ct 261 -25 276 -20 294 -20 ct 
305 -20 316 -22 326 -24 ct 337 -27 347 -31 357 -36 ct 357 -9 l  347 -5 336 -2 326 1 ct 
315 3 304 4 293 4 ct 265 4 243 -4 227 -20 ct 211 -36 203 -58 203 -86 ct 203 -114 210 -137 226 -153 ct 
241 -170 262 -178 288 -178 ct 311 -178 330 -171 343 -156 ct 357 -141 364 -120 364 -95 ct 
p
335 -103 m  335 -119 331 -131 322 -140 ct 313 -149 302 -154 288 -154 ct 272 -154 259 -150 250 -141 ct 
240 -132 235 -119 233 -103 ct 335 -103 l  p ef
535 -140 m  543 -153 551 -163 561 -169 ct 571 -175 583 -178 596 -178 ct 614 -178 628 -172 638 -159 ct 
648 -146 653 -128 653 -105 ct 653 0 l  624 0 l  624 -104 l  624 -121 621 -133 615 -141 ct 
609 -149 600 -153 588 -153 ct 573 -153 562 -148 553 -138 ct 544 -129 540 -115 540 -98 ct 
540 0 l  511 0 l  511 -104 l  511 -121 509 -133 503 -141 ct 497 -149 488 -153 475 -153 ct 
461 -153 449 -148 440 -138 ct 432 -128 428 -115 428 -98 ct 428 0 l  399 0 l 
399 -174 l  428 -174 l  428 -147 l  434 -157 442 -165 451 -170 ct 460 -175 471 -178 484 -178 ct 
496 -178 507 -175 516 -168 ct 525 -162 531 -153 535 -140 ct p ef
746 -27 m  746 66 l  717 66 l  717 -174 l  746 -174 l  746 -147 l  752 -158 759 -165 768 -170 ct 
778 -176 788 -178 801 -178 ct 822 -178 839 -170 853 -153 ct 866 -136 872 -114 872 -87 ct 
872 -60 866 -38 853 -21 ct 839 -4 822 4 801 4 ct 788 4 778 1 768 -4 ct 759 -9 752 -16 746 -27 ct 
p
843 -87 m  843 -108 838 -124 830 -136 ct 821 -148 809 -154 794 -154 ct 779 -154 767 -148 759 -136 ct 
750 -124 746 -108 746 -87 ct 746 -66 750 -50 759 -38 ct 767 -26 779 -20 794 -20 ct 
809 -20 821 -26 830 -38 ct 838 -50 843 -66 843 -87 ct p ef
997 -154 m  982 -154 970 -148 961 -136 ct 952 -124 948 -108 948 -87 ct 948 -66 952 -50 961 -38 ct 
970 -26 982 -20 997 -20 ct 1013 -20 1025 -26 1034 -38 ct 1042 -50 1047 -66 1047 -87 ct 
1047 -108 1042 -124 1034 -136 ct 1025 -148 1013 -154 997 -154 ct p
997 -178 m  1022 -178 1042 -170 1056 -154 ct 1070 -138 1077 -116 1077 -87 ct 
1077 -59 1070 -36 1056 -20 ct 1042 -4 1022 4 997 4 ct 972 4 953 -4 939 -20 ct 925 -36 918 -59 918 -87 ct 
918 -116 925 -138 939 -154 ct 953 -170 972 -178 997 -178 ct p ef
1290 -241 m  1276 -217 1265 -194 1259 -170 ct 1252 -147 1249 -124 1249 -100 ct 
1249 -76 1252 -52 1259 -29 ct 1266 -5 1276 18 1290 42 ct 1265 42 l  1249 18 1238 -6 1230 -30 ct 
1222 -53 1218 -76 1218 -100 ct 1218 -123 1222 -146 1230 -169 ct 1237 -193 1249 -217 1265 -241 ct 
1290 -241 l  p ef
1486 -140 m  1440 -140 l  1427 -88 l  1473 -88 l  1486 -140 l  p
1462 -228 m  1446 -164 l  1491 -164 l  1508 -228 l  1533 -228 l  1517 -164 l 
1565 -164 l  1565 -140 l  1511 -140 l  1498 -88 l  1547 -88 l  1547 -64 l 
1492 -64 l  1476 0 l  1451 0 l  1467 -64 l  1421 -64 l  1405 0 l  1380 0 l 
1396 -64 l  1348 -64 l  1348 -88 l  1402 -88 l  1415 -140 l  1365 -140 l 
1365 -164 l  1421 -164 l  1437 -228 l  1462 -228 l  p ef
1706 -241 m  1706 -217 l  1679 -217 l  1668 -217 1661 -215 1657 -211 ct 1653 -207 1651 -199 1651 -189 ct 
1651 -173 l  1698 -173 l  1698 -151 l  1651 -151 l  1651 0 l  1623 0 l 
1623 -151 l  1595 -151 l  1595 -173 l  1623 -173 l  1623 -185 l  1623 -205 1627 -219 1636 -228 ct 
1645 -237 1659 -241 1679 -241 ct 1706 -241 l  p ef
1824 -147 m  1821 -149 1817 -150 1813 -151 ct 1809 -152 1805 -153 1801 -153 ct 
1785 -153 1772 -147 1764 -137 ct 1755 -126 1751 -111 1751 -92 ct 1751 0 l  1722 0 l 
1722 -174 l  1751 -174 l  1751 -147 l  1757 -157 1764 -165 1774 -170 ct 1784 -175 1795 -178 1809 -178 ct 
1811 -178 1813 -178 1816 -178 ct 1818 -177 1821 -177 1824 -176 ct 1824 -147 l 
p ef
1935 -88 m  1912 -88 1896 -85 1887 -80 ct 1878 -75 1874 -66 1874 -53 ct 1874 -43 1877 -35 1884 -29 ct 
1890 -23 1899 -20 1911 -20 ct 1927 -20 1939 -26 1949 -37 ct 1959 -48 1963 -63 1963 -82 ct 
1963 -88 l  1935 -88 l  p
1992 -100 m  1992 -1 l  1963 -1 l  1963 -27 l  1957 -16 1949 -9 1939 -4 ct 
1929 1 1917 4 1903 4 ct 1886 4 1871 -1 1861 -11 ct 1850 -21 1845 -34 1845 -51 ct 
1845 -71 1852 -85 1865 -95 ct 1878 -105 1897 -110 1923 -110 ct 1963 -110 l  1963 -113 l 
1963 -126 1959 -136 1950 -143 ct 1942 -150 1930 -154 1914 -154 ct 1904 -154 1894 -153 1885 -150 ct 
1876 -148 1867 -145 1858 -140 ct 1858 -166 l  1868 -170 1878 -173 1888 -175 ct 
1898 -177 1908 -178 1917 -178 ct 1942 -178 1961 -172 1973 -159 ct 1986 -146 1992 -126 1992 -100 ct 
p ef
2176 -140 m  2184 -153 2192 -163 2202 -169 ct 2212 -175 2224 -178 2237 -178 ct 
2255 -178 2269 -172 2279 -159 ct 2289 -146 2294 -128 2294 -105 ct 2294 0 l  2265 0 l 
2265 -104 l  2265 -121 2262 -133 2256 -141 ct 2250 -149 2241 -153 2229 -153 ct 
2214 -153 2203 -148 2194 -138 ct 2185 -129 2181 -115 2181 -98 ct 2181 0 l  2152 0 l 
2152 -104 l  2152 -121 2150 -133 2144 -141 ct 2138 -149 2129 -153 2116 -153 ct 
2102 -153 2090 -148 2081 -138 ct 2073 -128 2069 -115 2069 -98 ct 2069 0 l  2040 0 l 
2040 -174 l  2069 -174 l  2069 -147 l  2075 -157 2083 -165 2092 -170 ct 2101 -175 2112 -178 2125 -178 ct 
2137 -178 2148 -175 2157 -168 ct 2166 -162 2172 -153 2176 -140 ct p ef
2507 -95 m  2507 -81 l  2375 -81 l  2377 -61 2383 -46 2393 -36 ct 2404 -25 2419 -20 2437 -20 ct 
2448 -20 2459 -22 2469 -24 ct 2480 -27 2490 -31 2500 -36 ct 2500 -9 l  2490 -5 2479 -2 2469 1 ct 
2458 3 2447 4 2436 4 ct 2408 4 2386 -4 2370 -20 ct 2354 -36 2346 -58 2346 -86 ct 
2346 -114 2353 -137 2369 -153 ct 2384 -170 2405 -178 2431 -178 ct 2454 -178 2473 -171 2486 -156 ct 
2500 -141 2507 -120 2507 -95 ct p
2478 -103 m  2478 -119 2474 -131 2465 -140 ct 2456 -149 2445 -154 2431 -154 ct 
2415 -154 2402 -150 2393 -141 ct 2383 -132 2378 -119 2376 -103 ct 2478 -103 l 
p ef
2539 -241 m  2564 -241 l  2580 -217 2591 -193 2599 -169 ct 2607 -146 2611 -123 2611 -100 ct 
2611 -76 2607 -53 2599 -30 ct 2591 -6 2580 18 2564 42 ct 2539 42 l  2553 18 2564 -5 2570 -29 ct 
2577 -52 2580 -76 2580 -100 ct 2580 -124 2577 -147 2570 -170 ct 2564 -194 2553 -217 2539 -241 ct 
p ef
pom
0 9901 t 
pom
count op_count sub {pop} repeat countdictstack dict_count sub {end} repeat b4_inc_state restore
%%PageTrailer
%%Trailer
%%EOF
